<?xml version="1.0" encoding="UTF-8" standalone="no"?>
<!-- Created with matplotlib (http://matplotlib.org/) -->

<svg
   xmlns:dc="http://purl.org/dc/elements/1.1/"
   xmlns:cc="http://creativecommons.org/ns#"
   xmlns:rdf="http://www.w3.org/1999/02/22-rdf-syntax-ns#"
   xmlns:svg="http://www.w3.org/2000/svg"
   xmlns="http://www.w3.org/2000/svg"
   xmlns:xlink="http://www.w3.org/1999/xlink"
   xmlns:sodipodi="http://sodipodi.sourceforge.net/DTD/sodipodi-0.dtd"
   xmlns:inkscape="http://www.inkscape.org/namespaces/inkscape"
   height="540"
   version="1.1"
   viewBox="0 0 576 432"
   width="720"
   id="svg2"
   inkscape:version="0.48.3.1 r9886"
   sodipodi:docname="Add Expires headers.svg">
  <metadata
     id="metadata706">
    <rdf:RDF>
      <cc:Work
         rdf:about="">
        <dc:format>image/svg+xml</dc:format>
        <dc:type
           rdf:resource="http://purl.org/dc/dcmitype/StillImage" />
      </cc:Work>
    </rdf:RDF>
  </metadata>
  <sodipodi:namedview
     pagecolor="#ffffff"
     bordercolor="#666666"
     borderopacity="1"
     objecttolerance="10"
     gridtolerance="10"
     guidetolerance="10"
     inkscape:pageopacity="0"
     inkscape:pageshadow="2"
     inkscape:window-width="1366"
     inkscape:window-height="692"
     id="namedview704"
     showgrid="false"
     fit-margin-top="0"
     fit-margin-left="0"
     fit-margin-right="0"
     fit-margin-bottom="0"
     inkscape:zoom="0.40555556"
     inkscape:cx="360"
     inkscape:cy="270"
     inkscape:window-x="0"
     inkscape:window-y="24"
     inkscape:window-maximized="1"
     inkscape:current-layer="svg2" />
  <defs
     id="defs4"
     style="stroke-linecap:butt;stroke-linejoin:round">
    <style
       type="text/css"
       id="style6">
*{stroke-linecap:butt;stroke-linejoin:round;}
  </style>
  </defs>
  <g
     id="figure_1"
     style="stroke-linecap:butt;stroke-linejoin:round">
    <g
       id="patch_1"
       style="stroke-linecap:butt;stroke-linejoin:round">
      <path
         d="M 0,432 576,432 576,0 0,0 z"
         style="fill:#ffffff;stroke-linecap:butt;stroke-linejoin:round"
         id="path10"
         inkscape:connector-curvature="0" />
    </g>
    <g
       id="axes_1"
       style="stroke-linecap:butt;stroke-linejoin:round">
      <g
         id="patch_2"
         style="stroke-linecap:butt;stroke-linejoin:round">
        <path
           d="m 72,388.8 446.4,0 0,-345.6 -446.4,0 z"
           style="fill:#ffffff;stroke-linecap:butt;stroke-linejoin:round"
           id="path14"
           inkscape:connector-curvature="0" />
      </g>
      <g
         id="patch_3"
         style="stroke-linecap:butt;stroke-linejoin:round">
        <path
           clip-path="url(#p7ff5b81e1d)"
           d="m 72,388.8 37.2,0 0,-2.004 -37.2,0 z"
           style="fill:url(#hcad88ede71);stroke:#000000;stroke-linecap:butt;stroke-linejoin:round"
           id="path17"
           inkscape:connector-curvature="0" />
      </g>
      <g
         id="patch_4"
         style="stroke-linecap:butt;stroke-linejoin:round">
        <path
           clip-path="url(#p7ff5b81e1d)"
           d="m 109.2,388.8 37.2,0 0,0 -37.2,0 z"
           style="fill:url(#hcad88ede71);stroke:#000000;stroke-linecap:butt;stroke-linejoin:round"
           id="path20"
           inkscape:connector-curvature="0" />
      </g>
      <g
         id="patch_5"
         style="stroke-linecap:butt;stroke-linejoin:round">
        <path
           clip-path="url(#p7ff5b81e1d)"
           d="m 146.4,388.8 37.2,0 0,-329.6333 -37.2,0 z"
           style="fill:url(#hcad88ede71);stroke:#000000;stroke-linecap:butt;stroke-linejoin:round"
           id="path23"
           inkscape:connector-curvature="0" />
      </g>
      <g
         id="patch_6"
         style="stroke-linecap:butt;stroke-linejoin:round">
        <path
           clip-path="url(#p7ff5b81e1d)"
           d="m 183.6,388.8 37.2,0 0,0 -37.2,0 z"
           style="fill:url(#hcad88ede71);stroke:#000000;stroke-linecap:butt;stroke-linejoin:round"
           id="path26"
           inkscape:connector-curvature="0" />
      </g>
      <g
         id="patch_7"
         style="stroke-linecap:butt;stroke-linejoin:round">
        <path
           clip-path="url(#p7ff5b81e1d)"
           d="m 220.8,388.8 37.2,0 0,-90.824 -37.2,0 z"
           style="fill:url(#hcad88ede71);stroke:#000000;stroke-linecap:butt;stroke-linejoin:round"
           id="path29"
           inkscape:connector-curvature="0" />
      </g>
      <g
         id="patch_8"
         style="stroke-linecap:butt;stroke-linejoin:round">
        <path
           clip-path="url(#p7ff5b81e1d)"
           d="m 258,388.8 37.2,0 0,0 -37.2,0 z"
           style="fill:url(#hcad88ede71);stroke:#000000;stroke-linecap:butt;stroke-linejoin:round"
           id="path32"
           inkscape:connector-curvature="0" />
      </g>
      <g
         id="patch_9"
         style="stroke-linecap:butt;stroke-linejoin:round">
        <path
           clip-path="url(#p7ff5b81e1d)"
           d="m 295.2,388.8 37.2,0 0,-57.024 -37.2,0 z"
           style="fill:url(#hcad88ede71);stroke:#000000;stroke-linecap:butt;stroke-linejoin:round"
           id="path35"
           inkscape:connector-curvature="0" />
      </g>
      <g
         id="patch_10"
         style="stroke-linecap:butt;stroke-linejoin:round">
        <path
           clip-path="url(#p7ff5b81e1d)"
           d="m 332.4,388.8 37.2,0 0,0 -37.2,0 z"
           style="fill:url(#hcad88ede71);stroke:#000000;stroke-linecap:butt;stroke-linejoin:round"
           id="path38"
           inkscape:connector-curvature="0" />
      </g>
      <g
         id="patch_11"
         style="stroke-linecap:butt;stroke-linejoin:round">
        <path
           clip-path="url(#p7ff5b81e1d)"
           d="m 369.6,388.8 37.2,0 0,-40.297 -37.2,0 z"
           style="fill:url(#hcad88ede71);stroke:#000000;stroke-linecap:butt;stroke-linejoin:round"
           id="path41"
           inkscape:connector-curvature="0" />
      </g>
      <g
         id="patch_12"
         style="stroke-linecap:butt;stroke-linejoin:round">
        <path
           clip-path="url(#p7ff5b81e1d)"
           d="m 406.8,388.8 37.2,0 0,0 -37.2,0 z"
           style="fill:url(#hcad88ede71);stroke:#000000;stroke-linecap:butt;stroke-linejoin:round"
           id="path44"
           inkscape:connector-curvature="0" />
      </g>
      <g
         id="patch_13"
         style="stroke-linecap:butt;stroke-linejoin:round">
        <path
           clip-path="url(#p7ff5b81e1d)"
           d="m 444,388.8 37.2,0 0,-87.506 -37.2,0 z"
           style="fill:url(#hcad88ede71);stroke:#000000;stroke-linecap:butt;stroke-linejoin:round"
           id="path47"
           inkscape:connector-curvature="0" />
      </g>
      <g
         id="matplotlib.axis_1"
         style="stroke-linecap:butt;stroke-linejoin:round">
        <g
           id="xtick_1"
           style="stroke-linecap:butt;stroke-linejoin:round">
          <g
             id="line2d_1"
             style="stroke-linecap:butt;stroke-linejoin:round">
            <defs
               id="defs52">
              <path
                 d="M 0,0 0,-4"
                 id="m93b0483c22"
                 style="stroke:#000000;stroke-width:0.5;stroke-linecap:butt;stroke-linejoin:round"
                 inkscape:connector-curvature="0" />
            </defs>
            <g
               id="g55"
               style="stroke-linecap:butt;stroke-linejoin:round">
              <use
                 style="stroke:#000000;stroke-width:0.5;stroke-linecap:butt;stroke-linejoin:round"
                 x="90.599998"
                 xlink:href="#m93b0483c22"
                 y="388.79999"
                 id="use57"
                 width="576"
                 height="432" />
            </g>
          </g>
          <g
             id="line2d_2"
             style="stroke-linecap:butt;stroke-linejoin:round">
            <defs
               id="defs60">
              <path
                 d="M 0,0 0,4"
                 id="m741efc42ff"
                 style="stroke:#000000;stroke-width:0.5;stroke-linecap:butt;stroke-linejoin:round"
                 inkscape:connector-curvature="0" />
            </defs>
            <g
               id="g63"
               style="stroke-linecap:butt;stroke-linejoin:round">
              <use
                 style="stroke:#000000;stroke-width:0.5;stroke-linecap:butt;stroke-linejoin:round"
                 x="90.599998"
                 xlink:href="#m741efc42ff"
                 y="43.200001"
                 id="use65"
                 width="576"
                 height="432" />
            </g>
          </g>
          <g
             id="text_1"
             style="stroke-linecap:butt;stroke-linejoin:round">
            <!-- A+ -->
            <defs
               id="defs68">
              <path
                 d="M 46,62.7031 46,35.5 l 27.1875,0 0,-8.2969 L 46,27.2031 46,0 l -8.2031,0 0,27.2031 -27.2031,0 0,8.2969 27.2031,0 0,27.2031 z"
                 id="DejaVuSans-2b"
                 inkscape:connector-curvature="0"
                 style="stroke-linecap:butt;stroke-linejoin:round" />
              <path
                 d="m 34.1875,63.1875 -13.3906,-36.2813 26.8125,0 z m -5.5781,9.7187 11.1875,0 L 67.5781,0 l -10.25,0 -6.6406,18.7031 -32.8594,0 L 11.1875,0 0.78125,0 z"
                 id="DejaVuSans-41"
                 inkscape:connector-curvature="0"
                 style="stroke-linecap:butt;stroke-linejoin:round" />
            </defs>
            <g
               transform="matrix(0.12,0,0,-0.12,82.15125,401.91812)"
               id="g72"
               style="stroke-linecap:butt;stroke-linejoin:round">
              <use
                 xlink:href="#DejaVuSans-41"
                 id="use74"
                 style="stroke-linecap:butt;stroke-linejoin:round"
                 x="0"
                 y="0"
                 width="576"
                 height="432" />
              <use
                 x="68.408203"
                 xlink:href="#DejaVuSans-2b"
                 id="use76"
                 style="stroke-linecap:butt;stroke-linejoin:round"
                 y="0"
                 width="576"
                 height="432" />
            </g>
          </g>
        </g>
        <g
           id="xtick_2"
           style="stroke-linecap:butt;stroke-linejoin:round">
          <g
             id="line2d_3"
             style="stroke-linecap:butt;stroke-linejoin:round">
            <g
               id="g80"
               style="stroke-linecap:butt;stroke-linejoin:round">
              <use
                 style="stroke:#000000;stroke-width:0.5;stroke-linecap:butt;stroke-linejoin:round"
                 x="127.8"
                 xlink:href="#m93b0483c22"
                 y="388.79999"
                 id="use82"
                 width="576"
                 height="432" />
            </g>
          </g>
          <g
             id="line2d_4"
             style="stroke-linecap:butt;stroke-linejoin:round">
            <g
               id="g85"
               style="stroke-linecap:butt;stroke-linejoin:round">
              <use
                 style="stroke:#000000;stroke-width:0.5;stroke-linecap:butt;stroke-linejoin:round"
                 x="127.8"
                 xlink:href="#m741efc42ff"
                 y="43.200001"
                 id="use87"
                 width="576"
                 height="432" />
            </g>
          </g>
          <g
             id="text_2"
             style="stroke-linecap:butt;stroke-linejoin:round">
            <!-- A- -->
            <defs
               id="defs90">
              <path
                 d="m 4.89062,31.3906 26.31248,0 0,-8 -26.31248,0 z"
                 id="DejaVuSans-2d"
                 inkscape:connector-curvature="0"
                 style="stroke-linecap:butt;stroke-linejoin:round" />
            </defs>
            <g
               transform="matrix(0.12,0,0,-0.12,122.00531,401.91812)"
               id="g93"
               style="stroke-linecap:butt;stroke-linejoin:round">
              <use
                 xlink:href="#DejaVuSans-41"
                 id="use95"
                 style="stroke-linecap:butt;stroke-linejoin:round"
                 x="0"
                 y="0"
                 width="576"
                 height="432" />
              <use
                 x="66.158203"
                 xlink:href="#DejaVuSans-2d"
                 id="use97"
                 style="stroke-linecap:butt;stroke-linejoin:round"
                 y="0"
                 width="576"
                 height="432" />
            </g>
          </g>
        </g>
        <g
           id="xtick_3"
           style="stroke-linecap:butt;stroke-linejoin:round">
          <g
             id="line2d_5"
             style="stroke-linecap:butt;stroke-linejoin:round">
            <g
               id="g101"
               style="stroke-linecap:butt;stroke-linejoin:round">
              <use
                 style="stroke:#000000;stroke-width:0.5;stroke-linecap:butt;stroke-linejoin:round"
                 x="165"
                 xlink:href="#m93b0483c22"
                 y="388.79999"
                 id="use103"
                 width="576"
                 height="432" />
            </g>
          </g>
          <g
             id="line2d_6"
             style="stroke-linecap:butt;stroke-linejoin:round">
            <g
               id="g106"
               style="stroke-linecap:butt;stroke-linejoin:round">
              <use
                 style="stroke:#000000;stroke-width:0.5;stroke-linecap:butt;stroke-linejoin:round"
                 x="165"
                 xlink:href="#m741efc42ff"
                 y="43.200001"
                 id="use108"
                 width="576"
                 height="432" />
            </g>
          </g>
          <g
             id="text_3"
             style="stroke-linecap:butt;stroke-linejoin:round">
            <!-- B+ -->
            <defs
               id="defs111">
              <path
                 d="m 19.6719,34.8125 0,-26.70312 15.8281,0 q 7.9531,0 11.7812,3.29682 3.8438,3.2969 3.8438,10.0782 0,6.8437 -3.8438,10.0781 -3.8281,3.25 -11.7812,3.25 z m 0,29.9844 0,-21.9688 14.6093,0 q 7.2188,0 10.75,2.7031 3.5469,2.7188 3.5469,8.2813 0,5.5156 -3.5469,8.25 -3.5312,2.7344 -10.75,2.7344 z m -9.8594,8.1093 25.2031,0 q 11.2813,0 17.375,-4.6874 Q 58.5,63.5312 58.5,54.8906 58.5,48.1875 55.375,44.2344 52.25,40.2812 46.1875,39.3125 53.4688,37.75 57.5,32.7812 q 4.0312,-4.9531 4.0312,-12.375 0,-9.7656 -6.6406,-15.0937 Q 48.25,0 35.9844,0 L 9.8125,0 z"
                 id="DejaVuSans-42"
                 inkscape:connector-curvature="0"
                 style="stroke-linecap:butt;stroke-linejoin:round" />
            </defs>
            <g
               transform="matrix(0.12,0,0,-0.12,157.08094,401.91812)"
               id="g114"
               style="stroke-linecap:butt;stroke-linejoin:round">
              <use
                 xlink:href="#DejaVuSans-42"
                 id="use116"
                 style="stroke-linecap:butt;stroke-linejoin:round"
                 x="0"
                 y="0"
                 width="576"
                 height="432" />
              <use
                 x="68.603516"
                 xlink:href="#DejaVuSans-2b"
                 id="use118"
                 style="stroke-linecap:butt;stroke-linejoin:round"
                 y="0"
                 width="576"
                 height="432" />
            </g>
          </g>
        </g>
        <g
           id="xtick_4"
           style="stroke-linecap:butt;stroke-linejoin:round">
          <g
             id="line2d_7"
             style="stroke-linecap:butt;stroke-linejoin:round">
            <g
               id="g122"
               style="stroke-linecap:butt;stroke-linejoin:round">
              <use
                 style="stroke:#000000;stroke-width:0.5;stroke-linecap:butt;stroke-linejoin:round"
                 x="202.2"
                 xlink:href="#m93b0483c22"
                 y="388.79999"
                 id="use124"
                 width="576"
                 height="432" />
            </g>
          </g>
          <g
             id="line2d_8"
             style="stroke-linecap:butt;stroke-linejoin:round">
            <g
               id="g127"
               style="stroke-linecap:butt;stroke-linejoin:round">
              <use
                 style="stroke:#000000;stroke-width:0.5;stroke-linecap:butt;stroke-linejoin:round"
                 x="202.2"
                 xlink:href="#m741efc42ff"
                 y="43.200001"
                 id="use129"
                 width="576"
                 height="432" />
            </g>
          </g>
          <g
             id="text_4"
             style="stroke-linecap:butt;stroke-linejoin:round">
            <!-- B- -->
            <g
               transform="matrix(0.12,0,0,-0.12,196.8,401.91812)"
               id="g132"
               style="stroke-linecap:butt;stroke-linejoin:round">
              <use
                 xlink:href="#DejaVuSans-42"
                 id="use134"
                 style="stroke-linecap:butt;stroke-linejoin:round"
                 x="0"
                 y="0"
                 width="576"
                 height="432" />
              <use
                 x="68.603516"
                 xlink:href="#DejaVuSans-2d"
                 id="use136"
                 style="stroke-linecap:butt;stroke-linejoin:round"
                 y="0"
                 width="576"
                 height="432" />
            </g>
          </g>
        </g>
        <g
           id="xtick_5"
           style="stroke-linecap:butt;stroke-linejoin:round">
          <g
             id="line2d_9"
             style="stroke-linecap:butt;stroke-linejoin:round">
            <g
               id="g140"
               style="stroke-linecap:butt;stroke-linejoin:round">
              <use
                 style="stroke:#000000;stroke-width:0.5;stroke-linecap:butt;stroke-linejoin:round"
                 x="239.39999"
                 xlink:href="#m93b0483c22"
                 y="388.79999"
                 id="use142"
                 width="576"
                 height="432" />
            </g>
          </g>
          <g
             id="line2d_10"
             style="stroke-linecap:butt;stroke-linejoin:round">
            <g
               id="g145"
               style="stroke-linecap:butt;stroke-linejoin:round">
              <use
                 style="stroke:#000000;stroke-width:0.5;stroke-linecap:butt;stroke-linejoin:round"
                 x="239.39999"
                 xlink:href="#m741efc42ff"
                 y="43.200001"
                 id="use147"
                 width="576"
                 height="432" />
            </g>
          </g>
          <g
             id="text_5"
             style="stroke-linecap:butt;stroke-linejoin:round">
            <!-- C+ -->
            <defs
               id="defs150">
              <path
                 d="m 64.4062,67.2812 0,-10.3906 q -4.9843,4.6406 -10.625,6.9219 -5.6406,2.2969 -11.9843,2.2969 -12.5,0 -19.1407,-7.6406 -6.6406,-7.6407 -6.6406,-22.0938 0,-14.4062 6.6406,-22.0469 6.6407,-7.6406 19.1407,-7.6406 6.3437,0 11.9843,2.29688 5.6407,2.29682 10.625,6.93752 l 0,-10.31252 Q 59.2344,2.09375 53.4375,0.328125 47.6562,-1.42188 41.2188,-1.42188 q -16.5626,0 -26.0938,10.125 Q 5.60938,18.8438 5.60938,36.375 q 0,17.5781 9.51562,27.7031 9.5312,10.1407 26.0938,10.1407 6.5312,0 12.3124,-1.7344 5.7969,-1.7344 10.875,-5.2032"
                 id="DejaVuSans-43"
                 inkscape:connector-curvature="0"
                 style="stroke-linecap:butt;stroke-linejoin:round" />
            </defs>
            <g
               transform="matrix(0.12,0,0,-0.12,231.15562,401.91812)"
               id="g153"
               style="stroke-linecap:butt;stroke-linejoin:round">
              <use
                 xlink:href="#DejaVuSans-43"
                 id="use155"
                 style="stroke-linecap:butt;stroke-linejoin:round"
                 x="0"
                 y="0"
                 width="576"
                 height="432" />
              <use
                 x="69.824219"
                 xlink:href="#DejaVuSans-2b"
                 id="use157"
                 style="stroke-linecap:butt;stroke-linejoin:round"
                 y="0"
                 width="576"
                 height="432" />
            </g>
          </g>
        </g>
        <g
           id="xtick_6"
           style="stroke-linecap:butt;stroke-linejoin:round">
          <g
             id="line2d_11"
             style="stroke-linecap:butt;stroke-linejoin:round">
            <g
               id="g161"
               style="stroke-linecap:butt;stroke-linejoin:round">
              <use
                 style="stroke:#000000;stroke-width:0.5;stroke-linecap:butt;stroke-linejoin:round"
                 x="276.60001"
                 xlink:href="#m93b0483c22"
                 y="388.79999"
                 id="use163"
                 width="576"
                 height="432" />
            </g>
          </g>
          <g
             id="line2d_12"
             style="stroke-linecap:butt;stroke-linejoin:round">
            <g
               id="g166"
               style="stroke-linecap:butt;stroke-linejoin:round">
              <use
                 style="stroke:#000000;stroke-width:0.5;stroke-linecap:butt;stroke-linejoin:round"
                 x="276.60001"
                 xlink:href="#m741efc42ff"
                 y="43.200001"
                 id="use168"
                 width="576"
                 height="432" />
            </g>
          </g>
          <g
             id="text_6"
             style="stroke-linecap:butt;stroke-linejoin:round">
            <!-- C- -->
            <g
               transform="matrix(0.12,0,0,-0.12,270.87469,401.91812)"
               id="g171"
               style="stroke-linecap:butt;stroke-linejoin:round">
              <use
                 xlink:href="#DejaVuSans-43"
                 id="use173"
                 style="stroke-linecap:butt;stroke-linejoin:round"
                 x="0"
                 y="0"
                 width="576"
                 height="432" />
              <use
                 x="69.824219"
                 xlink:href="#DejaVuSans-2d"
                 id="use175"
                 style="stroke-linecap:butt;stroke-linejoin:round"
                 y="0"
                 width="576"
                 height="432" />
            </g>
          </g>
        </g>
        <g
           id="xtick_7"
           style="stroke-linecap:butt;stroke-linejoin:round">
          <g
             id="line2d_13"
             style="stroke-linecap:butt;stroke-linejoin:round">
            <g
               id="g179"
               style="stroke-linecap:butt;stroke-linejoin:round">
              <use
                 style="stroke:#000000;stroke-width:0.5;stroke-linecap:butt;stroke-linejoin:round"
                 x="313.79999"
                 xlink:href="#m93b0483c22"
                 y="388.79999"
                 id="use181"
                 width="576"
                 height="432" />
            </g>
          </g>
          <g
             id="line2d_14"
             style="stroke-linecap:butt;stroke-linejoin:round">
            <g
               id="g184"
               style="stroke-linecap:butt;stroke-linejoin:round">
              <use
                 style="stroke:#000000;stroke-width:0.5;stroke-linecap:butt;stroke-linejoin:round"
                 x="313.79999"
                 xlink:href="#m741efc42ff"
                 y="43.200001"
                 id="use186"
                 width="576"
                 height="432" />
            </g>
          </g>
          <g
             id="text_7"
             style="stroke-linecap:butt;stroke-linejoin:round">
            <!-- D+ -->
            <defs
               id="defs189">
              <path
                 d="m 19.6719,64.7969 0,-56.68752 11.9219,0 q 15.0937,0 22.0937,6.82812 7,6.8437 7,21.5937 0,14.6407 -7,21.4532 -7,6.8125 -22.0937,6.8125 z m -9.8594,8.1093 20.2656,0 q 21.1875,0 31.0938,-8.8124 9.9219,-8.8126 9.9219,-27.5626 0,-18.8593 -9.9688,-27.70308 Q 51.1719,0 30.0781,0 L 9.8125,0 z"
                 id="DejaVuSans-44"
                 inkscape:connector-curvature="0"
                 style="stroke-linecap:butt;stroke-linejoin:round" />
            </defs>
            <g
               transform="matrix(0.12,0,0,-0.12,305.3775,401.91812)"
               id="g192"
               style="stroke-linecap:butt;stroke-linejoin:round">
              <use
                 xlink:href="#DejaVuSans-44"
                 id="use194"
                 style="stroke-linecap:butt;stroke-linejoin:round"
                 x="0"
                 y="0"
                 width="576"
                 height="432" />
              <use
                 x="77.001953"
                 xlink:href="#DejaVuSans-2b"
                 id="use196"
                 style="stroke-linecap:butt;stroke-linejoin:round"
                 y="0"
                 width="576"
                 height="432" />
            </g>
          </g>
        </g>
        <g
           id="xtick_8"
           style="stroke-linecap:butt;stroke-linejoin:round">
          <g
             id="line2d_15"
             style="stroke-linecap:butt;stroke-linejoin:round">
            <g
               id="g200"
               style="stroke-linecap:butt;stroke-linejoin:round">
              <use
                 style="stroke:#000000;stroke-width:0.5;stroke-linecap:butt;stroke-linejoin:round"
                 x="351"
                 xlink:href="#m93b0483c22"
                 y="388.79999"
                 id="use202"
                 width="576"
                 height="432" />
            </g>
          </g>
          <g
             id="line2d_16"
             style="stroke-linecap:butt;stroke-linejoin:round">
            <g
               id="g205"
               style="stroke-linecap:butt;stroke-linejoin:round">
              <use
                 style="stroke:#000000;stroke-width:0.5;stroke-linecap:butt;stroke-linejoin:round"
                 x="351"
                 xlink:href="#m741efc42ff"
                 y="43.200001"
                 id="use207"
                 width="576"
                 height="432" />
            </g>
          </g>
          <g
             id="text_8"
             style="stroke-linecap:butt;stroke-linejoin:round">
            <!-- D- -->
            <g
               transform="matrix(0.12,0,0,-0.12,345.09656,401.91812)"
               id="g210"
               style="stroke-linecap:butt;stroke-linejoin:round">
              <use
                 xlink:href="#DejaVuSans-44"
                 id="use212"
                 style="stroke-linecap:butt;stroke-linejoin:round"
                 x="0"
                 y="0"
                 width="576"
                 height="432" />
              <use
                 x="77.001953"
                 xlink:href="#DejaVuSans-2d"
                 id="use214"
                 style="stroke-linecap:butt;stroke-linejoin:round"
                 y="0"
                 width="576"
                 height="432" />
            </g>
          </g>
        </g>
        <g
           id="xtick_9"
           style="stroke-linecap:butt;stroke-linejoin:round">
          <g
             id="line2d_17"
             style="stroke-linecap:butt;stroke-linejoin:round">
            <g
               id="g218"
               style="stroke-linecap:butt;stroke-linejoin:round">
              <use
                 style="stroke:#000000;stroke-width:0.5;stroke-linecap:butt;stroke-linejoin:round"
                 x="388.20001"
                 xlink:href="#m93b0483c22"
                 y="388.79999"
                 id="use220"
                 width="576"
                 height="432" />
            </g>
          </g>
          <g
             id="line2d_18"
             style="stroke-linecap:butt;stroke-linejoin:round">
            <g
               id="g223"
               style="stroke-linecap:butt;stroke-linejoin:round">
              <use
                 style="stroke:#000000;stroke-width:0.5;stroke-linecap:butt;stroke-linejoin:round"
                 x="388.20001"
                 xlink:href="#m741efc42ff"
                 y="43.200001"
                 id="use225"
                 width="576"
                 height="432" />
            </g>
          </g>
          <g
             id="text_9"
             style="stroke-linecap:butt;stroke-linejoin:round">
            <!-- E+ -->
            <defs
               id="defs228">
              <path
                 d="m 9.8125,72.9062 46.0937,0 0,-8.3124 -36.2343,0 0,-21.5782 34.7187,0 0,-8.2968 -34.7187,0 0,-26.42192 37.1093,0 L 56.7812,0 9.8125,0 z"
                 id="DejaVuSans-45"
                 inkscape:connector-curvature="0"
                 style="stroke-linecap:butt;stroke-linejoin:round" />
            </defs>
            <g
               transform="matrix(0.12,0,0,-0.12,380.60625,401.91812)"
               id="g231"
               style="stroke-linecap:butt;stroke-linejoin:round">
              <use
                 xlink:href="#DejaVuSans-45"
                 id="use233"
                 style="stroke-linecap:butt;stroke-linejoin:round"
                 x="0"
                 y="0"
                 width="576"
                 height="432" />
              <use
                 x="63.183594"
                 xlink:href="#DejaVuSans-2b"
                 id="use235"
                 style="stroke-linecap:butt;stroke-linejoin:round"
                 y="0"
                 width="576"
                 height="432" />
            </g>
          </g>
        </g>
        <g
           id="xtick_10"
           style="stroke-linecap:butt;stroke-linejoin:round">
          <g
             id="line2d_19"
             style="stroke-linecap:butt;stroke-linejoin:round">
            <g
               id="g239"
               style="stroke-linecap:butt;stroke-linejoin:round">
              <use
                 style="stroke:#000000;stroke-width:0.5;stroke-linecap:butt;stroke-linejoin:round"
                 x="425.39999"
                 xlink:href="#m93b0483c22"
                 y="388.79999"
                 id="use241"
                 width="576"
                 height="432" />
            </g>
          </g>
          <g
             id="line2d_20"
             style="stroke-linecap:butt;stroke-linejoin:round">
            <g
               id="g244"
               style="stroke-linecap:butt;stroke-linejoin:round">
              <use
                 style="stroke:#000000;stroke-width:0.5;stroke-linecap:butt;stroke-linejoin:round"
                 x="425.39999"
                 xlink:href="#m741efc42ff"
                 y="43.200001"
                 id="use246"
                 width="576"
                 height="432" />
            </g>
          </g>
          <g
             id="text_10"
             style="stroke-linecap:butt;stroke-linejoin:round">
            <!-- E- -->
            <g
               transform="matrix(0.12,0,0,-0.12,420.32531,401.91812)"
               id="g249"
               style="stroke-linecap:butt;stroke-linejoin:round">
              <use
                 xlink:href="#DejaVuSans-45"
                 id="use251"
                 style="stroke-linecap:butt;stroke-linejoin:round"
                 x="0"
                 y="0"
                 width="576"
                 height="432" />
              <use
                 x="63.183594"
                 xlink:href="#DejaVuSans-2d"
                 id="use253"
                 style="stroke-linecap:butt;stroke-linejoin:round"
                 y="0"
                 width="576"
                 height="432" />
            </g>
          </g>
        </g>
        <g
           id="xtick_11"
           style="stroke-linecap:butt;stroke-linejoin:round">
          <g
             id="line2d_21"
             style="stroke-linecap:butt;stroke-linejoin:round">
            <g
               id="g257"
               style="stroke-linecap:butt;stroke-linejoin:round">
              <use
                 style="stroke:#000000;stroke-width:0.5;stroke-linecap:butt;stroke-linejoin:round"
                 x="462.60001"
                 xlink:href="#m93b0483c22"
                 y="388.79999"
                 id="use259"
                 width="576"
                 height="432" />
            </g>
          </g>
          <g
             id="line2d_22"
             style="stroke-linecap:butt;stroke-linejoin:round">
            <g
               id="g262"
               style="stroke-linecap:butt;stroke-linejoin:round">
              <use
                 style="stroke:#000000;stroke-width:0.5;stroke-linecap:butt;stroke-linejoin:round"
                 x="462.60001"
                 xlink:href="#m741efc42ff"
                 y="43.200001"
                 id="use264"
                 width="576"
                 height="432" />
            </g>
          </g>
          <g
             id="text_11"
             style="stroke-linecap:butt;stroke-linejoin:round">
            <!-- below 50 -->
            <defs
               id="defs267">
              <path
                 d="m 30.6094,48.3906 q -7.2188,0 -11.4219,-5.6406 -4.2031,-5.6406 -4.2031,-15.4531 0,-9.8125 4.1718,-15.4531 4.1876,-5.64068 11.4532,-5.64068 7.1875,0 11.375,5.65628 4.2031,5.6718 4.2031,15.4375 0,9.7187 -4.2031,15.4062 -4.1875,5.6875 -11.375,5.6875 m 0,7.6094 q 11.7187,0 18.4062,-7.625 6.7032,-7.6094 6.7032,-21.0781 0,-13.4219 -6.7032,-21.07815 -6.6875,-7.64063 -18.4062,-7.64063 -11.7656,0 -18.4375,7.64063 -6.65628,7.65625 -6.65628,21.07815 0,13.4687 6.65628,21.0781 Q 18.8438,56 30.6094,56"
                 id="DejaVuSans-6f"
                 inkscape:connector-curvature="0"
                 style="stroke-linecap:butt;stroke-linejoin:round" />
              <path
                 d="m 9.42188,75.9844 8.98432,0 0,-75.9844 -8.98432,0 z"
                 id="DejaVuSans-6c"
                 inkscape:connector-curvature="0"
                 style="stroke-linecap:butt;stroke-linejoin:round" />
              <path
                 d="m 31.7812,66.4062 q -7.6093,0 -11.4531,-7.5 Q 16.5,51.4219 16.5,36.375 q 0,-14.9844 3.8281,-22.4844 3.8438,-7.49998 11.4531,-7.49998 7.6719,0 11.5,7.49998 3.8438,7.5 3.8438,22.4844 0,15.0469 -3.8438,22.5312 -3.8281,7.5 -11.5,7.5 m 0,7.8126 q 12.2657,0 18.7344,-9.7032 6.4688,-9.6875 6.4688,-28.1406 0,-18.4062 -6.4688,-28.10938 -6.4687,-9.6875 -18.7344,-9.6875 -12.25,0 -18.7187,9.6875 -6.46875,9.70318 -6.46875,28.10938 0,18.4531 6.46875,28.1406 6.4687,9.7032 18.7187,9.7032"
                 id="DejaVuSans-30"
                 inkscape:connector-curvature="0"
                 style="stroke-linecap:butt;stroke-linejoin:round" />
              <path
                 id="DejaVuSans-20"
                 d=""
                 inkscape:connector-curvature="0"
                 style="stroke-linecap:butt;stroke-linejoin:round" />
              <path
                 d="m 10.7969,72.9062 38.7187,0 0,-8.3124 -29.6875,0 0,-17.8594 q 2.1407,0.7344 4.2813,1.0937 2.1562,0.3594 4.3125,0.3594 12.2031,0 19.3281,-6.6875 7.1406,-6.6875 7.1406,-18.1094 0,-11.7656 -7.3281,-18.29685 -7.3281,-6.51563 -20.6563,-6.51563 -4.5937,0 -9.3593,0.781255 -4.75,0.78125 -9.82815,2.343745 l 0,9.92188 q 4.39065,-2.39062 9.07815,-3.5625 4.6875,-1.17188 9.9062,-1.17188 8.4531,0 13.375,4.43748 4.9375,4.4375 4.9375,12.0625 0,7.6094 -4.9375,12.0469 -4.9219,4.4531 -13.375,4.4531 -3.9531,0 -7.8906,-0.875 -3.9219,-0.875 -8.0156,-2.7344 z"
                 id="DejaVuSans-35"
                 inkscape:connector-curvature="0"
                 style="stroke-linecap:butt;stroke-linejoin:round" />
              <path
                 d="m 4.20312,54.6875 8.98438,0 11.2344,-42.6719 11.1719,42.6719 10.5937,0 11.2344,-42.6719 11.1875,42.6719 8.9844,0 L 63.2812,0 52.6875,0 40.9219,44.8281 29.1094,0 18.5,0 z"
                 id="DejaVuSans-77"
                 inkscape:connector-curvature="0"
                 style="stroke-linecap:butt;stroke-linejoin:round" />
              <path
                 d="m 56.2031,29.5938 0,-4.3907 -41.3125,0 q 0.5938,-9.2812 5.5938,-14.1406 5,-4.85938 13.9375,-4.85938 5.1719,0 10.0312,1.26563 4.8594,1.26563 9.6563,3.81245 l 0,-8.49995 q -4.8438,-2.046875 -9.9219,-3.125 -5.0781,-1.07813 -10.2969,-1.07813 -13.0937,0 -20.7344,7.60938 -7.64058,7.625 -7.64058,20.625 0,13.4219 7.24998,21.2969 Q 20.0156,56 32.3281,56 q 11.0313,0 17.4531,-7.1094 6.4219,-7.0937 6.4219,-19.2968 m -8.9843,2.6406 q -0.0938,7.3594 -4.125,11.75 -4.0313,4.4062 -10.6719,4.4062 -7.5157,0 -12.0313,-4.25 -4.5156,-4.25 -5.2031,-11.9687 z"
                 id="DejaVuSans-65"
                 inkscape:connector-curvature="0"
                 style="stroke-linecap:butt;stroke-linejoin:round" />
              <path
                 d="m 48.6875,27.2969 q 0,9.9062 -4.0781,15.5469 -4.0782,5.6406 -11.2032,5.6406 -7.1406,0 -11.2187,-5.6406 -4.0781,-5.6407 -4.0781,-15.5469 0,-9.9063 4.0781,-15.5469 4.0781,-5.64062 11.2187,-5.64062 7.125,0 11.2032,5.64062 4.0781,5.6406 4.0781,15.5469 M 18.1094,46.3906 q 2.8437,4.875 7.1562,7.2344 Q 29.5938,56 35.5938,56 q 9.9687,0 16.1874,-7.9062 6.2344,-7.9063 6.2344,-20.7969 0,-12.8907 -6.2344,-20.81252 -6.2187,-7.90626 -16.1874,-7.90626 -6,0 -10.3282,2.375005 -4.3125,2.374995 -7.1562,7.249995 l 0,-8.20312 -9.03128,0 0,75.9844 9.03128,0 z"
                 id="DejaVuSans-62"
                 inkscape:connector-curvature="0"
                 style="stroke-linecap:butt;stroke-linejoin:round" />
            </defs>
            <g
               transform="matrix(0.12,0,0,-0.12,435.71062,401.91812)"
               id="g277"
               style="stroke-linecap:butt;stroke-linejoin:round">
              <use
                 xlink:href="#DejaVuSans-62"
                 id="use279"
                 style="stroke-linecap:butt;stroke-linejoin:round"
                 x="0"
                 y="0"
                 width="576"
                 height="432" />
              <use
                 x="63.476562"
                 xlink:href="#DejaVuSans-65"
                 id="use281"
                 style="stroke-linecap:butt;stroke-linejoin:round"
                 y="0"
                 width="576"
                 height="432" />
              <use
                 x="125"
                 xlink:href="#DejaVuSans-6c"
                 id="use283"
                 style="stroke-linecap:butt;stroke-linejoin:round"
                 y="0"
                 width="576"
                 height="432" />
              <use
                 x="152.7832"
                 xlink:href="#DejaVuSans-6f"
                 id="use285"
                 style="stroke-linecap:butt;stroke-linejoin:round"
                 y="0"
                 width="576"
                 height="432" />
              <use
                 x="213.96484"
                 xlink:href="#DejaVuSans-77"
                 id="use287"
                 style="stroke-linecap:butt;stroke-linejoin:round"
                 y="0"
                 width="576"
                 height="432" />
              <use
                 x="295.75195"
                 xlink:href="#DejaVuSans-20"
                 id="use289"
                 style="stroke-linecap:butt;stroke-linejoin:round"
                 y="0"
                 width="576"
                 height="432" />
              <use
                 x="327.53906"
                 xlink:href="#DejaVuSans-35"
                 id="use291"
                 style="stroke-linecap:butt;stroke-linejoin:round"
                 y="0"
                 width="576"
                 height="432" />
              <use
                 x="391.16211"
                 xlink:href="#DejaVuSans-30"
                 id="use293"
                 style="stroke-linecap:butt;stroke-linejoin:round"
                 y="0"
                 width="576"
                 height="432" />
            </g>
          </g>
        </g>
        <g
           id="xtick_12"
           style="stroke-linecap:butt;stroke-linejoin:round">
          <g
             id="line2d_23"
             style="stroke-linecap:butt;stroke-linejoin:round">
            <g
               id="g297"
               style="stroke-linecap:butt;stroke-linejoin:round">
              <use
                 style="stroke:#000000;stroke-width:0.5;stroke-linecap:butt;stroke-linejoin:round"
                 x="499.79999"
                 xlink:href="#m93b0483c22"
                 y="388.79999"
                 id="use299"
                 width="576"
                 height="432" />
            </g>
          </g>
          <g
             id="line2d_24"
             style="stroke-linecap:butt;stroke-linejoin:round">
            <g
               id="g302"
               style="stroke-linecap:butt;stroke-linejoin:round">
              <use
                 style="stroke:#000000;stroke-width:0.5;stroke-linecap:butt;stroke-linejoin:round"
                 x="499.79999"
                 xlink:href="#m741efc42ff"
                 y="43.200001"
                 id="use304"
                 width="576"
                 height="432" />
            </g>
          </g>
        </g>
        <g
           id="text_12"
           style="stroke-linecap:butt;stroke-linejoin:round">
          <!-- grading for "Add Expires headers" -->
          <defs
             id="defs307">
            <path
               d="m 54.8906,33.0156 0,-33.0156 -8.9844,0 0,32.7188 q 0,7.7656 -3.0312,11.6093 -3.0312,3.8594 -9.0781,3.8594 -7.2813,0 -11.4844,-4.6406 -4.2031,-4.625 -4.2031,-12.6407 l 0,-30.9062 -9.03128,0 0,54.6875 9.03128,0 0,-8.5 q 3.2344,4.9375 7.5937,7.375 Q 30.0781,56 35.7969,56 q 9.4219,0 14.25,-5.8281 4.8437,-5.8281 4.8437,-17.1563"
               id="DejaVuSans-6e"
               inkscape:connector-curvature="0"
               style="stroke-linecap:butt;stroke-linejoin:round" />
            <path
               d="m 17.9219,72.9062 0,-27.1093 -8.2969,0 0,27.1093 z m 18.4531,0 0,-27.1093 -8.2969,0 0,27.1093 z"
               id="DejaVuSans-22"
               inkscape:connector-curvature="0"
               style="stroke-linecap:butt;stroke-linejoin:round" />
            <path
               d="M 54.8906,54.6875 35.1094,28.0781 55.9062,0 45.3125,0 29.3906,21.4844 13.4844,0 2.875,0 24.125,28.6094 4.6875,54.6875 l 10.5937,0 14.5,-19.4844 14.5,19.4844 z"
               id="DejaVuSans-78"
               inkscape:connector-curvature="0"
               style="stroke-linecap:butt;stroke-linejoin:round" />
            <path
               d="m 54.8906,33.0156 0,-33.0156 -8.9844,0 0,32.7188 q 0,7.7656 -3.0312,11.6093 -3.0312,3.8594 -9.0781,3.8594 -7.2813,0 -11.4844,-4.6406 -4.2031,-4.625 -4.2031,-12.6407 l 0,-30.9062 -9.03128,0 0,75.9844 9.03128,0 0,-29.7969 q 3.2344,4.9375 7.5937,7.375 Q 30.0781,56 35.7969,56 q 9.4219,0 14.25,-5.8281 4.8437,-5.8281 4.8437,-17.1563"
               id="DejaVuSans-68"
               inkscape:connector-curvature="0"
               style="stroke-linecap:butt;stroke-linejoin:round" />
            <path
               d="m 9.42188,54.6875 8.98432,0 0,-54.6875 -8.98432,0 z m 0,21.2969 8.98432,0 0,-11.3906 -8.98432,0 z"
               id="DejaVuSans-69"
               inkscape:connector-curvature="0"
               style="stroke-linecap:butt;stroke-linejoin:round" />
            <path
               d="m 37.1094,75.9844 0,-7.4844 -8.5938,0 q -4.8281,0 -6.7187,-1.9531 -1.875,-1.9531 -1.875,-7.0313 l 0,-4.8281 14.7969,0 0,-6.9844 -14.7969,0 0,-47.7031 -9.0313,0 0,47.7031 -8.59372,0 0,6.9844 8.59372,0 0,3.8125 q 0,9.125 4.25,13.2969 4.25,4.1875 13.4688,4.1875 z"
               id="DejaVuSans-66"
               inkscape:connector-curvature="0"
               style="stroke-linecap:butt;stroke-linejoin:round" />
            <path
               d="m 45.4062,27.9844 q 0,9.7656 -4.0312,15.125 -4.0156,5.375 -11.2969,5.375 -7.2187,0 -11.25,-5.375 -4.0312,-5.3594 -4.0312,-15.125 0,-9.7188 4.0312,-15.0938 4.0313,-5.37498 11.25,-5.37498 7.2813,0 11.2969,5.37498 4.0312,5.375 4.0312,15.0938 M 54.3906,6.78125 q 0,-13.95313 -6.2031,-20.76565 -6.1875,-6.8125 -18.9844,-6.8125 -4.7343,0 -8.9375,0.7031 -4.2031,0.7032 -8.1562,2.1719 l 0,8.7344 q 3.9531,-2.1406 7.8125,-3.1563 3.8593,-1.0312 7.8593,-1.0312 8.8438,0 13.2344,4.60938 4.3906,4.60937 4.3906,13.9375 l 0,4.45312 Q 42.625,4.78125 38.2812,2.39062 33.9375,0 27.875,0 17.8281,0 11.6719,7.65625 5.51562,15.3281 5.51562,27.9844 q 0,12.6875 6.15628,20.3437 Q 17.8281,56 27.875,56 q 6.0625,0 10.4062,-2.3906 4.3438,-2.3906 7.125,-7.2188 l 0,8.2969 8.9844,0 z"
               id="DejaVuSans-67"
               inkscape:connector-curvature="0"
               style="stroke-linecap:butt;stroke-linejoin:round" />
            <path
               d="m 45.4062,46.3906 0,29.5938 8.9844,0 0,-75.9844 -8.9844,0 0,8.20312 Q 42.5781,3.32812 38.25,0.953125 33.9375,-1.42188 27.875,-1.42188 q -9.9062,0 -16.1406,7.90626 -6.21878,7.92182 -6.21878,20.81252 0,12.8906 6.21878,20.7969 Q 17.9688,56 27.875,56 q 6.0625,0 10.375,-2.375 4.3281,-2.3594 7.1562,-7.2344 M 14.7969,27.2969 q 0,-9.9063 4.0781,-15.5469 4.0781,-5.64062 11.2031,-5.64062 7.125,0 11.2188,5.64062 4.1093,5.6406 4.1093,15.5469 0,9.9062 -4.1093,15.5469 -4.0938,5.6406 -11.2188,5.6406 -7.125,0 -11.2031,-5.6406 -4.0781,-5.6407 -4.0781,-15.5469"
               id="DejaVuSans-64"
               inkscape:connector-curvature="0"
               style="stroke-linecap:butt;stroke-linejoin:round" />
            <path
               d="m 41.1094,46.2969 q -1.5156,0.875 -3.2969,1.2812 Q 36.0312,48 33.8906,48 26.2656,48 22.1875,43.0469 18.1094,38.0938 18.1094,28.8125 l 0,-28.8125 -9.03128,0 0,54.6875 9.03128,0 0,-8.5 q 2.8437,4.9844 7.375,7.3906 Q 30.0312,56 36.5312,56 q 0.9219,0 2.0469,-0.125 1.125,-0.1094 2.4844,-0.3594 z"
               id="DejaVuSans-72"
               inkscape:connector-curvature="0"
               style="stroke-linecap:butt;stroke-linejoin:round" />
            <path
               d="m 18.1094,8.20312 0,-29.00002 -9.03128,0 0,75.4844 9.03128,0 0,-8.2969 q 2.8437,4.875 7.1562,7.2344 Q 29.5938,56 35.5938,56 q 9.9687,0 16.1874,-7.9062 6.2344,-7.9063 6.2344,-20.7969 0,-12.8907 -6.2344,-20.81252 -6.2187,-7.90626 -16.1874,-7.90626 -6,0 -10.3282,2.375005 Q 20.9531,3.32812 18.1094,8.20312 M 48.6875,27.2969 q 0,9.9062 -4.0781,15.5469 -4.0782,5.6406 -11.2032,5.6406 -7.1406,0 -11.2187,-5.6406 -4.0781,-5.6407 -4.0781,-15.5469 0,-9.9063 4.0781,-15.5469 4.0781,-5.64062 11.2187,-5.64062 7.125,0 11.2032,5.64062 4.0781,5.6406 4.0781,15.5469"
               id="DejaVuSans-70"
               inkscape:connector-curvature="0"
               style="stroke-linecap:butt;stroke-linejoin:round" />
            <path
               d="m 44.2812,53.0781 0,-8.5 q -3.7968,1.9531 -7.9062,2.9219 -4.0938,0.9844 -8.5,0.9844 -6.6875,0 -10.0312,-2.0469 Q 14.5,44.3906 14.5,40.2812 q 0,-3.125 2.3906,-4.9062 2.3906,-1.7812 9.625,-3.3906 l 3.0782,-0.6875 q 9.5624,-2.0469 13.5937,-5.7813 4.0313,-3.7344 4.0313,-10.4218 0,-7.62505 -6.0313,-12.07818 -6.0313,-4.4375 -16.5781,-4.4375 -4.3906,0 -9.1563,0.85938 Q 10.6875,0.296875 5.42188,2 l 0,9.2812 q 4.98432,-2.5937 9.81252,-3.89058 4.8281,-1.28124 9.5781,-1.28124 6.3437,0 9.75,2.17187 3.4219,2.17185 3.4219,6.12495 0,3.6563 -2.4688,5.6094 -2.4531,1.9532 -10.8125,3.7656 l -3.125,0.7344 q -8.3437,1.75 -12.06248,5.3906 -3.70312,3.6407 -3.70312,9.9844 0,7.7188 5.4687,11.9063 Q 16.75,56 26.8125,56 q 4.9687,0 9.3594,-0.7344 4.4062,-0.7187 8.1093,-2.1875"
               id="DejaVuSans-73"
               inkscape:connector-curvature="0"
               style="stroke-linecap:butt;stroke-linejoin:round" />
            <path
               d="m 34.2812,27.4844 q -10.8906,0 -15.0937,-2.4844 -4.2031,-2.4844 -4.2031,-8.5 0,-4.7812 3.1562,-7.59375 3.1563,-2.79687 8.5625,-2.79687 7.4844,0 12,5.29682 4.5157,5.2969 4.5157,14.0782 l 0,2 z m 17.9219,3.7187 0,-31.2031 -8.9843,0 0,8.29688 Q 40.1406,3.32812 35.5469,0.953125 30.9531,-1.42188 24.3125,-1.42188 q -8.3906,0 -13.3594,4.71876 Q 6,8.01562 6,15.9219 q 0,9.2187 6.1719,13.9062 6.1875,4.6875 18.4375,4.6875 l 12.6094,0 0,0.8906 q 0,6.2032 -4.0782,9.5938 -4.0781,3.3906 -11.4531,3.3906 -4.6875,0 -9.1406,-1.125 -4.4375,-1.125 -8.5313,-3.375 l 0,8.3125 q 4.9219,1.9063 9.5625,2.8438 Q 24.2188,56 28.6094,56 q 11.875,0 17.7344,-6.1562 5.8593,-6.1407 5.8593,-18.6407"
               id="DejaVuSans-61"
               inkscape:connector-curvature="0"
               style="stroke-linecap:butt;stroke-linejoin:round" />
          </defs>
          <g
             transform="matrix(0.12,0,0,-0.12,193.49062,418.53188)"
             id="g321"
             style="stroke-linecap:butt;stroke-linejoin:round">
            <use
               xlink:href="#DejaVuSans-67"
               id="use323"
               style="stroke-linecap:butt;stroke-linejoin:round"
               x="0"
               y="0"
               width="576"
               height="432" />
            <use
               x="63.476562"
               xlink:href="#DejaVuSans-72"
               id="use325"
               style="stroke-linecap:butt;stroke-linejoin:round"
               y="0"
               width="576"
               height="432" />
            <use
               x="104.58984"
               xlink:href="#DejaVuSans-61"
               id="use327"
               style="stroke-linecap:butt;stroke-linejoin:round"
               y="0"
               width="576"
               height="432" />
            <use
               x="165.86914"
               xlink:href="#DejaVuSans-64"
               id="use329"
               style="stroke-linecap:butt;stroke-linejoin:round"
               y="0"
               width="576"
               height="432" />
            <use
               x="229.3457"
               xlink:href="#DejaVuSans-69"
               id="use331"
               style="stroke-linecap:butt;stroke-linejoin:round"
               y="0"
               width="576"
               height="432" />
            <use
               x="257.12891"
               xlink:href="#DejaVuSans-6e"
               id="use333"
               style="stroke-linecap:butt;stroke-linejoin:round"
               y="0"
               width="576"
               height="432" />
            <use
               x="320.50781"
               xlink:href="#DejaVuSans-67"
               id="use335"
               style="stroke-linecap:butt;stroke-linejoin:round"
               y="0"
               width="576"
               height="432" />
            <use
               x="383.98438"
               xlink:href="#DejaVuSans-20"
               id="use337"
               style="stroke-linecap:butt;stroke-linejoin:round"
               y="0"
               width="576"
               height="432" />
            <use
               x="415.77148"
               xlink:href="#DejaVuSans-66"
               id="use339"
               style="stroke-linecap:butt;stroke-linejoin:round"
               y="0"
               width="576"
               height="432" />
            <use
               x="450.97656"
               xlink:href="#DejaVuSans-6f"
               id="use341"
               style="stroke-linecap:butt;stroke-linejoin:round"
               y="0"
               width="576"
               height="432" />
            <use
               x="512.1582"
               xlink:href="#DejaVuSans-72"
               id="use343"
               style="stroke-linecap:butt;stroke-linejoin:round"
               y="0"
               width="576"
               height="432" />
            <use
               x="553.27148"
               xlink:href="#DejaVuSans-20"
               id="use345"
               style="stroke-linecap:butt;stroke-linejoin:round"
               y="0"
               width="576"
               height="432" />
            <use
               x="585.05859"
               xlink:href="#DejaVuSans-22"
               id="use347"
               style="stroke-linecap:butt;stroke-linejoin:round"
               y="0"
               width="576"
               height="432" />
            <use
               x="631.05469"
               xlink:href="#DejaVuSans-41"
               id="use349"
               style="stroke-linecap:butt;stroke-linejoin:round"
               y="0"
               width="576"
               height="432" />
            <use
               x="697.71289"
               xlink:href="#DejaVuSans-64"
               id="use351"
               style="stroke-linecap:butt;stroke-linejoin:round"
               y="0"
               width="576"
               height="432" />
            <use
               x="761.18945"
               xlink:href="#DejaVuSans-64"
               id="use353"
               style="stroke-linecap:butt;stroke-linejoin:round"
               y="0"
               width="576"
               height="432" />
            <use
               x="824.66602"
               xlink:href="#DejaVuSans-20"
               id="use355"
               style="stroke-linecap:butt;stroke-linejoin:round"
               y="0"
               width="576"
               height="432" />
            <use
               x="856.45312"
               xlink:href="#DejaVuSans-45"
               id="use357"
               style="stroke-linecap:butt;stroke-linejoin:round"
               y="0"
               width="576"
               height="432" />
            <use
               x="919.63672"
               xlink:href="#DejaVuSans-78"
               id="use359"
               style="stroke-linecap:butt;stroke-linejoin:round"
               y="0"
               width="576"
               height="432" />
            <use
               x="978.81641"
               xlink:href="#DejaVuSans-70"
               id="use361"
               style="stroke-linecap:butt;stroke-linejoin:round"
               y="0"
               width="576"
               height="432" />
            <use
               x="1042.293"
               xlink:href="#DejaVuSans-69"
               id="use363"
               style="stroke-linecap:butt;stroke-linejoin:round"
               y="0"
               width="576"
               height="432" />
            <use
               x="1070.0762"
               xlink:href="#DejaVuSans-72"
               id="use365"
               style="stroke-linecap:butt;stroke-linejoin:round"
               y="0"
               width="576"
               height="432" />
            <use
               x="1108.9395"
               xlink:href="#DejaVuSans-65"
               id="use367"
               style="stroke-linecap:butt;stroke-linejoin:round"
               y="0"
               width="576"
               height="432" />
            <use
               x="1170.4629"
               xlink:href="#DejaVuSans-73"
               id="use369"
               style="stroke-linecap:butt;stroke-linejoin:round"
               y="0"
               width="576"
               height="432" />
            <use
               x="1222.5625"
               xlink:href="#DejaVuSans-20"
               id="use371"
               style="stroke-linecap:butt;stroke-linejoin:round"
               y="0"
               width="576"
               height="432" />
            <use
               x="1254.3496"
               xlink:href="#DejaVuSans-68"
               id="use373"
               style="stroke-linecap:butt;stroke-linejoin:round"
               y="0"
               width="576"
               height="432" />
            <use
               x="1317.7285"
               xlink:href="#DejaVuSans-65"
               id="use375"
               style="stroke-linecap:butt;stroke-linejoin:round"
               y="0"
               width="576"
               height="432" />
            <use
               x="1379.252"
               xlink:href="#DejaVuSans-61"
               id="use377"
               style="stroke-linecap:butt;stroke-linejoin:round"
               y="0"
               width="576"
               height="432" />
            <use
               x="1440.5312"
               xlink:href="#DejaVuSans-64"
               id="use379"
               style="stroke-linecap:butt;stroke-linejoin:round"
               y="0"
               width="576"
               height="432" />
            <use
               x="1504.0078"
               xlink:href="#DejaVuSans-65"
               id="use381"
               style="stroke-linecap:butt;stroke-linejoin:round"
               y="0"
               width="576"
               height="432" />
            <use
               x="1565.5312"
               xlink:href="#DejaVuSans-72"
               id="use383"
               style="stroke-linecap:butt;stroke-linejoin:round"
               y="0"
               width="576"
               height="432" />
            <use
               x="1606.6445"
               xlink:href="#DejaVuSans-73"
               id="use385"
               style="stroke-linecap:butt;stroke-linejoin:round"
               y="0"
               width="576"
               height="432" />
            <use
               x="1658.7441"
               xlink:href="#DejaVuSans-22"
               id="use387"
               style="stroke-linecap:butt;stroke-linejoin:round"
               y="0"
               width="576"
               height="432" />
          </g>
        </g>
      </g>
      <g
         id="matplotlib.axis_2"
         style="stroke-linecap:butt;stroke-linejoin:round">
        <g
           id="ytick_1"
           style="stroke-linecap:butt;stroke-linejoin:round">
          <g
             id="line2d_25"
             style="stroke-linecap:butt;stroke-linejoin:round">
            <defs
               id="defs392">
              <path
                 d="M 0,0 4,0"
                 id="m728421d6d4"
                 style="stroke:#000000;stroke-width:0.5;stroke-linecap:butt;stroke-linejoin:round"
                 inkscape:connector-curvature="0" />
            </defs>
            <g
               id="g395"
               style="stroke-linecap:butt;stroke-linejoin:round">
              <use
                 style="stroke:#000000;stroke-width:0.5;stroke-linecap:butt;stroke-linejoin:round"
                 x="72"
                 xlink:href="#m728421d6d4"
                 y="388.79999"
                 id="use397"
                 width="576"
                 height="432" />
            </g>
          </g>
          <g
             id="line2d_26"
             style="stroke-linecap:butt;stroke-linejoin:round">
            <defs
               id="defs400">
              <path
                 d="M 0,0 -4,0"
                 id="mcb0005524f"
                 style="stroke:#000000;stroke-width:0.5;stroke-linecap:butt;stroke-linejoin:round"
                 inkscape:connector-curvature="0" />
            </defs>
            <g
               id="g403"
               style="stroke-linecap:butt;stroke-linejoin:round">
              <use
                 style="stroke:#000000;stroke-width:0.5;stroke-linecap:butt;stroke-linejoin:round"
                 x="518.40002"
                 xlink:href="#mcb0005524f"
                 y="388.79999"
                 id="use405"
                 width="576"
                 height="432" />
            </g>
          </g>
          <g
             id="text_13"
             style="stroke-linecap:butt;stroke-linejoin:round">
            <!-- 0 -->
            <g
               transform="matrix(0.12,0,0,-0.12,61.953125,392.11125)"
               id="g408"
               style="stroke-linecap:butt;stroke-linejoin:round">
              <use
                 xlink:href="#DejaVuSans-30"
                 id="use410"
                 style="stroke-linecap:butt;stroke-linejoin:round"
                 x="0"
                 y="0"
                 width="576"
                 height="432" />
            </g>
          </g>
        </g>
        <g
           id="ytick_2"
           style="stroke-linecap:butt;stroke-linejoin:round">
          <g
             id="line2d_27"
             style="stroke-linecap:butt;stroke-linejoin:round">
            <g
               id="g414"
               style="stroke-linecap:butt;stroke-linejoin:round">
              <use
                 style="stroke:#000000;stroke-width:0.5;stroke-linecap:butt;stroke-linejoin:round"
                 x="72"
                 xlink:href="#m728421d6d4"
                 y="319.67999"
                 id="use416"
                 width="576"
                 height="432" />
            </g>
          </g>
          <g
             id="line2d_28"
             style="stroke-linecap:butt;stroke-linejoin:round">
            <g
               id="g419"
               style="stroke-linecap:butt;stroke-linejoin:round">
              <use
                 style="stroke:#000000;stroke-width:0.5;stroke-linecap:butt;stroke-linejoin:round"
                 x="518.40002"
                 xlink:href="#mcb0005524f"
                 y="319.67999"
                 id="use421"
                 width="576"
                 height="432" />
            </g>
          </g>
          <g
             id="text_14"
             style="stroke-linecap:butt;stroke-linejoin:round">
            <!-- 1000 -->
            <defs
               id="defs424">
              <path
                 d="m 12.4062,8.29688 16.1094,0 0,55.62502 -17.5312,-3.5157 0,8.9844 17.4375,3.5156 9.8593,0 0,-64.60932 16.1094,0 0,-8.29688 -41.9844,0 z"
                 id="DejaVuSans-31"
                 inkscape:connector-curvature="0"
                 style="stroke-linecap:butt;stroke-linejoin:round" />
            </defs>
            <g
               transform="matrix(0.12,0,0,-0.12,39.575,322.99125)"
               id="g427"
               style="stroke-linecap:butt;stroke-linejoin:round">
              <use
                 xlink:href="#DejaVuSans-31"
                 id="use429"
                 style="stroke-linecap:butt;stroke-linejoin:round"
                 x="0"
                 y="0"
                 width="576"
                 height="432" />
              <use
                 x="63.623047"
                 xlink:href="#DejaVuSans-30"
                 id="use431"
                 style="stroke-linecap:butt;stroke-linejoin:round"
                 y="0"
                 width="576"
                 height="432" />
              <use
                 x="127.24609"
                 xlink:href="#DejaVuSans-30"
                 id="use433"
                 style="stroke-linecap:butt;stroke-linejoin:round"
                 y="0"
                 width="576"
                 height="432" />
              <use
                 x="190.86914"
                 xlink:href="#DejaVuSans-30"
                 id="use435"
                 style="stroke-linecap:butt;stroke-linejoin:round"
                 y="0"
                 width="576"
                 height="432" />
            </g>
          </g>
        </g>
        <g
           id="ytick_3"
           style="stroke-linecap:butt;stroke-linejoin:round">
          <g
             id="line2d_29"
             style="stroke-linecap:butt;stroke-linejoin:round">
            <g
               id="g439"
               style="stroke-linecap:butt;stroke-linejoin:round">
              <use
                 style="stroke:#000000;stroke-width:0.5;stroke-linecap:butt;stroke-linejoin:round"
                 x="72"
                 xlink:href="#m728421d6d4"
                 y="250.56"
                 id="use441"
                 width="576"
                 height="432" />
            </g>
          </g>
          <g
             id="line2d_30"
             style="stroke-linecap:butt;stroke-linejoin:round">
            <g
               id="g444"
               style="stroke-linecap:butt;stroke-linejoin:round">
              <use
                 style="stroke:#000000;stroke-width:0.5;stroke-linecap:butt;stroke-linejoin:round"
                 x="518.40002"
                 xlink:href="#mcb0005524f"
                 y="250.56"
                 id="use446"
                 width="576"
                 height="432" />
            </g>
          </g>
          <g
             id="text_15"
             style="stroke-linecap:butt;stroke-linejoin:round">
            <!-- 2000 -->
            <defs
               id="defs449">
              <path
                 d="m 19.1875,8.29688 34.4219,0 0,-8.29688 -46.28128,0 0,8.29688 Q 12.9375,14.1094 22.625,23.8906 q 9.7031,9.7969 12.1875,12.6406 4.7344,5.3126 6.6094,9 1.8906,3.6876 1.8906,7.25 0,5.8126 -4.0781,9.4688 -4.0782,3.6719 -10.625,3.6719 -4.6406,0 -9.7969,-1.6094 -5.1406,-1.6094 -11,-4.8906 l 0,9.9687 q 5.9531,2.3906 11.125,3.6094 5.1875,1.2188 9.4844,1.2188 11.3281,0 18.0625,-5.6719 6.7344,-5.6563 6.7344,-15.125 0,-4.5 -1.6876,-8.5313 Q 49.8594,40.875 45.4062,35.4062 44.1875,33.9844 37.6406,27.2188 31.1094,20.4531 19.1875,8.29688"
                 id="DejaVuSans-32"
                 inkscape:connector-curvature="0"
                 style="stroke-linecap:butt;stroke-linejoin:round" />
            </defs>
            <g
               transform="matrix(0.12,0,0,-0.12,39.13625,253.87125)"
               id="g452"
               style="stroke-linecap:butt;stroke-linejoin:round">
              <use
                 xlink:href="#DejaVuSans-32"
                 id="use454"
                 style="stroke-linecap:butt;stroke-linejoin:round"
                 x="0"
                 y="0"
                 width="576"
                 height="432" />
              <use
                 x="63.623047"
                 xlink:href="#DejaVuSans-30"
                 id="use456"
                 style="stroke-linecap:butt;stroke-linejoin:round"
                 y="0"
                 width="576"
                 height="432" />
              <use
                 x="127.24609"
                 xlink:href="#DejaVuSans-30"
                 id="use458"
                 style="stroke-linecap:butt;stroke-linejoin:round"
                 y="0"
                 width="576"
                 height="432" />
              <use
                 x="190.86914"
                 xlink:href="#DejaVuSans-30"
                 id="use460"
                 style="stroke-linecap:butt;stroke-linejoin:round"
                 y="0"
                 width="576"
                 height="432" />
            </g>
          </g>
        </g>
        <g
           id="ytick_4"
           style="stroke-linecap:butt;stroke-linejoin:round">
          <g
             id="line2d_31"
             style="stroke-linecap:butt;stroke-linejoin:round">
            <g
               id="g464"
               style="stroke-linecap:butt;stroke-linejoin:round">
              <use
                 style="stroke:#000000;stroke-width:0.5;stroke-linecap:butt;stroke-linejoin:round"
                 x="72"
                 xlink:href="#m728421d6d4"
                 y="181.44"
                 id="use466"
                 width="576"
                 height="432" />
            </g>
          </g>
          <g
             id="line2d_32"
             style="stroke-linecap:butt;stroke-linejoin:round">
            <g
               id="g469"
               style="stroke-linecap:butt;stroke-linejoin:round">
              <use
                 style="stroke:#000000;stroke-width:0.5;stroke-linecap:butt;stroke-linejoin:round"
                 x="518.40002"
                 xlink:href="#mcb0005524f"
                 y="181.44"
                 id="use471"
                 width="576"
                 height="432" />
            </g>
          </g>
          <g
             id="text_16"
             style="stroke-linecap:butt;stroke-linejoin:round">
            <!-- 3000 -->
            <defs
               id="defs474">
              <path
                 d="M 40.5781,39.3125 Q 47.6562,37.7969 51.625,33 q 3.9844,-4.7812 3.9844,-11.8125 0,-10.7813 -7.4219,-16.70312 -7.4219,-5.90626 -21.0937,-5.90626 -4.5782,0 -9.4376,0.906255 Q 12.7969,0.390625 7.625,2.20312 l 0,9.51568 q 4.0938,-2.39068 8.9688,-3.60942 4.8906,-1.21876 10.2187,-1.21876 9.2656,0 14.125,3.65628 4.8594,3.6562 4.8594,10.6406 0,6.4531 -4.5157,10.0781 -4.5156,3.6406 -12.5624,3.6406 l -8.5,0 0,8.1094 8.8906,0 q 7.2656,0 11.125,2.9063 3.8594,2.9062 3.8594,8.375 0,5.6093 -3.9844,8.6093 -3.9688,3.0157 -11.3906,3.0157 -4.0626,0 -8.7032,-0.8907 -4.6406,-0.875 -10.2031,-2.7187 l 0,8.7813 q 5.625,1.5624 10.5313,2.3437 4.9062,0.7813 9.25,0.7813 11.2343,0 17.7656,-5.1094 6.5468,-5.0938 6.5468,-13.7813 0,-6.0625 -3.4687,-10.2343 -3.4687,-4.1719 -9.8594,-5.7813"
                 id="DejaVuSans-33"
                 inkscape:connector-curvature="0"
                 style="stroke-linecap:butt;stroke-linejoin:round" />
            </defs>
            <g
               transform="matrix(0.12,0,0,-0.12,39.171875,184.75125)"
               id="g477"
               style="stroke-linecap:butt;stroke-linejoin:round">
              <use
                 xlink:href="#DejaVuSans-33"
                 id="use479"
                 style="stroke-linecap:butt;stroke-linejoin:round"
                 x="0"
                 y="0"
                 width="576"
                 height="432" />
              <use
                 x="63.623047"
                 xlink:href="#DejaVuSans-30"
                 id="use481"
                 style="stroke-linecap:butt;stroke-linejoin:round"
                 y="0"
                 width="576"
                 height="432" />
              <use
                 x="127.24609"
                 xlink:href="#DejaVuSans-30"
                 id="use483"
                 style="stroke-linecap:butt;stroke-linejoin:round"
                 y="0"
                 width="576"
                 height="432" />
              <use
                 x="190.86914"
                 xlink:href="#DejaVuSans-30"
                 id="use485"
                 style="stroke-linecap:butt;stroke-linejoin:round"
                 y="0"
                 width="576"
                 height="432" />
            </g>
          </g>
        </g>
        <g
           id="ytick_5"
           style="stroke-linecap:butt;stroke-linejoin:round">
          <g
             id="line2d_33"
             style="stroke-linecap:butt;stroke-linejoin:round">
            <g
               id="g489"
               style="stroke-linecap:butt;stroke-linejoin:round">
              <use
                 style="stroke:#000000;stroke-width:0.5;stroke-linecap:butt;stroke-linejoin:round"
                 x="72"
                 xlink:href="#m728421d6d4"
                 y="112.32"
                 id="use491"
                 width="576"
                 height="432" />
            </g>
          </g>
          <g
             id="line2d_34"
             style="stroke-linecap:butt;stroke-linejoin:round">
            <g
               id="g494"
               style="stroke-linecap:butt;stroke-linejoin:round">
              <use
                 style="stroke:#000000;stroke-width:0.5;stroke-linecap:butt;stroke-linejoin:round"
                 x="518.40002"
                 xlink:href="#mcb0005524f"
                 y="112.32"
                 id="use496"
                 width="576"
                 height="432" />
            </g>
          </g>
          <g
             id="text_17"
             style="stroke-linecap:butt;stroke-linejoin:round">
            <!-- 4000 -->
            <defs
               id="defs499">
              <path
                 d="m 37.7969,64.3125 -24.9063,-38.9219 24.9063,0 z m -2.5938,8.5937 12.4063,0 0,-47.5156 10.4062,0 0,-8.2031 -10.4062,0 0,-17.1875 -9.8125,0 0,17.1875 -32.90628,0 0,9.5156 z"
                 id="DejaVuSans-34"
                 inkscape:connector-curvature="0"
                 style="stroke-linecap:butt;stroke-linejoin:round" />
            </defs>
            <g
               transform="matrix(0.12,0,0,-0.12,38.84375,115.63125)"
               id="g502"
               style="stroke-linecap:butt;stroke-linejoin:round">
              <use
                 xlink:href="#DejaVuSans-34"
                 id="use504"
                 style="stroke-linecap:butt;stroke-linejoin:round"
                 x="0"
                 y="0"
                 width="576"
                 height="432" />
              <use
                 x="63.623047"
                 xlink:href="#DejaVuSans-30"
                 id="use506"
                 style="stroke-linecap:butt;stroke-linejoin:round"
                 y="0"
                 width="576"
                 height="432" />
              <use
                 x="127.24609"
                 xlink:href="#DejaVuSans-30"
                 id="use508"
                 style="stroke-linecap:butt;stroke-linejoin:round"
                 y="0"
                 width="576"
                 height="432" />
              <use
                 x="190.86914"
                 xlink:href="#DejaVuSans-30"
                 id="use510"
                 style="stroke-linecap:butt;stroke-linejoin:round"
                 y="0"
                 width="576"
                 height="432" />
            </g>
          </g>
        </g>
        <g
           id="ytick_6"
           style="stroke-linecap:butt;stroke-linejoin:round">
          <g
             id="line2d_35"
             style="stroke-linecap:butt;stroke-linejoin:round">
            <g
               id="g514"
               style="stroke-linecap:butt;stroke-linejoin:round">
              <use
                 style="stroke:#000000;stroke-width:0.5;stroke-linecap:butt;stroke-linejoin:round"
                 x="72"
                 xlink:href="#m728421d6d4"
                 y="43.200001"
                 id="use516"
                 width="576"
                 height="432" />
            </g>
          </g>
          <g
             id="line2d_36"
             style="stroke-linecap:butt;stroke-linejoin:round">
            <g
               id="g519"
               style="stroke-linecap:butt;stroke-linejoin:round">
              <use
                 style="stroke:#000000;stroke-width:0.5;stroke-linecap:butt;stroke-linejoin:round"
                 x="518.40002"
                 xlink:href="#mcb0005524f"
                 y="43.200001"
                 id="use521"
                 width="576"
                 height="432" />
            </g>
          </g>
          <g
             id="text_18"
             style="stroke-linecap:butt;stroke-linejoin:round">
            <!-- 5000 -->
            <g
               transform="matrix(0.12,0,0,-0.12,39.183125,46.51125)"
               id="g524"
               style="stroke-linecap:butt;stroke-linejoin:round">
              <use
                 xlink:href="#DejaVuSans-35"
                 id="use526"
                 style="stroke-linecap:butt;stroke-linejoin:round"
                 x="0"
                 y="0"
                 width="576"
                 height="432" />
              <use
                 x="63.623047"
                 xlink:href="#DejaVuSans-30"
                 id="use528"
                 style="stroke-linecap:butt;stroke-linejoin:round"
                 y="0"
                 width="576"
                 height="432" />
              <use
                 x="127.24609"
                 xlink:href="#DejaVuSans-30"
                 id="use530"
                 style="stroke-linecap:butt;stroke-linejoin:round"
                 y="0"
                 width="576"
                 height="432" />
              <use
                 x="190.86914"
                 xlink:href="#DejaVuSans-30"
                 id="use532"
                 style="stroke-linecap:butt;stroke-linejoin:round"
                 y="0"
                 width="576"
                 height="432" />
            </g>
          </g>
        </g>
        <g
           id="text_19"
           style="stroke-linecap:butt;stroke-linejoin:round">
          <!-- # urls for each rating -->
          <defs
             id="defs535">
            <path
               d="m 8.5,21.5781 0,33.1094 8.9844,0 0,-32.7656 q 0,-7.7657 3.0156,-11.6563 3.0312,-3.87498 9.0938,-3.87498 7.2656,0 11.4843,4.64058 4.2344,4.6407 4.2344,12.6563 l 0,31 8.9844,0 0,-54.6875 -8.9844,0 0,8.40625 Q 42.0469,3.42188 37.7188,1 33.4062,-1.42188 27.6875,-1.42188 18.2656,-1.42188 13.375,4.4375 8.5,10.2969 8.5,21.5781 M 31.1094,56 z"
               id="DejaVuSans-75"
               inkscape:connector-curvature="0"
               style="stroke-linecap:butt;stroke-linejoin:round" />
            <path
               d="m 51.125,44 -14.2031,0 -4.1094,-16.3125 14.3125,0 z m -7.3281,27.7812 -5.0781,-20.2656 14.2656,0 5.125,20.2656 7.8125,0 -5.0313,-20.2656 15.2344,0 0,-7.5156 -17.1406,0 -4,-16.3125 15.5312,0 0,-7.4687 -17.4375,0 L 48,0 l -7.8125,0 5.0313,20.2188 -14.3126,0 L 25.875,0 l -7.8594,0 5.0782,20.2188 -15.37505,0 0,7.4687 17.18745,0 L 29,44 l -15.7188,0 0,7.5156 17.625,0 4.9844,20.2656 z"
               id="DejaVuSans-23"
               inkscape:connector-curvature="0"
               style="stroke-linecap:butt;stroke-linejoin:round" />
            <path
               d="m 48.7812,52.5938 0,-8.4063 q -3.8124,2.1094 -7.6406,3.1563 -3.8281,1.0468 -7.7344,1.0468 -8.75,0 -13.5937,-5.5468 -4.8281,-5.5313 -4.8281,-15.5469 0,-10.0157 4.8281,-15.5625 4.8437,-5.53128 13.5937,-5.53128 3.9063,0 7.7344,1.04688 3.8282,1.04688 7.6406,3.1562 l 0,-8.31245 q -3.7656,-1.75 -7.7968,-2.625 -4.0156,-0.89063 -8.5625,-0.89063 -12.3594,0 -19.6407,7.76563 -7.26558,7.76565 -7.26558,20.95315 0,13.375 7.34378,21.0312 Q 20.2188,56 33.0156,56 q 4.1406,0 8.0938,-0.8594 3.9531,-0.8437 7.6718,-2.5468"
               id="DejaVuSans-63"
               inkscape:connector-curvature="0"
               style="stroke-linecap:butt;stroke-linejoin:round" />
            <path
               d="m 18.3125,70.2188 0,-15.5313 18.5,0 0,-6.9844 -18.5,0 0,-29.6875 q 0,-6.6875 1.8281,-8.59372 1.8282,-1.90626 7.4532,-1.90626 l 9.2187,0 0,-7.51562 -9.2187,0 Q 17.1875,0 13.2344,3.875 9.28125,7.76562 9.28125,18.0156 l 0,29.6875 -6.59375,0 0,6.9844 6.59375,0 0,15.5313 z"
               id="DejaVuSans-74"
               inkscape:connector-curvature="0"
               style="stroke-linecap:butt;stroke-linejoin:round" />
          </defs>
          <g
             transform="matrix(0,-0.12,-0.12,0,31.348125,279.66562)"
             id="g541"
             style="stroke-linecap:butt;stroke-linejoin:round">
            <use
               xlink:href="#DejaVuSans-23"
               id="use543"
               style="stroke-linecap:butt;stroke-linejoin:round"
               x="0"
               y="0"
               width="576"
               height="432" />
            <use
               x="83.789062"
               xlink:href="#DejaVuSans-20"
               id="use545"
               style="stroke-linecap:butt;stroke-linejoin:round"
               y="0"
               width="576"
               height="432" />
            <use
               x="115.57617"
               xlink:href="#DejaVuSans-75"
               id="use547"
               style="stroke-linecap:butt;stroke-linejoin:round"
               y="0"
               width="576"
               height="432" />
            <use
               x="178.95508"
               xlink:href="#DejaVuSans-72"
               id="use549"
               style="stroke-linecap:butt;stroke-linejoin:round"
               y="0"
               width="576"
               height="432" />
            <use
               x="220.06836"
               xlink:href="#DejaVuSans-6c"
               id="use551"
               style="stroke-linecap:butt;stroke-linejoin:round"
               y="0"
               width="576"
               height="432" />
            <use
               x="247.85156"
               xlink:href="#DejaVuSans-73"
               id="use553"
               style="stroke-linecap:butt;stroke-linejoin:round"
               y="0"
               width="576"
               height="432" />
            <use
               x="299.95117"
               xlink:href="#DejaVuSans-20"
               id="use555"
               style="stroke-linecap:butt;stroke-linejoin:round"
               y="0"
               width="576"
               height="432" />
            <use
               x="331.73828"
               xlink:href="#DejaVuSans-66"
               id="use557"
               style="stroke-linecap:butt;stroke-linejoin:round"
               y="0"
               width="576"
               height="432" />
            <use
               x="366.94336"
               xlink:href="#DejaVuSans-6f"
               id="use559"
               style="stroke-linecap:butt;stroke-linejoin:round"
               y="0"
               width="576"
               height="432" />
            <use
               x="428.125"
               xlink:href="#DejaVuSans-72"
               id="use561"
               style="stroke-linecap:butt;stroke-linejoin:round"
               y="0"
               width="576"
               height="432" />
            <use
               x="469.23828"
               xlink:href="#DejaVuSans-20"
               id="use563"
               style="stroke-linecap:butt;stroke-linejoin:round"
               y="0"
               width="576"
               height="432" />
            <use
               x="501.02539"
               xlink:href="#DejaVuSans-65"
               id="use565"
               style="stroke-linecap:butt;stroke-linejoin:round"
               y="0"
               width="576"
               height="432" />
            <use
               x="562.54883"
               xlink:href="#DejaVuSans-61"
               id="use567"
               style="stroke-linecap:butt;stroke-linejoin:round"
               y="0"
               width="576"
               height="432" />
            <use
               x="623.82812"
               xlink:href="#DejaVuSans-63"
               id="use569"
               style="stroke-linecap:butt;stroke-linejoin:round"
               y="0"
               width="576"
               height="432" />
            <use
               x="678.80859"
               xlink:href="#DejaVuSans-68"
               id="use571"
               style="stroke-linecap:butt;stroke-linejoin:round"
               y="0"
               width="576"
               height="432" />
            <use
               x="742.1875"
               xlink:href="#DejaVuSans-20"
               id="use573"
               style="stroke-linecap:butt;stroke-linejoin:round"
               y="0"
               width="576"
               height="432" />
            <use
               x="773.97461"
               xlink:href="#DejaVuSans-72"
               id="use575"
               style="stroke-linecap:butt;stroke-linejoin:round"
               y="0"
               width="576"
               height="432" />
            <use
               x="815.08789"
               xlink:href="#DejaVuSans-61"
               id="use577"
               style="stroke-linecap:butt;stroke-linejoin:round"
               y="0"
               width="576"
               height="432" />
            <use
               x="876.36719"
               xlink:href="#DejaVuSans-74"
               id="use579"
               style="stroke-linecap:butt;stroke-linejoin:round"
               y="0"
               width="576"
               height="432" />
            <use
               x="915.57617"
               xlink:href="#DejaVuSans-69"
               id="use581"
               style="stroke-linecap:butt;stroke-linejoin:round"
               y="0"
               width="576"
               height="432" />
            <use
               x="943.35938"
               xlink:href="#DejaVuSans-6e"
               id="use583"
               style="stroke-linecap:butt;stroke-linejoin:round"
               y="0"
               width="576"
               height="432" />
            <use
               x="1006.7383"
               xlink:href="#DejaVuSans-67"
               id="use585"
               style="stroke-linecap:butt;stroke-linejoin:round"
               y="0"
               width="576"
               height="432" />
          </g>
        </g>
      </g>
      <g
         id="patch_14"
         style="stroke-linecap:butt;stroke-linejoin:round">
        <path
           d="m 72,43.2 446.4,0"
           style="fill:none;stroke:#000000;stroke-linecap:butt;stroke-linejoin:round"
           id="path588"
           inkscape:connector-curvature="0" />
      </g>
      <g
         id="patch_15"
         style="stroke-linecap:butt;stroke-linejoin:round">
        <path
           d="m 518.4,388.8 0,-345.6"
           style="fill:none;stroke:#000000;stroke-linecap:butt;stroke-linejoin:round"
           id="path591"
           inkscape:connector-curvature="0" />
      </g>
      <g
         id="patch_16"
         style="stroke-linecap:butt;stroke-linejoin:round">
        <path
           d="m 72,388.8 446.4,0"
           style="fill:none;stroke:#000000;stroke-linecap:butt;stroke-linejoin:round"
           id="path594"
           inkscape:connector-curvature="0" />
      </g>
      <g
         id="patch_17"
         style="stroke-linecap:butt;stroke-linejoin:round">
        <path
           d="M 72,388.8 72,43.2"
           style="fill:none;stroke:#000000;stroke-linecap:butt;stroke-linejoin:round"
           id="path597"
           inkscape:connector-curvature="0" />
      </g>
      <g
         id="text_20"
         style="stroke-linecap:butt;stroke-linejoin:round">
        <!-- 29 -->
        <defs
           id="defs600">
          <path
             d="m 10.9844,1.51562 0,8.98438 Q 14.7031,8.73438 18.5,7.8125 q 3.8125,-0.92188 7.4844,-0.92188 9.7656,0 14.9062,6.56248 5.1563,6.5625 5.8906,19.9531 -2.8281,-4.2031 -7.1874,-6.4531 -4.3438,-2.25 -9.6094,-2.25 -10.9375,0 -17.3125,6.6094 -6.37502,6.625 -6.37502,18.1094 0,11.2187 6.64062,18 6.6406,6.7969 17.6719,6.7969 12.6562,0 19.3125,-9.7032 6.6719,-9.6875 6.6719,-28.1406 0,-17.2344 -8.1876,-27.51562 -8.1718,-10.28126 -21.9843,-10.28126 -3.7188,0 -7.5313,0.73438 -3.7968,0.734375 -7.9062,2.20312 m 19.625,30.90628 q 6.6406,0 10.5156,4.5312 3.8906,4.5469 3.8906,12.4688 0,7.8593 -3.8906,12.4219 -3.875,4.5624 -10.5156,4.5624 -6.6406,0 -10.5156,-4.5624 -3.875,-4.5626 -3.875,-12.4219 0,-7.9219 3.875,-12.4688 3.875,-4.5312 10.5156,-4.5312"
             id="DejaVuSans-39"
             inkscape:connector-curvature="0"
             style="stroke-linecap:butt;stroke-linejoin:round" />
        </defs>
        <g
           transform="matrix(0.12,0,0,-0.12,83.826562,384.29989)"
           id="g603"
           style="stroke-linecap:butt;stroke-linejoin:round">
          <use
             xlink:href="#DejaVuSans-32"
             id="use605"
             style="stroke-linecap:butt;stroke-linejoin:round"
             x="0"
             y="0"
             width="576"
             height="432" />
          <use
             x="63.623047"
             xlink:href="#DejaVuSans-39"
             id="use607"
             style="stroke-linecap:butt;stroke-linejoin:round"
             y="0"
             width="576"
             height="432" />
        </g>
      </g>
      <g
         id="text_21"
         style="stroke-linecap:butt;stroke-linejoin:round">
        <!-- 0 -->
        <g
           transform="matrix(0.12,0,0,-0.12,124.77656,386.30437)"
           id="g610"
           style="stroke-linecap:butt;stroke-linejoin:round">
          <use
             xlink:href="#DejaVuSans-30"
             id="use612"
             style="stroke-linecap:butt;stroke-linejoin:round"
             x="0"
             y="0"
             width="576"
             height="432" />
        </g>
      </g>
      <g
         id="text_22"
         style="stroke-linecap:butt;stroke-linejoin:round">
        <!-- 4769 -->
        <defs
           id="defs615">
          <path
             d="m 8.20312,72.9062 46.87498,0 0,-4.2031 L 28.6094,0 18.3125,0 l 24.9063,64.5938 -35.01568,0 z"
             id="DejaVuSans-37"
             inkscape:connector-curvature="0"
             style="stroke-linecap:butt;stroke-linejoin:round" />
          <path
             d="m 33.0156,40.375 q -6.6406,0 -10.5312,-4.5469 -3.875,-4.5312 -3.875,-12.4375 0,-7.8594 3.875,-12.4375 3.8906,-4.56248 10.5312,-4.56248 6.6406,0 10.5156,4.56248 3.875,4.5781 3.875,12.4375 0,7.9063 -3.875,12.4375 -3.875,4.5469 -10.5156,4.5469 m 19.5782,30.9219 0,-8.9844 q -3.7188,1.75 -7.5,2.6719 -3.7813,0.9375 -7.5,0.9375 -9.7657,0 -14.9219,-6.5938 -5.1407,-6.5937 -5.875,-19.9219 2.875,4.25 7.2187,6.5157 4.3594,2.2656 9.5782,2.2656 10.9843,0 17.3593,-6.6719 6.375,-6.6562 6.375,-18.125 0,-11.2344 -6.6406,-18.03122 -6.6406,-6.78126 -17.6719,-6.78126 -12.6562,0 -19.3437,9.6875 -6.68752,9.70318 -6.68752,28.10938 0,17.2812 8.20312,27.5625 8.2031,10.2813 22.0156,10.2813 3.7188,0 7.5,-0.7344 3.7813,-0.7344 7.8907,-2.1875"
             id="DejaVuSans-36"
             inkscape:connector-curvature="0"
             style="stroke-linecap:butt;stroke-linejoin:round" />
        </defs>
        <g
           transform="matrix(0.12,0,0,-0.12,150.44531,56.671095)"
           id="g619"
           style="stroke-linecap:butt;stroke-linejoin:round">
          <use
             xlink:href="#DejaVuSans-34"
             id="use621"
             style="stroke-linecap:butt;stroke-linejoin:round"
             x="0"
             y="0"
             width="576"
             height="432" />
          <use
             x="63.623047"
             xlink:href="#DejaVuSans-37"
             id="use623"
             style="stroke-linecap:butt;stroke-linejoin:round"
             y="0"
             width="576"
             height="432" />
          <use
             x="127.24609"
             xlink:href="#DejaVuSans-36"
             id="use625"
             style="stroke-linecap:butt;stroke-linejoin:round"
             y="0"
             width="576"
             height="432" />
          <use
             x="190.86914"
             xlink:href="#DejaVuSans-39"
             id="use627"
             style="stroke-linecap:butt;stroke-linejoin:round"
             y="0"
             width="576"
             height="432" />
        </g>
      </g>
      <g
         id="text_23"
         style="stroke-linecap:butt;stroke-linejoin:round">
        <!-- 0 -->
        <g
           transform="matrix(0.12,0,0,-0.12,199.17656,386.30437)"
           id="g630"
           style="stroke-linecap:butt;stroke-linejoin:round">
          <use
             xlink:href="#DejaVuSans-30"
             id="use632"
             style="stroke-linecap:butt;stroke-linejoin:round"
             x="0"
             y="0"
             width="576"
             height="432" />
        </g>
      </g>
      <g
         id="text_24"
         style="stroke-linecap:butt;stroke-linejoin:round">
        <!-- 1314 -->
        <g
           transform="matrix(0.12,0,0,-0.12,225.12563,295.4807)"
           id="g635"
           style="stroke-linecap:butt;stroke-linejoin:round">
          <use
             xlink:href="#DejaVuSans-31"
             id="use637"
             style="stroke-linecap:butt;stroke-linejoin:round"
             x="0"
             y="0"
             width="576"
             height="432" />
          <use
             x="63.623047"
             xlink:href="#DejaVuSans-33"
             id="use639"
             style="stroke-linecap:butt;stroke-linejoin:round"
             y="0"
             width="576"
             height="432" />
          <use
             x="127.24609"
             xlink:href="#DejaVuSans-31"
             id="use641"
             style="stroke-linecap:butt;stroke-linejoin:round"
             y="0"
             width="576"
             height="432" />
          <use
             x="190.86914"
             xlink:href="#DejaVuSans-34"
             id="use643"
             style="stroke-linecap:butt;stroke-linejoin:round"
             y="0"
             width="576"
             height="432" />
        </g>
      </g>
      <g
         id="text_25"
         style="stroke-linecap:butt;stroke-linejoin:round">
        <!-- 0 -->
        <g
           transform="matrix(0.12,0,0,-0.12,273.57656,386.30437)"
           id="g646"
           style="stroke-linecap:butt;stroke-linejoin:round">
          <use
             xlink:href="#DejaVuSans-30"
             id="use648"
             style="stroke-linecap:butt;stroke-linejoin:round"
             x="0"
             y="0"
             width="576"
             height="432" />
        </g>
      </g>
      <g
         id="text_26"
         style="stroke-linecap:butt;stroke-linejoin:round">
        <!-- 825 -->
        <defs
           id="defs651">
          <path
             d="m 31.7812,34.625 q -7.0312,0 -11.0624,-3.7656 -4.0157,-3.7656 -4.0157,-10.3438 0,-6.5937 4.0157,-10.3594 4.0312,-3.76558 11.0624,-3.76558 7.0313,0 11.0782,3.78128 4.0625,3.7969 4.0625,10.3437 0,6.5782 -4.0313,10.3438 -4.0156,3.7656 -11.1094,3.7656 m -9.8593,4.1875 Q 15.5781,40.375 12.0312,44.7188 8.5,49.0781 8.5,55.3281 q 0,8.7344 6.2188,13.8125 6.2343,5.0782 17.0624,5.0782 10.8907,0 17.0938,-5.0782 6.2031,-5.0781 6.2031,-13.8125 0,-6.25 -3.5469,-10.6093 Q 48,40.375 41.7031,38.8125 q 7.125,-1.6563 11.0938,-6.5 3.9843,-4.8281 3.9843,-11.7969 0,-10.60935 -6.4687,-16.28122 -6.4687,-5.65626 -18.5313,-5.65626 -12.0468,0 -18.5312,5.65626 -6.46875,5.67187 -6.46875,16.28122 0,6.9688 3.99995,11.7969 4.0157,4.8437 11.1407,6.5 m -3.6094,15.5781 q 0,-5.6562 3.5313,-8.8281 3.5468,-3.1719 9.9374,-3.1719 6.3594,0 9.9376,3.1719 3.5937,3.1719 3.5937,8.8281 0,5.6719 -3.5937,8.8438 -3.5782,3.1718 -9.9376,3.1718 -6.3906,0 -9.9374,-3.1718 -3.5313,-3.1719 -3.5313,-8.8438"
             id="DejaVuSans-38"
             inkscape:connector-curvature="0"
             style="stroke-linecap:butt;stroke-linejoin:round" />
        </defs>
        <g
           transform="matrix(0.12,0,0,-0.12,303.27844,329.28037)"
           id="g654"
           style="stroke-linecap:butt;stroke-linejoin:round">
          <use
             xlink:href="#DejaVuSans-38"
             id="use656"
             style="stroke-linecap:butt;stroke-linejoin:round"
             x="0"
             y="0"
             width="576"
             height="432" />
          <use
             x="63.623047"
             xlink:href="#DejaVuSans-32"
             id="use658"
             style="stroke-linecap:butt;stroke-linejoin:round"
             y="0"
             width="576"
             height="432" />
          <use
             x="127.24609"
             xlink:href="#DejaVuSans-35"
             id="use660"
             style="stroke-linecap:butt;stroke-linejoin:round"
             y="0"
             width="576"
             height="432" />
        </g>
      </g>
      <g
         id="text_27"
         style="stroke-linecap:butt;stroke-linejoin:round">
        <!-- 0 -->
        <g
           transform="matrix(0.12,0,0,-0.12,347.97656,386.30437)"
           id="g663"
           style="stroke-linecap:butt;stroke-linejoin:round">
          <use
             xlink:href="#DejaVuSans-30"
             id="use665"
             style="stroke-linecap:butt;stroke-linejoin:round"
             x="0"
             y="0"
             width="576"
             height="432" />
        </g>
      </g>
      <g
         id="text_28"
         style="stroke-linecap:butt;stroke-linejoin:round">
        <!-- 583 -->
        <g
           transform="matrix(0.12,0,0,-0.12,377.69156,346.00741)"
           id="g668"
           style="stroke-linecap:butt;stroke-linejoin:round">
          <use
             xlink:href="#DejaVuSans-35"
             id="use670"
             style="stroke-linecap:butt;stroke-linejoin:round"
             x="0"
             y="0"
             width="576"
             height="432" />
          <use
             x="63.623047"
             xlink:href="#DejaVuSans-38"
             id="use672"
             style="stroke-linecap:butt;stroke-linejoin:round"
             y="0"
             width="576"
             height="432" />
          <use
             x="127.24609"
             xlink:href="#DejaVuSans-33"
             id="use674"
             style="stroke-linecap:butt;stroke-linejoin:round"
             y="0"
             width="576"
             height="432" />
        </g>
      </g>
      <g
         id="text_29"
         style="stroke-linecap:butt;stroke-linejoin:round">
        <!-- 0 -->
        <g
           transform="matrix(0.12,0,0,-0.12,422.37656,386.30437)"
           id="g677"
           style="stroke-linecap:butt;stroke-linejoin:round">
          <use
             xlink:href="#DejaVuSans-30"
             id="use679"
             style="stroke-linecap:butt;stroke-linejoin:round"
             x="0"
             y="0"
             width="576"
             height="432" />
        </g>
      </g>
      <g
         id="text_30"
         style="stroke-linecap:butt;stroke-linejoin:round">
        <!-- 1266 -->
        <g
           transform="matrix(0.12,0,0,-0.12,448.36687,298.79845)"
           id="g682"
           style="stroke-linecap:butt;stroke-linejoin:round">
          <use
             xlink:href="#DejaVuSans-31"
             id="use684"
             style="stroke-linecap:butt;stroke-linejoin:round"
             x="0"
             y="0"
             width="576"
             height="432" />
          <use
             x="63.623047"
             xlink:href="#DejaVuSans-32"
             id="use686"
             style="stroke-linecap:butt;stroke-linejoin:round"
             y="0"
             width="576"
             height="432" />
          <use
             x="127.24609"
             xlink:href="#DejaVuSans-36"
             id="use688"
             style="stroke-linecap:butt;stroke-linejoin:round"
             y="0"
             width="576"
             height="432" />
          <use
             x="190.86914"
             xlink:href="#DejaVuSans-36"
             id="use690"
             style="stroke-linecap:butt;stroke-linejoin:round"
             y="0"
             width="576"
             height="432" />
        </g>
      </g>
    </g>
  </g>
  <defs
     id="defs692">
    <clipPath
       id="p7ff5b81e1d">
      <rect
         height="345.60001"
         width="446.39999"
         x="72"
         y="43.200001"
         id="rect695"
         style="stroke-linecap:butt;stroke-linejoin:round" />
    </clipPath>
  </defs>
  <defs
     id="defs697">
    <pattern
       height="72"
       id="hcad88ede71"
       patternUnits="userSpaceOnUse"
       width="72"
       x="0"
       y="0">
      <rect
         fill="#ffffff"
         height="73"
         width="73"
         x="0"
         y="0"
         id="rect700" />
      <path
         d=" M-36 36 L36 -36 M-30 42 L42 -30 M-24 48 L48 -24 M-18 54 L54 -18 M-12 60 L60 -12 M-6 66 L66 -6 M0 72 L72 0 M6 78 L78 6 M12 84 L84 12 M18 90 L90 18 M24 96 L96 24 M30 102 L102 30 M36 108 L108 36"
         style="fill:#000000;stroke:#000000;stroke-linecap:butt;stroke-linejoin:miter;stroke-width:1.0;"
         id="path702" />
    </pattern>
  </defs>
</svg>
