%!PS-Adobe-3.0 EPSF-3.0
%%Creator: cairo 1.10.2 (http://cairographics.org)
%%CreationDate: Wed Jul 23 18:52:47 2014
%%Pages: 1
%%BoundingBox: 0 0 576 432
%%DocumentData: Clean7Bit
%%LanguageLevel: 2
%%EndComments
%%BeginProlog
/cairo_eps_state save def
/dict_count countdictstack def
/op_count count 1 sub def
userdict begin
/q { gsave } bind def
/Q { grestore } bind def
/cm { 6 array astore concat } bind def
/w { setlinewidth } bind def
/J { setlinecap } bind def
/j { setlinejoin } bind def
/M { setmiterlimit } bind def
/d { setdash } bind def
/m { moveto } bind def
/l { lineto } bind def
/c { curveto } bind def
/h { closepath } bind def
/re { exch dup neg 3 1 roll 5 3 roll moveto 0 rlineto
      0 exch rlineto 0 rlineto closepath } bind def
/S { stroke } bind def
/f { fill } bind def
/f* { eofill } bind def
/n { newpath } bind def
/W { clip } bind def
/W* { eoclip } bind def
/BT { } bind def
/ET { } bind def
/pdfmark where { pop globaldict /?pdfmark /exec load put }
    { globaldict begin /?pdfmark /pop load def /pdfmark
    /cleartomark load def end } ifelse
/BDC { mark 3 1 roll /BDC pdfmark } bind def
/EMC { mark /EMC pdfmark } bind def
/cairo_store_point { /cairo_point_y exch def /cairo_point_x exch def } def
/Tj { show currentpoint cairo_store_point } bind def
/TJ {
  {
    dup
    type /stringtype eq
    { show } { -0.001 mul 0 cairo_font_matrix dtransform rmoveto } ifelse
  } forall
  currentpoint cairo_store_point
} bind def
/cairo_selectfont { cairo_font_matrix aload pop pop pop 0 0 6 array astore
    cairo_font exch selectfont cairo_point_x cairo_point_y moveto } bind def
/Tf { pop /cairo_font exch def /cairo_font_matrix where
      { pop cairo_selectfont } if } bind def
/Td { matrix translate cairo_font_matrix matrix concatmatrix dup
      /cairo_font_matrix exch def dup 4 get exch 5 get cairo_store_point
      /cairo_font where { pop cairo_selectfont } if } bind def
/Tm { 2 copy 8 2 roll 6 array astore /cairo_font_matrix exch def
      cairo_store_point /cairo_font where { pop cairo_selectfont } if } bind def
/g { setgray } bind def
/rg { setrgbcolor } bind def
/d1 { setcachedevice } bind def
%%EndProlog
%%Page: 1 1
%%BeginPageSetup
%%PageBoundingBox: 0 0 576 432
%%EndPageSetup
q 0 0 576 432 rectclip q
1 g
0 0 576 432 rectfill
72 388.801 446.398 -345.602 re f
Q q
72 388.801 446.398 -345.602 re W n
q
72 389 447 -346 re W n
  q
Q q
/CairoPattern {
  q
Q q
1 g
0 0 7200 7200 rectfill
0 g
-3600 3600 m 3600 10800 l -3000 3000 m 4200 10200 l -2400 2400 m 4800 
9600 l -1800 1800 m 5400 9000 l -1200 1200 m 6000 8400 l -600 600 m 
6600 7800 l 0 0 m 7200 7200 l 600 -600 m 7800 6600 l 1200 -1200 m 8400 
6000 l 1800 -1800 m 9000 5400 l 2400 -2400 m 9600 4800 l 3000 -3000 m 
10200 4200 l 3600 -3600 m 10800 3600 l f
100 w
0 J
0 j
[] 0.0 d
4 M q 1 0 0 -1 0 7200 cm
-3600 3600 m 3600 -3600 l -3000 4200 m 4200 -3000 l -2400 4800 m 4800 
-2400 l -1800 5400 m 5400 -1800 l -1200 6000 m 6000 -1200 l -600 6600 m 
6600 -600 l 0 7200 m 7200 0 l 600 7800 m 7800 600 l 1200 8400 m 8400 
1200 l 1800 9000 m 9000 1800 l 2400 9600 m 9600 2400 l 3000 10200 m 
10200 3000 l 3600 10800 m 10800 3600 l S Q
  Q
} bind def
<< /PatternType 1
   /PaintType 1
   /TilingType 1
   /XStep 7200 /YStep 7200
   /BBox [0 0 7200 7200]
   /PaintProc { CairoPattern }
>>
[ 0.01 0 0 0.01 0 360 ]
makepattern setpattern
52.59 43.199 m 91.41 43.199 l h
52.59 43.199 m f
Q q
0 g
1 w
0 J
1 j
[] 0.0 d
4 M 52.59 43.199 m 91.41 43.199 l h
52.59 43.199 m S
  Q
Q
Q q
72 388.801 446.398 -345.602 re W n
q
72 389 447 -346 re W n
  q
Q q
/CairoPattern {
  q
Q q
1 g
0 0 7200 7200 rectfill
0 g
-3600 3600 m 3600 10800 l -3000 3000 m 4200 10200 l -2400 2400 m 4800 
9600 l -1800 1800 m 5400 9000 l -1200 1200 m 6000 8400 l -600 600 m 
6600 7800 l 0 0 m 7200 7200 l 600 -600 m 7800 6600 l 1200 -1200 m 8400 
6000 l 1800 -1800 m 9000 5400 l 2400 -2400 m 9600 4800 l 3000 -3000 m 
10200 4200 l 3600 -3600 m 10800 3600 l f
100 w
0 J
0 j
[] 0.0 d
4 M q 1 0 0 -1 0 7200 cm
-3600 3600 m 3600 -3600 l -3000 4200 m 4200 -3000 l -2400 4800 m 4800 
-2400 l -1800 5400 m 5400 -1800 l -1200 6000 m 6000 -1200 l -600 6600 m 
6600 -600 l 0 7200 m 7200 0 l 600 7800 m 7800 600 l 1200 8400 m 8400 
1200 l 1800 9000 m 9000 1800 l 2400 9600 m 9600 2400 l 3000 10200 m 
10200 3000 l 3600 10800 m 10800 3600 l S Q
  Q
} bind def
<< /PatternType 1
   /PaintType 1
   /TilingType 1
   /XStep 7200 /YStep 7200
   /BBox [0 0 7200 7200]
   /PaintProc { CairoPattern }
>>
[ 0.01 0 0 0.01 0 360 ]
makepattern setpattern
91.41 43.199 m 130.227 43.199 l h
91.41 43.199 m f
Q q
0 g
1 w
0 J
1 j
[] 0.0 d
4 M 91.41 43.199 m 130.227 43.199 l h
91.41 43.199 m S
  Q
Q
Q q
72 388.801 446.398 -345.602 re W n
q
72 389 447 -346 re W n
  q
Q q
/CairoPattern {
  q
Q q
1 g
0 0 7200 7200 rectfill
0 g
-3600 3600 m 3600 10800 l -3000 3000 m 4200 10200 l -2400 2400 m 4800 
9600 l -1800 1800 m 5400 9000 l -1200 1200 m 6000 8400 l -600 600 m 
6600 7800 l 0 0 m 7200 7200 l 600 -600 m 7800 6600 l 1200 -1200 m 8400 
6000 l 1800 -1800 m 9000 5400 l 2400 -2400 m 9600 4800 l 3000 -3000 m 
10200 4200 l 3600 -3600 m 10800 3600 l f
100 w
0 J
0 j
[] 0.0 d
4 M q 1 0 0 -1 0 7200 cm
-3600 3600 m 3600 -3600 l -3000 4200 m 4200 -3000 l -2400 4800 m 4800 
-2400 l -1800 5400 m 5400 -1800 l -1200 6000 m 6000 -1200 l -600 6600 m 
6600 -600 l 0 7200 m 7200 0 l 600 7800 m 7800 600 l 1200 8400 m 8400 
1200 l 1800 9000 m 9000 1800 l 2400 9600 m 9600 2400 l 3000 10200 m 
10200 3000 l 3600 10800 m 10800 3600 l S Q
  Q
} bind def
<< /PatternType 1
   /PaintType 1
   /TilingType 1
   /XStep 7200 /YStep 7200
   /BBox [0 0 7200 7200]
   /PaintProc { CairoPattern }
>>
[ 0.01 0 0 0.01 0 360 ]
makepattern setpattern
130.227 43.27 38.816 -0.07 re f
Q q
0 g
1 w
0 J
1 j
[] 0.0 d
4 M 130.227 43.27 38.816 -0.07 re S
  Q
Q
Q q
72 388.801 446.398 -345.602 re W n
q
72 389 447 -346 re W n
  q
Q q
/CairoPattern {
  q
Q q
1 g
0 0 7200 7200 rectfill
0 g
-3600 3600 m 3600 10800 l -3000 3000 m 4200 10200 l -2400 2400 m 4800 
9600 l -1800 1800 m 5400 9000 l -1200 1200 m 6000 8400 l -600 600 m 
6600 7800 l 0 0 m 7200 7200 l 600 -600 m 7800 6600 l 1200 -1200 m 8400 
6000 l 1800 -1800 m 9000 5400 l 2400 -2400 m 9600 4800 l 3000 -3000 m 
10200 4200 l 3600 -3600 m 10800 3600 l f
100 w
0 J
0 j
[] 0.0 d
4 M q 1 0 0 -1 0 7200 cm
-3600 3600 m 3600 -3600 l -3000 4200 m 4200 -3000 l -2400 4800 m 4800 
-2400 l -1800 5400 m 5400 -1800 l -1200 6000 m 6000 -1200 l -600 6600 m 
6600 -600 l 0 7200 m 7200 0 l 600 7800 m 7800 600 l 1200 8400 m 8400 
1200 l 1800 9000 m 9000 1800 l 2400 9600 m 9600 2400 l 3000 10200 m 
10200 3000 l 3600 10800 m 10800 3600 l S Q
  Q
} bind def
<< /PatternType 1
   /PaintType 1
   /TilingType 1
   /XStep 7200 /YStep 7200
   /BBox [0 0 7200 7200]
   /PaintProc { CairoPattern }
>>
[ 0.01 0 0 0.01 0 360 ]
makepattern setpattern
169.043 43.199 m 207.859 43.199 l h
169.043 43.199 m f
Q q
0 g
1 w
0 J
1 j
[] 0.0 d
4 M 169.043 43.199 m 207.859 43.199 l h
169.043 43.199 m S
  Q
Q
Q q
72 388.801 446.398 -345.602 re W n
q
72 389 447 -346 re W n
  q
Q q
/CairoPattern {
  q
Q q
1 g
0 0 7200 7200 rectfill
0 g
-3600 3600 m 3600 10800 l -3000 3000 m 4200 10200 l -2400 2400 m 4800 
9600 l -1800 1800 m 5400 9000 l -1200 1200 m 6000 8400 l -600 600 m 
6600 7800 l 0 0 m 7200 7200 l 600 -600 m 7800 6600 l 1200 -1200 m 8400 
6000 l 1800 -1800 m 9000 5400 l 2400 -2400 m 9600 4800 l 3000 -3000 m 
10200 4200 l 3600 -3600 m 10800 3600 l f
100 w
0 J
0 j
[] 0.0 d
4 M q 1 0 0 -1 0 7200 cm
-3600 3600 m 3600 -3600 l -3000 4200 m 4200 -3000 l -2400 4800 m 4800 
-2400 l -1800 5400 m 5400 -1800 l -1200 6000 m 6000 -1200 l -600 6600 m 
6600 -600 l 0 7200 m 7200 0 l 600 7800 m 7800 600 l 1200 8400 m 8400 
1200 l 1800 9000 m 9000 1800 l 2400 9600 m 9600 2400 l 3000 10200 m 
10200 3000 l 3600 10800 m 10800 3600 l S Q
  Q
} bind def
<< /PatternType 1
   /PaintType 1
   /TilingType 1
   /XStep 7200 /YStep 7200
   /BBox [0 0 7200 7200]
   /PaintProc { CairoPattern }
>>
[ 0.01 0 0 0.01 0 360 ]
makepattern setpattern
207.859 43.199 m 246.68 43.199 l h
207.859 43.199 m f
Q q
0 g
1 w
0 J
1 j
[] 0.0 d
4 M 207.859 43.199 m 246.68 43.199 l h
207.859 43.199 m S
  Q
Q
Q q
72 388.801 446.398 -345.602 re W n
q
72 389 447 -346 re W n
  q
Q q
/CairoPattern {
  q
Q q
1 g
0 0 7200 7200 rectfill
0 g
-3600 3600 m 3600 10800 l -3000 3000 m 4200 10200 l -2400 2400 m 4800 
9600 l -1800 1800 m 5400 9000 l -1200 1200 m 6000 8400 l -600 600 m 
6600 7800 l 0 0 m 7200 7200 l 600 -600 m 7800 6600 l 1200 -1200 m 8400 
6000 l 1800 -1800 m 9000 5400 l 2400 -2400 m 9600 4800 l 3000 -3000 m 
10200 4200 l 3600 -3600 m 10800 3600 l f
100 w
0 J
0 j
[] 0.0 d
4 M q 1 0 0 -1 0 7200 cm
-3600 3600 m 3600 -3600 l -3000 4200 m 4200 -3000 l -2400 4800 m 4800 
-2400 l -1800 5400 m 5400 -1800 l -1200 6000 m 6000 -1200 l -600 6600 m 
6600 -600 l 0 7200 m 7200 0 l 600 7800 m 7800 600 l 1200 8400 m 8400 
1200 l 1800 9000 m 9000 1800 l 2400 9600 m 9600 2400 l 3000 10200 m 
10200 3000 l 3600 10800 m 10800 3600 l S Q
  Q
} bind def
<< /PatternType 1
   /PaintType 1
   /TilingType 1
   /XStep 7200 /YStep 7200
   /BBox [0 0 7200 7200]
   /PaintProc { CairoPattern }
>>
[ 0.01 0 0 0.01 0 360 ]
makepattern setpattern
246.68 43.199 m 285.496 43.199 l h
246.68 43.199 m f
Q q
0 g
1 w
0 J
1 j
[] 0.0 d
4 M 246.68 43.199 m 285.496 43.199 l h
246.68 43.199 m S
  Q
Q
Q q
72 388.801 446.398 -345.602 re W n
q
72 389 447 -346 re W n
  q
Q q
/CairoPattern {
  q
Q q
1 g
0 0 7200 7200 rectfill
0 g
-3600 3600 m 3600 10800 l -3000 3000 m 4200 10200 l -2400 2400 m 4800 
9600 l -1800 1800 m 5400 9000 l -1200 1200 m 6000 8400 l -600 600 m 
6600 7800 l 0 0 m 7200 7200 l 600 -600 m 7800 6600 l 1200 -1200 m 8400 
6000 l 1800 -1800 m 9000 5400 l 2400 -2400 m 9600 4800 l 3000 -3000 m 
10200 4200 l 3600 -3600 m 10800 3600 l f
100 w
0 J
0 j
[] 0.0 d
4 M q 1 0 0 -1 0 7200 cm
-3600 3600 m 3600 -3600 l -3000 4200 m 4200 -3000 l -2400 4800 m 4800 
-2400 l -1800 5400 m 5400 -1800 l -1200 6000 m 6000 -1200 l -600 6600 m 
6600 -600 l 0 7200 m 7200 0 l 600 7800 m 7800 600 l 1200 8400 m 8400 
1200 l 1800 9000 m 9000 1800 l 2400 9600 m 9600 2400 l 3000 10200 m 
10200 3000 l 3600 10800 m 10800 3600 l S Q
  Q
} bind def
<< /PatternType 1
   /PaintType 1
   /TilingType 1
   /XStep 7200 /YStep 7200
   /BBox [0 0 7200 7200]
   /PaintProc { CairoPattern }
>>
[ 0.01 0 0 0.01 0 360 ]
makepattern setpattern
285.496 43.199 m 324.312 43.199 l h
285.496 43.199 m f
Q q
0 g
1 w
0 J
1 j
[] 0.0 d
4 M 285.496 43.199 m 324.312 43.199 l h
285.496 43.199 m S
  Q
Q
Q q
72 388.801 446.398 -345.602 re W n
q
72 389 447 -346 re W n
  q
Q q
/CairoPattern {
  q
Q q
1 g
0 0 7200 7200 rectfill
0 g
-3600 3600 m 3600 10800 l -3000 3000 m 4200 10200 l -2400 2400 m 4800 
9600 l -1800 1800 m 5400 9000 l -1200 1200 m 6000 8400 l -600 600 m 
6600 7800 l 0 0 m 7200 7200 l 600 -600 m 7800 6600 l 1200 -1200 m 8400 
6000 l 1800 -1800 m 9000 5400 l 2400 -2400 m 9600 4800 l 3000 -3000 m 
10200 4200 l 3600 -3600 m 10800 3600 l f
100 w
0 J
0 j
[] 0.0 d
4 M q 1 0 0 -1 0 7200 cm
-3600 3600 m 3600 -3600 l -3000 4200 m 4200 -3000 l -2400 4800 m 4800 
-2400 l -1800 5400 m 5400 -1800 l -1200 6000 m 6000 -1200 l -600 6600 m 
6600 -600 l 0 7200 m 7200 0 l 600 7800 m 7800 600 l 1200 8400 m 8400 
1200 l 1800 9000 m 9000 1800 l 2400 9600 m 9600 2400 l 3000 10200 m 
10200 3000 l 3600 10800 m 10800 3600 l S Q
  Q
} bind def
<< /PatternType 1
   /PaintType 1
   /TilingType 1
   /XStep 7200 /YStep 7200
   /BBox [0 0 7200 7200]
   /PaintProc { CairoPattern }
>>
[ 0.01 0 0 0.01 0 360 ]
makepattern setpattern
324.312 43.199 m 363.129 43.199 l h
324.312 43.199 m f
Q q
0 g
1 w
0 J
1 j
[] 0.0 d
4 M 324.312 43.199 m 363.129 43.199 l h
324.312 43.199 m S
  Q
Q
Q q
72 388.801 446.398 -345.602 re W n
q
72 389 447 -346 re W n
  q
Q q
/CairoPattern {
  q
Q q
1 g
0 0 7200 7200 rectfill
0 g
-3600 3600 m 3600 10800 l -3000 3000 m 4200 10200 l -2400 2400 m 4800 
9600 l -1800 1800 m 5400 9000 l -1200 1200 m 6000 8400 l -600 600 m 
6600 7800 l 0 0 m 7200 7200 l 600 -600 m 7800 6600 l 1200 -1200 m 8400 
6000 l 1800 -1800 m 9000 5400 l 2400 -2400 m 9600 4800 l 3000 -3000 m 
10200 4200 l 3600 -3600 m 10800 3600 l f
100 w
0 J
0 j
[] 0.0 d
4 M q 1 0 0 -1 0 7200 cm
-3600 3600 m 3600 -3600 l -3000 4200 m 4200 -3000 l -2400 4800 m 4800 
-2400 l -1800 5400 m 5400 -1800 l -1200 6000 m 6000 -1200 l -600 6600 m 
6600 -600 l 0 7200 m 7200 0 l 600 7800 m 7800 600 l 1200 8400 m 8400 
1200 l 1800 9000 m 9000 1800 l 2400 9600 m 9600 2400 l 3000 10200 m 
10200 3000 l 3600 10800 m 10800 3600 l S Q
  Q
} bind def
<< /PatternType 1
   /PaintType 1
   /TilingType 1
   /XStep 7200 /YStep 7200
   /BBox [0 0 7200 7200]
   /PaintProc { CairoPattern }
>>
[ 0.01 0 0 0.01 0 360 ]
makepattern setpattern
363.129 43.199 m 401.949 43.199 l h
363.129 43.199 m f
Q q
0 g
1 w
0 J
1 j
[] 0.0 d
4 M 363.129 43.199 m 401.949 43.199 l h
363.129 43.199 m S
  Q
Q
Q q
72 388.801 446.398 -345.602 re W n
q
72 389 447 -346 re W n
  q
Q q
/CairoPattern {
  q
Q q
1 g
0 0 7200 7200 rectfill
0 g
-3600 3600 m 3600 10800 l -3000 3000 m 4200 10200 l -2400 2400 m 4800 
9600 l -1800 1800 m 5400 9000 l -1200 1200 m 6000 8400 l -600 600 m 
6600 7800 l 0 0 m 7200 7200 l 600 -600 m 7800 6600 l 1200 -1200 m 8400 
6000 l 1800 -1800 m 9000 5400 l 2400 -2400 m 9600 4800 l 3000 -3000 m 
10200 4200 l 3600 -3600 m 10800 3600 l f
100 w
0 J
0 j
[] 0.0 d
4 M q 1 0 0 -1 0 7200 cm
-3600 3600 m 3600 -3600 l -3000 4200 m 4200 -3000 l -2400 4800 m 4800 
-2400 l -1800 5400 m 5400 -1800 l -1200 6000 m 6000 -1200 l -600 6600 m 
6600 -600 l 0 7200 m 7200 0 l 600 7800 m 7800 600 l 1200 8400 m 8400 
1200 l 1800 9000 m 9000 1800 l 2400 9600 m 9600 2400 l 3000 10200 m 
10200 3000 l 3600 10800 m 10800 3600 l S Q
  Q
} bind def
<< /PatternType 1
   /PaintType 1
   /TilingType 1
   /XStep 7200 /YStep 7200
   /BBox [0 0 7200 7200]
   /PaintProc { CairoPattern }
>>
[ 0.01 0 0 0.01 0 360 ]
makepattern setpattern
401.949 43.199 m 440.766 43.199 l h
401.949 43.199 m f
Q q
0 g
1 w
0 J
1 j
[] 0.0 d
4 M 401.949 43.199 m 440.766 43.199 l h
401.949 43.199 m S
  Q
Q
Q q
72 388.801 446.398 -345.602 re W n
q
72 389 447 -346 re W n
  q
Q q
/CairoPattern {
  q
Q q
1 g
0 0 7200 7200 rectfill
0 g
-3600 3600 m 3600 10800 l -3000 3000 m 4200 10200 l -2400 2400 m 4800 
9600 l -1800 1800 m 5400 9000 l -1200 1200 m 6000 8400 l -600 600 m 
6600 7800 l 0 0 m 7200 7200 l 600 -600 m 7800 6600 l 1200 -1200 m 8400 
6000 l 1800 -1800 m 9000 5400 l 2400 -2400 m 9600 4800 l 3000 -3000 m 
10200 4200 l 3600 -3600 m 10800 3600 l f
100 w
0 J
0 j
[] 0.0 d
4 M q 1 0 0 -1 0 7200 cm
-3600 3600 m 3600 -3600 l -3000 4200 m 4200 -3000 l -2400 4800 m 4800 
-2400 l -1800 5400 m 5400 -1800 l -1200 6000 m 6000 -1200 l -600 6600 m 
6600 -600 l 0 7200 m 7200 0 l 600 7800 m 7800 600 l 1200 8400 m 8400 
1200 l 1800 9000 m 9000 1800 l 2400 9600 m 9600 2400 l 3000 10200 m 
10200 3000 l 3600 10800 m 10800 3600 l S Q
  Q
} bind def
<< /PatternType 1
   /PaintType 1
   /TilingType 1
   /XStep 7200 /YStep 7200
   /BBox [0 0 7200 7200]
   /PaintProc { CairoPattern }
>>
[ 0.01 0 0 0.01 0 360 ]
makepattern setpattern
440.766 384.93 38.816 -341.73 re f
Q q
0 g
1 w
0 J
1 j
[] 0.0 d
4 M 440.766 384.93 38.816 -341.73 re S
  Q
Q
0 g
0.5 w
0 J
1 j
[] 0.0 d
4 M 72 43.199 m 72 47.199 l S
72 388.801 m 72 384.801 l S
67.652 37.664 m 66.047 33.312 l 69.266 33.312 l h
66.984 38.832 m 68.328 38.832 l 71.66 30.082 l 70.43 30.082 l 69.633 
32.328 l 65.691 32.328 l 64.895 30.082 l 63.645 30.082 l h
66.984 38.832 m f
77.281 37.605 m 77.281 34.344 l 80.543 34.344 l 80.543 33.348 l 77.281 
33.348 l 77.281 30.082 l 76.297 30.082 l 76.297 33.348 l 73.031 33.348 
l 73.031 34.344 l 76.297 34.344 l 76.297 37.605 l h
77.281 37.605 m f
110.816 43.199 m 110.816 47.199 l S
110.816 388.801 m 110.816 384.801 l S
109.125 37.664 m 107.52 33.312 l 110.734 33.312 l h
108.457 38.832 m 109.797 38.832 l 113.133 30.082 l 111.902 30.082 l 
111.105 32.328 l 107.16 32.328 l 106.363 30.082 l 105.117 30.082 l h
108.457 38.832 m f
113.547 33.848 3.16 -0.957 re f
149.637 43.199 m 149.637 47.199 l S
149.637 388.801 m 149.637 384.801 l S
144.078 34.258 m 144.078 31.055 l 145.977 31.055 l 146.613 31.055 
147.082 31.188 147.391 31.449 c 147.695 31.715 147.852 32.117 147.852 
32.66 c 147.852 33.207 147.695 33.609 147.391 33.871 c 147.082 34.129 
146.613 34.258 145.977 34.258 c h
144.078 37.859 m 144.078 35.223 l 145.828 35.223 l 146.406 35.223 
146.836 35.328 147.121 35.547 c 147.402 35.762 147.547 36.094 147.547 
36.539 c 147.547 36.98 147.402 37.312 147.121 37.531 c 146.836 37.75 
146.406 37.859 145.828 37.859 c h
142.895 38.832 m 145.918 38.832 l 146.82 38.832 147.516 38.645 148.004 
38.27 c 148.492 37.895 148.734 37.359 148.734 36.668 c 148.734 36.133 
148.609 35.707 148.359 35.391 c 148.109 35.074 147.742 34.875 147.258 
34.801 c 147.84 34.676 148.293 34.414 148.617 34.016 c 148.938 33.621 
149.098 33.125 149.098 32.531 c 149.098 31.75 148.832 31.145 148.301 
30.719 c 147.77 30.293 147.016 30.082 146.035 30.082 c 142.895 30.082 l 
h
142.895 38.832 m f
155.469 37.605 m 155.469 34.344 l 158.73 34.344 l 158.73 33.348 l 
155.469 33.348 l 155.469 30.082 l 154.484 30.082 l 154.484 33.348 l 
151.219 33.348 l 151.219 34.344 l 154.484 34.344 l 154.484 37.605 l h
155.469 37.605 m f
188.453 43.199 m 188.453 47.199 l S
188.453 388.801 m 188.453 384.801 l S
185.414 34.258 m 185.414 31.055 l 187.312 31.055 l 187.949 31.055 
188.418 31.188 188.727 31.449 c 189.035 31.715 189.188 32.117 189.188 
32.66 c 189.188 33.207 189.035 33.609 188.727 33.871 c 188.418 34.129 
187.949 34.258 187.312 34.258 c h
185.414 37.859 m 185.414 35.223 l 187.164 35.223 l 187.742 35.223 
188.172 35.328 188.457 35.547 c 188.738 35.762 188.883 36.094 188.883 
36.539 c 188.883 36.98 188.738 37.312 188.457 37.531 c 188.172 37.75 
187.742 37.859 187.164 37.859 c h
184.23 38.832 m 187.254 38.832 l 188.156 38.832 188.852 38.645 189.34 
38.27 c 189.828 37.895 190.07 37.359 190.07 36.668 c 190.07 36.133 
189.945 35.707 189.695 35.391 c 189.445 35.074 189.078 34.875 188.594 
34.801 c 189.176 34.676 189.629 34.414 189.953 34.016 c 190.273 33.621 
190.438 33.125 190.438 32.531 c 190.438 31.75 190.172 31.145 189.641 
30.719 c 189.109 30.293 188.352 30.082 187.371 30.082 c 184.23 30.082 l 
h
184.23 38.832 m f
191.871 33.848 3.156 -0.957 re f
227.27 43.199 m 227.27 47.199 l S
227.27 388.801 m 227.27 384.801 l S
226.754 38.156 m 226.754 36.91 l 226.355 37.281 225.93 37.559 225.48 
37.738 c 225.027 37.922 224.547 38.016 224.039 38.016 c 223.039 38.016 
222.273 37.711 221.742 37.098 c 221.211 36.488 220.945 35.602 220.945 
34.445 c 220.945 33.293 221.211 32.414 221.742 31.801 c 222.273 31.191 
223.039 30.883 224.039 30.883 c 224.547 30.883 225.027 30.977 225.48 
31.16 c 225.93 31.344 226.355 31.621 226.754 31.992 c 226.754 30.754 l 
226.34 30.473 225.902 30.262 225.438 30.121 c 224.977 29.98 224.488 
29.91 223.973 29.91 c 222.645 29.91 221.602 30.316 220.84 31.125 c 
220.078 31.938 219.699 33.043 219.699 34.445 c 219.699 35.852 220.078 
36.961 220.84 37.77 c 221.602 38.582 222.645 38.988 223.973 38.988 c 
224.492 38.988 224.988 38.918 225.449 38.781 c 225.914 38.641 226.348 
38.434 226.754 38.156 c f
232.926 37.605 m 232.926 34.344 l 236.188 34.344 l 236.188 33.348 l 
232.926 33.348 l 232.926 30.082 l 231.941 30.082 l 231.941 33.348 l 
228.676 33.348 l 228.676 34.344 l 231.941 34.344 l 231.941 37.605 l h
232.926 37.605 m f
266.086 43.199 m 266.086 47.199 l S
266.086 388.801 m 266.086 384.801 l S
268.09 38.156 m 268.09 36.91 l 267.691 37.281 267.266 37.559 266.816 
37.738 c 266.363 37.922 265.887 38.016 265.379 38.016 c 264.379 38.016 
263.613 37.711 263.082 37.098 c 262.551 36.488 262.285 35.602 262.285 
34.445 c 262.285 33.293 262.551 32.414 263.082 31.801 c 263.613 31.191 
264.379 30.883 265.379 30.883 c 265.887 30.883 266.363 30.977 266.816 
31.16 c 267.266 31.344 267.691 31.621 268.09 31.992 c 268.09 30.754 l 
267.676 30.473 267.238 30.262 266.773 30.121 c 266.312 29.98 265.824 
29.91 265.309 29.91 c 263.984 29.91 262.938 30.316 262.176 31.125 c 
261.414 31.938 261.035 33.043 261.035 34.445 c 261.035 35.852 261.414 
36.961 262.176 37.77 c 262.938 38.582 263.984 38.988 265.309 38.988 c 
265.832 38.988 266.324 38.918 266.785 38.781 c 267.25 38.641 267.684 
38.434 268.09 38.156 c f
269.328 33.848 3.156 -0.957 re f
304.906 43.199 m 304.906 47.199 l S
304.906 388.801 m 304.906 384.801 l S
298.844 37.859 m 298.844 31.055 l 300.273 31.055 l 301.48 31.055 
302.363 31.328 302.926 31.875 c 303.484 32.422 303.766 33.285 303.766 
34.465 c 303.766 35.637 303.484 36.496 302.926 37.039 c 302.363 37.586 
301.48 37.859 300.273 37.859 c h
297.66 38.832 m 300.09 38.832 l 301.785 38.832 303.031 38.477 303.824 
37.773 c 304.617 37.066 305.012 35.965 305.012 34.465 c 305.012 32.957 
304.613 31.848 303.816 31.141 c 303.02 30.434 301.777 30.082 300.09 
30.082 c 297.66 30.082 l h
297.66 38.832 m f
311.242 37.605 m 311.242 34.344 l 314.504 34.344 l 314.504 33.348 l 
311.242 33.348 l 311.242 30.082 l 310.258 30.082 l 310.258 33.348 l 
306.992 33.348 l 306.992 34.344 l 310.258 34.344 l 310.258 37.605 l h
311.242 37.605 m f
343.723 43.199 m 343.723 47.199 l S
343.723 388.801 m 343.723 384.801 l S
340.18 37.859 m 340.18 31.055 l 341.609 31.055 l 342.816 31.055 343.699 
31.328 344.262 31.875 c 344.82 32.422 345.102 33.285 345.102 34.465 c 
345.102 35.637 344.82 36.496 344.262 37.039 c 343.699 37.586 342.816 
37.859 341.609 37.859 c h
338.996 38.832 m 341.426 38.832 l 343.121 38.832 344.367 38.477 345.16 
37.773 c 345.953 37.066 346.348 35.965 346.348 34.465 c 346.348 32.957 
345.949 31.848 345.152 31.141 c 344.355 30.434 343.113 30.082 341.426 
30.082 c 338.996 30.082 l h
338.996 38.832 m f
347.645 33.848 3.16 -0.957 re f
382.539 43.199 m 382.539 47.199 l S
382.539 388.801 m 382.539 384.801 l S
376.121 38.832 m 381.652 38.832 l 381.652 37.832 l 377.305 37.832 l 
377.305 35.242 l 381.473 35.242 l 381.473 34.25 l 377.305 34.25 l 
377.305 31.078 l 381.758 31.078 l 381.758 30.082 l 376.121 30.082 l h
376.121 38.832 m f
388.047 37.605 m 388.047 34.344 l 391.309 34.344 l 391.309 33.348 l 
388.047 33.348 l 388.047 30.082 l 387.062 30.082 l 387.062 33.348 l 
383.797 33.348 l 383.797 34.344 l 387.062 34.344 l 387.062 37.605 l h
388.047 37.605 m f
421.355 43.199 m 421.355 47.199 l S
421.355 388.801 m 421.355 384.801 l S
417.461 38.832 m 422.992 38.832 l 422.992 37.832 l 418.641 37.832 l 
418.641 35.242 l 422.809 35.242 l 422.809 34.25 l 418.641 34.25 l 
418.641 31.078 l 423.094 31.078 l 423.094 30.082 l 417.461 30.082 l h
417.461 38.832 m f
424.449 33.848 3.16 -0.957 re f
460.176 43.199 m 460.176 47.199 l S
460.176 388.801 m 460.176 384.801 l S
439.129 33.359 m 439.129 34.148 438.965 34.773 438.637 35.223 c 438.312 
35.676 437.863 35.898 437.293 35.898 c 436.723 35.898 436.273 35.676 
435.945 35.223 c 435.621 34.773 435.457 34.148 435.457 33.359 c 435.457 
32.566 435.621 31.941 435.945 31.492 c 436.273 31.039 436.723 30.816 
437.293 30.816 c 437.863 30.816 438.312 31.039 438.637 31.492 c 438.965 
31.941 439.129 32.566 439.129 33.359 c 435.457 35.648 m 435.684 36.039 
435.973 36.328 436.316 36.516 c 436.664 36.707 437.074 36.801 437.555 
36.801 c 438.352 36.801 439 36.484 439.5 35.852 c 439.996 35.219 
440.246 34.391 440.246 33.359 c 440.246 32.328 439.996 31.492 439.5 
30.859 c 439 30.227 438.352 29.91 437.555 29.91 c 437.074 29.91 436.664 
30.008 436.316 30.195 c 435.973 30.387 435.684 30.676 435.457 31.066 c 
435.457 30.082 l 434.375 30.082 l 434.375 39.199 l 435.457 39.199 l h
435.457 35.648 m f
447.645 33.633 m 447.645 33.105 l 442.688 33.105 l 442.734 32.363 
442.961 31.797 443.359 31.41 c 443.762 31.02 444.316 30.828 445.031 
30.828 c 445.445 30.828 445.848 30.875 446.234 30.977 c 446.625 31.078 
447.012 31.23 447.395 31.438 c 447.395 30.414 l 447.008 30.25 446.609 
30.125 446.203 30.039 c 445.797 29.953 445.387 29.91 444.969 29.91 c 
443.922 29.91 443.09 30.215 442.48 30.824 c 441.871 31.434 441.562 
32.258 441.562 33.301 c 441.562 34.375 441.855 35.227 442.434 35.855 c 
443.012 36.484 443.797 36.801 444.781 36.801 c 445.664 36.801 446.363 
36.516 446.875 35.949 c 447.391 35.383 447.645 34.609 447.645 33.633 c 
446.566 33.949 m 446.559 34.539 446.395 35.008 446.074 35.359 c 445.75 
35.711 445.324 35.891 444.793 35.891 c 444.191 35.891 443.711 35.719 
443.348 35.379 c 442.988 35.039 442.777 34.559 442.723 33.941 c h
446.566 33.949 m f
449.414 39.199 1.078 -9.117 re f
455.293 35.891 m 454.715 35.891 454.258 35.664 453.922 35.211 c 453.586 
34.762 453.418 34.141 453.418 33.359 c 453.418 32.574 453.582 31.953 
453.918 31.504 c 454.254 31.051 454.711 30.828 455.293 30.828 c 455.867 
30.828 456.32 31.051 456.656 31.504 c 456.992 31.957 457.16 32.578 
457.16 33.359 c 457.16 34.137 456.992 34.75 456.656 35.207 c 456.32 
35.66 455.867 35.891 455.293 35.891 c 455.293 36.801 m 456.23 36.801 
456.965 36.496 457.5 35.887 c 458.035 35.277 458.305 34.434 458.305 
33.359 c 458.305 32.285 458.035 31.441 457.5 30.828 c 456.965 30.219 
456.23 29.91 455.293 29.91 c 454.352 29.91 453.613 30.219 453.078 
30.828 c 452.547 31.441 452.281 32.285 452.281 33.359 c 452.281 34.434 
452.547 35.277 453.078 35.887 c 453.613 36.496 454.352 36.801 455.293 
36.801 c f
459.465 36.645 m 460.543 36.645 l 461.891 31.523 l 463.23 36.645 l 
464.504 36.645 l 465.852 31.523 l 467.195 36.645 l 468.273 36.645 l 
466.555 30.082 l 465.281 30.082 l 463.871 35.461 l 462.453 30.082 l 
461.18 30.082 l h
459.465 36.645 m f
473.887 38.832 m 478.531 38.832 l 478.531 37.832 l 474.969 37.832 l 
474.969 35.691 l 475.141 35.75 475.312 35.793 475.48 35.82 c 475.656 
35.852 475.828 35.863 476 35.863 c 476.977 35.863 477.75 35.598 478.32 
35.062 c 478.891 34.527 479.176 33.801 479.176 32.891 c 479.176 31.949 
478.883 31.215 478.297 30.691 c 477.711 30.172 476.883 29.91 475.816 
29.91 c 475.449 29.91 475.074 29.941 474.695 30.004 c 474.316 30.066 
473.922 30.16 473.516 30.285 c 473.516 31.477 l 473.867 31.285 474.23 
31.145 474.605 31.051 c 474.98 30.957 475.375 30.91 475.793 30.91 c 
476.469 30.91 477.004 31.086 477.398 31.441 c 477.793 31.797 477.992 
32.277 477.992 32.891 c 477.992 33.496 477.793 33.98 477.398 34.336 c 
477.004 34.691 476.469 34.867 475.793 34.867 c 475.477 34.867 475.16 
34.832 474.848 34.766 c 474.531 34.695 474.211 34.586 473.887 34.438 c 
h
473.887 38.832 m f
484.039 38.051 m 483.43 38.051 482.973 37.75 482.664 37.152 c 482.355 
36.551 482.203 35.652 482.203 34.445 c 482.203 33.25 482.355 32.348 
482.664 31.75 c 482.973 31.148 483.43 30.848 484.039 30.848 c 484.652 
30.848 485.113 31.148 485.418 31.75 c 485.727 32.348 485.879 33.25 
485.879 34.445 c 485.879 35.652 485.727 36.551 485.418 37.152 c 485.113 
37.75 484.652 38.051 484.039 38.051 c 484.039 38.988 m 485.02 38.988 
485.77 38.602 486.285 37.824 c 486.805 37.047 487.062 35.922 487.062 
34.445 c 487.062 32.973 486.805 31.852 486.285 31.074 c 485.77 30.297 
485.02 29.91 484.039 29.91 c 483.059 29.91 482.309 30.297 481.793 
31.074 c 481.273 31.852 481.016 32.973 481.016 34.445 c 481.016 35.922 
481.273 37.047 481.793 37.824 c 482.309 38.602 483.059 38.988 484.039 
38.988 c f
498.992 43.199 m 498.992 47.199 l S
498.992 388.801 m 498.992 384.801 l S
198.938 16.828 m 198.938 17.609 198.777 18.211 198.457 18.641 c 198.133 
19.07 197.684 19.285 197.102 19.285 c 196.523 19.285 196.074 19.07 
195.75 18.641 c 195.426 18.211 195.266 17.609 195.266 16.828 c 195.266 
16.047 195.426 15.445 195.75 15.016 c 196.074 14.586 196.523 14.371 
197.102 14.371 c 197.684 14.371 198.133 14.586 198.457 15.016 c 198.777 
15.445 198.938 16.047 198.938 16.828 c 200.016 14.281 m 200.016 13.164 
199.77 12.336 199.273 11.789 c 198.777 11.246 198.02 10.973 196.996 
10.973 c 196.617 10.973 196.258 11 195.922 11.059 c 195.586 11.113 
195.262 11.199 194.945 11.316 c 194.945 12.367 l 195.262 12.195 195.574 
12.066 195.883 11.988 c 196.191 11.906 196.504 11.863 196.824 11.863 c 
197.531 11.863 198.062 12.047 198.414 12.418 c 198.766 12.785 198.938 
13.344 198.938 14.09 c 198.938 14.625 l 198.719 14.234 198.434 13.945 
198.086 13.754 c 197.738 13.562 197.32 13.469 196.836 13.469 c 196.031 
13.469 195.383 13.773 194.891 14.387 c 194.398 15 194.152 15.812 
194.152 16.828 c 194.152 17.84 194.398 18.656 194.891 19.266 c 195.383 
19.883 196.031 20.188 196.836 20.188 c 197.32 20.188 197.738 20.094 
198.086 19.902 c 198.434 19.711 198.719 19.422 198.938 19.035 c 198.938 
20.031 l 200.016 20.031 l h
200.016 14.281 m f
206.039 19.023 m 205.918 19.094 205.789 19.145 205.645 19.176 c 205.504 
19.211 205.348 19.227 205.176 19.227 c 204.566 19.227 204.098 19.031 
203.77 18.633 c 203.445 18.238 203.281 17.668 203.281 16.926 c 203.281 
13.469 l 202.195 13.469 l 202.195 20.031 l 203.281 20.031 l 203.281 
19.012 l 203.508 19.41 203.805 19.703 204.164 19.898 c 204.531 20.09 
204.973 20.188 205.492 20.188 c 205.566 20.188 205.648 20.184 205.738 
20.172 c 205.828 20.164 205.926 20.148 206.035 20.129 c h
206.039 19.023 m f
210.156 16.766 m 209.285 16.766 208.68 16.668 208.344 16.469 c 208.008 
16.27 207.84 15.93 207.84 15.449 c 207.84 15.066 207.965 14.762 208.219 
14.535 c 208.473 14.312 208.812 14.203 209.246 14.203 c 209.844 14.203 
210.324 14.414 210.688 14.836 c 211.047 15.262 211.227 15.824 211.227 
16.527 c 211.227 16.766 l h
212.305 17.211 m 212.305 13.469 l 211.227 13.469 l 211.227 14.465 l 
210.98 14.066 210.676 13.773 210.309 13.582 c 209.941 13.391 209.488 
13.297 208.957 13.297 c 208.289 13.297 207.754 13.484 207.355 13.863 c 
206.961 14.242 206.762 14.746 206.762 15.379 c 206.762 16.117 207.008 
16.672 207.504 17.047 c 207.996 17.422 208.734 17.609 209.715 17.609 c 
211.227 17.609 l 211.227 17.719 l 211.227 18.215 211.066 18.598 210.738 
18.867 c 210.41 19.141 209.953 19.273 209.363 19.273 c 208.988 19.273 
208.625 19.23 208.266 19.141 c 207.91 19.051 207.57 18.914 207.242 
18.734 c 207.242 19.734 l 207.637 19.887 208.02 20 208.391 20.074 c 
208.762 20.148 209.125 20.188 209.473 20.188 c 210.426 20.188 211.133 
19.941 211.602 19.449 c 212.07 18.957 212.305 18.211 212.305 17.211 c f
218.844 19.035 m 218.844 22.586 l 219.922 22.586 l 219.922 13.469 l 
218.844 13.469 l 218.844 14.453 l 218.617 14.062 218.332 13.773 217.984 
13.582 c 217.641 13.391 217.227 13.297 216.738 13.297 c 215.949 13.297 
215.301 13.613 214.805 14.246 c 214.305 14.879 214.059 15.711 214.059 
16.742 c 214.059 17.773 214.305 18.605 214.805 19.238 c 215.301 19.871 
215.949 20.188 216.738 20.188 c 217.227 20.188 217.641 20.094 217.984 
19.902 c 218.332 19.715 218.617 19.426 218.844 19.035 c 215.172 16.742 
m 215.172 15.953 215.332 15.328 215.66 14.879 c 215.984 14.426 216.434 
14.203 217.004 14.203 c 217.574 14.203 218.023 14.426 218.352 14.879 c 
218.68 15.328 218.844 15.953 218.844 16.742 c 218.844 17.535 218.68 
18.156 218.352 18.609 c 218.023 19.062 217.574 19.285 217.004 19.285 c 
216.434 19.285 215.984 19.062 215.66 18.609 c 215.332 18.156 215.172 
17.535 215.172 16.742 c f
222.145 20.031 m 223.223 20.031 l 223.223 13.469 l 222.145 13.469 l h
222.145 22.586 m 223.223 22.586 l 223.223 21.219 l 222.145 21.219 l h
222.145 22.586 m f
230.934 17.43 m 230.934 13.469 l 229.855 13.469 l 229.855 17.395 l 
229.855 18.016 229.734 18.48 229.492 18.789 c 229.25 19.098 228.887 
19.25 228.402 19.25 c 227.82 19.25 227.359 19.066 227.023 18.695 c 
226.688 18.324 226.52 17.816 226.52 17.176 c 226.52 13.469 l 225.434 
13.469 l 225.434 20.031 l 226.52 20.031 l 226.52 19.012 l 226.777 
19.406 227.082 19.699 227.43 19.895 c 227.781 20.09 228.184 20.188 
228.641 20.188 c 229.395 20.188 229.965 19.953 230.352 19.488 c 230.738 
19.023 230.934 18.336 230.934 17.43 c f
237.398 16.828 m 237.398 17.609 237.238 18.211 236.918 18.641 c 236.594 
19.07 236.145 19.285 235.562 19.285 c 234.984 19.285 234.535 19.07 
234.211 18.641 c 233.887 18.211 233.727 17.609 233.727 16.828 c 233.727 
16.047 233.887 15.445 234.211 15.016 c 234.535 14.586 234.984 14.371 
235.562 14.371 c 236.145 14.371 236.594 14.586 236.918 15.016 c 237.238 
15.445 237.398 16.047 237.398 16.828 c 238.477 14.281 m 238.477 13.164 
238.23 12.336 237.734 11.789 c 237.238 11.246 236.48 10.973 235.457 
10.973 c 235.078 10.973 234.719 11 234.383 11.059 c 234.047 11.113 
233.723 11.199 233.406 11.316 c 233.406 12.367 l 233.723 12.195 234.035 
12.066 234.344 11.988 c 234.652 11.906 234.965 11.863 235.285 11.863 c 
235.992 11.863 236.523 12.047 236.875 12.418 c 237.227 12.785 237.398 
13.344 237.398 14.09 c 237.398 14.625 l 237.18 14.234 236.895 13.945 
236.547 13.754 c 236.199 13.562 235.781 13.469 235.297 13.469 c 234.492 
13.469 233.844 13.773 233.352 14.387 c 232.859 15 232.613 15.812 
232.613 16.828 c 232.613 17.84 232.859 18.656 233.352 19.266 c 233.844 
19.883 234.492 20.188 235.297 20.188 c 235.781 20.188 236.199 20.094 
236.547 19.902 c 236.895 19.711 237.18 19.422 237.398 19.035 c 237.398 
20.031 l 238.477 20.031 l h
238.477 14.281 m f
247.836 22.586 m 247.836 21.688 l 246.805 21.688 l 246.418 21.688 
246.148 21.609 246 21.453 c 245.848 21.297 245.773 21.016 245.773 
20.609 c 245.773 20.031 l 247.551 20.031 l 247.551 19.191 l 245.773 
19.191 l 245.773 13.469 l 244.691 13.469 l 244.691 19.191 l 243.66 
19.191 l 243.66 20.031 l 244.691 20.031 l 244.691 20.488 l 244.691 
21.219 244.859 21.75 245.199 22.082 c 245.539 22.418 246.078 22.586 
246.816 22.586 c h
247.836 22.586 m f
251.281 19.273 m 250.703 19.273 250.246 19.051 249.91 18.598 c 249.574 
18.148 249.406 17.527 249.406 16.742 c 249.406 15.957 249.574 15.34 
249.906 14.891 c 250.242 14.438 250.699 14.211 251.281 14.211 c 251.855 
14.211 252.312 14.438 252.645 14.891 c 252.98 15.344 253.148 15.961 
253.148 16.742 c 253.148 17.52 252.98 18.137 252.645 18.594 c 252.312 
19.047 251.855 19.273 251.281 19.273 c 251.281 20.188 m 252.219 20.188 
252.953 19.883 253.488 19.273 c 254.027 18.664 254.293 17.82 254.293 
16.742 c 254.293 15.672 254.027 14.828 253.488 14.215 c 252.953 13.602 
252.219 13.297 251.281 13.297 c 250.34 13.297 249.602 13.602 249.07 
14.215 c 248.535 14.828 248.27 15.672 248.27 16.742 c 248.27 17.82 
248.535 18.664 249.07 19.273 c 249.602 19.883 250.34 20.188 251.281 
20.188 c f
259.883 19.023 m 259.762 19.094 259.629 19.145 259.488 19.176 c 259.344 
19.211 259.188 19.227 259.016 19.227 c 258.406 19.227 257.938 19.031 
257.613 18.633 c 257.285 18.238 257.121 17.668 257.121 16.926 c 257.121 
13.469 l 256.039 13.469 l 256.039 20.031 l 257.121 20.031 l 257.121 
19.012 l 257.352 19.41 257.645 19.703 258.008 19.898 c 258.371 20.09 
258.812 20.188 259.332 20.188 c 259.406 20.188 259.488 20.184 259.578 
20.172 c 259.668 20.164 259.77 20.148 259.879 20.129 c h
259.883 19.023 m f
265.848 22.219 m 265.848 18.965 l 264.852 18.965 l 264.852 22.219 l h
268.062 22.219 m 268.062 18.965 l 267.066 18.965 l 267.066 22.219 l h
268.062 22.219 m f
273.32 21.051 m 271.711 16.695 l 274.93 16.695 l h
272.648 22.219 m 273.992 22.219 l 277.328 13.469 l 276.098 13.469 l 
275.301 15.711 l 271.355 15.711 l 270.559 13.469 l 269.312 13.469 l h
272.648 22.219 m f
282.664 19.035 m 282.664 22.586 l 283.742 22.586 l 283.742 13.469 l 
282.664 13.469 l 282.664 14.453 l 282.438 14.062 282.152 13.773 281.805 
13.582 c 281.461 13.391 281.047 13.297 280.562 13.297 c 279.77 13.297 
279.125 13.613 278.625 14.246 c 278.125 14.879 277.879 15.711 277.879 
16.742 c 277.879 17.773 278.125 18.605 278.625 19.238 c 279.125 19.871 
279.77 20.188 280.562 20.188 c 281.047 20.188 281.461 20.094 281.805 
19.902 c 282.152 19.715 282.438 19.426 282.664 19.035 c 278.992 16.742 
m 278.992 15.953 279.156 15.328 279.48 14.879 c 279.809 14.426 280.254 
14.203 280.824 14.203 c 281.395 14.203 281.844 14.426 282.172 14.879 c 
282.5 15.328 282.664 15.953 282.664 16.742 c 282.664 17.535 282.5 
18.156 282.172 18.609 c 281.844 19.062 281.395 19.285 280.824 19.285 c 
280.254 19.285 279.809 19.062 279.48 18.609 c 279.156 18.156 278.992 
17.535 278.992 16.742 c f
290.281 19.035 m 290.281 22.586 l 291.359 22.586 l 291.359 13.469 l 
290.281 13.469 l 290.281 14.453 l 290.055 14.062 289.77 13.773 289.422 
13.582 c 289.078 13.391 288.664 13.297 288.18 13.297 c 287.387 13.297 
286.742 13.613 286.242 14.246 c 285.742 14.879 285.496 15.711 285.496 
16.742 c 285.496 17.773 285.742 18.605 286.242 19.238 c 286.742 19.871 
287.387 20.188 288.18 20.188 c 288.664 20.188 289.078 20.094 289.422 
19.902 c 289.77 19.715 290.055 19.426 290.281 19.035 c 286.609 16.742 m 
286.609 15.953 286.773 15.328 287.098 14.879 c 287.426 14.426 287.871 
14.203 288.441 14.203 c 289.012 14.203 289.461 14.426 289.789 14.879 c 
290.117 15.328 290.281 15.953 290.281 16.742 c 290.281 17.535 290.117 
18.156 289.789 18.609 c 289.461 19.062 289.012 19.285 288.441 19.285 c 
287.871 19.285 287.426 19.062 287.098 18.609 c 286.773 18.156 286.609 
17.535 286.609 16.742 c f
297.441 22.219 m 302.973 22.219 l 302.973 21.219 l 298.625 21.219 l 
298.625 18.629 l 302.793 18.629 l 302.793 17.633 l 298.625 17.633 l 
298.625 14.465 l 303.078 14.465 l 303.078 13.469 l 297.441 13.469 l h
297.441 22.219 m f
310.434 20.031 m 308.059 16.836 l 310.555 13.469 l 309.285 13.469 l 
307.375 16.047 l 305.465 13.469 l 304.191 13.469 l 306.742 16.902 l 
304.41 20.031 l 305.68 20.031 l 307.422 17.691 l 309.16 20.031 l h
310.434 20.031 m f
313.121 14.453 m 313.121 10.973 l 312.039 10.973 l 312.039 20.031 l 
313.121 20.031 l 313.121 19.035 l 313.348 19.426 313.637 19.715 313.98 
19.902 c 314.328 20.094 314.738 20.188 315.219 20.188 c 316.016 20.188 
316.664 19.871 317.164 19.238 c 317.66 18.605 317.91 17.773 317.91 
16.742 c 317.91 15.711 317.66 14.879 317.164 14.246 c 316.664 13.613 
316.016 13.297 315.219 13.297 c 314.738 13.297 314.328 13.391 313.98 
13.582 c 313.637 13.773 313.348 14.062 313.121 14.453 c 316.793 16.742 
m 316.793 17.535 316.629 18.156 316.301 18.609 c 315.977 19.062 315.527 
19.285 314.957 19.285 c 314.387 19.285 313.938 19.062 313.609 18.609 c 
313.285 18.156 313.121 17.535 313.121 16.742 c 313.121 15.953 313.285 
15.328 313.609 14.879 c 313.938 14.426 314.387 14.203 314.957 14.203 c 
315.527 14.203 315.977 14.426 316.301 14.879 c 316.629 15.328 316.793 
15.953 316.793 16.742 c f
319.695 20.031 m 320.773 20.031 l 320.773 13.469 l 319.695 13.469 l h
319.695 22.586 m 320.773 22.586 l 320.773 21.219 l 319.695 21.219 l h
319.695 22.586 m f
326.832 19.023 m 326.711 19.094 326.578 19.145 326.438 19.176 c 326.293 
19.211 326.137 19.227 325.965 19.227 c 325.355 19.227 324.887 19.031 
324.562 18.633 c 324.234 18.238 324.074 17.668 324.074 16.926 c 324.074 
13.469 l 322.988 13.469 l 322.988 20.031 l 324.074 20.031 l 324.074 
19.012 l 324.301 19.41 324.594 19.703 324.957 19.898 c 325.32 20.09 
325.762 20.188 326.285 20.188 c 326.355 20.188 326.438 20.184 326.527 
20.172 c 326.617 20.164 326.719 20.148 326.828 20.129 c h
326.832 19.023 m f
333.309 17.02 m 333.309 16.492 l 328.352 16.492 l 328.398 15.75 328.621 
15.184 329.023 14.797 c 329.422 14.406 329.98 14.211 330.695 14.211 c 
331.109 14.211 331.508 14.262 331.898 14.363 c 332.285 14.465 332.672 
14.617 333.055 14.82 c 333.055 13.801 l 332.668 13.637 332.273 13.512 
331.867 13.426 c 331.461 13.34 331.047 13.297 330.629 13.297 c 329.582 
13.297 328.754 13.602 328.141 14.211 c 327.531 14.82 327.227 15.645 
327.227 16.688 c 327.227 17.758 327.516 18.609 328.094 19.242 c 328.676 
19.871 329.457 20.188 330.441 20.188 c 331.324 20.188 332.023 19.902 
332.535 19.336 c 333.051 18.766 333.309 17.996 333.309 17.02 c 332.23 
17.336 m 332.223 17.926 332.059 18.395 331.734 18.746 c 331.414 19.098 
330.984 19.273 330.453 19.273 c 329.852 19.273 329.371 19.105 329.012 
18.766 c 328.648 18.426 328.441 17.945 328.387 17.328 c h
332.23 17.336 m f
339.262 19.836 m 339.262 18.816 l 338.957 18.973 338.641 19.09 338.312 
19.168 c 337.984 19.246 337.645 19.285 337.293 19.285 c 336.758 19.285 
336.355 19.203 336.086 19.039 c 335.82 18.875 335.688 18.629 335.688 
18.301 c 335.688 18.051 335.781 17.855 335.973 17.715 c 336.164 17.57 
336.551 17.434 337.129 17.305 c 337.496 17.223 l 338.262 17.059 338.805 
16.828 339.129 16.531 c 339.453 16.23 339.613 15.812 339.613 15.281 c 
339.613 14.668 339.371 14.188 338.891 13.828 c 338.406 13.477 337.742 
13.297 336.898 13.297 c 336.547 13.297 336.184 13.332 335.801 13.402 c 
335.418 13.469 335.02 13.57 334.598 13.707 c 334.598 14.82 l 334.996 
14.613 335.387 14.457 335.773 14.355 c 336.16 14.254 336.543 14.203 
336.922 14.203 c 337.43 14.203 337.82 14.289 338.094 14.461 c 338.367 
14.637 338.504 14.879 338.504 15.195 c 338.504 15.488 338.406 15.715 
338.207 15.871 c 338.012 16.027 337.578 16.176 336.91 16.32 c 336.535 
16.41 l 335.867 16.551 335.387 16.766 335.09 17.059 c 334.793 17.348 
334.645 17.746 334.645 18.254 c 334.645 18.871 334.863 19.348 335.301 
19.684 c 335.738 20.02 336.359 20.188 337.164 20.188 c 337.562 20.188 
337.934 20.16 338.285 20.102 c 338.641 20.043 338.965 19.953 339.262 
19.836 c f
350.598 17.43 m 350.598 13.469 l 349.52 13.469 l 349.52 17.395 l 349.52 
18.016 349.398 18.48 349.156 18.789 c 348.914 19.098 348.551 19.25 
348.066 19.25 c 347.484 19.25 347.027 19.066 346.691 18.695 c 346.355 
18.324 346.188 17.816 346.188 17.176 c 346.188 13.469 l 345.102 13.469 
l 345.102 22.586 l 346.188 22.586 l 346.188 19.012 l 346.445 19.406 
346.75 19.699 347.098 19.895 c 347.445 20.09 347.852 20.188 348.309 
20.188 c 349.062 20.188 349.633 19.953 350.02 19.488 c 350.406 19.023 
350.598 18.336 350.598 17.43 c f
358.363 17.02 m 358.363 16.492 l 353.406 16.492 l 353.453 15.75 353.676 
15.184 354.078 14.797 c 354.477 14.406 355.035 14.211 355.75 14.211 c 
356.164 14.211 356.562 14.262 356.953 14.363 c 357.34 14.465 357.727 
14.617 358.109 14.82 c 358.109 13.801 l 357.723 13.637 357.328 13.512 
356.922 13.426 c 356.516 13.34 356.102 13.297 355.684 13.297 c 354.637 
13.297 353.809 13.602 353.195 14.211 c 352.586 14.82 352.281 15.645 
352.281 16.688 c 352.281 17.758 352.57 18.609 353.148 19.242 c 353.73 
19.871 354.512 20.188 355.496 20.188 c 356.379 20.188 357.078 19.902 
357.59 19.336 c 358.105 18.766 358.363 17.996 358.363 17.02 c 357.285 
17.336 m 357.277 17.926 357.113 18.395 356.789 18.746 c 356.469 19.098 
356.039 19.273 355.508 19.273 c 354.906 19.273 354.426 19.105 354.066 
18.766 c 353.703 18.426 353.496 17.945 353.441 17.328 c h
357.285 17.336 m f
363.113 16.766 m 362.242 16.766 361.641 16.668 361.305 16.469 c 360.969 
16.27 360.801 15.93 360.801 15.449 c 360.801 15.066 360.926 14.762 
361.176 14.535 c 361.43 14.312 361.773 14.203 362.207 14.203 c 362.805 
14.203 363.285 14.414 363.645 14.836 c 364.008 15.262 364.188 15.824 
364.188 16.527 c 364.188 16.766 l h
365.266 17.211 m 365.266 13.469 l 364.188 13.469 l 364.188 14.465 l 
363.941 14.066 363.633 13.773 363.266 13.582 c 362.898 13.391 362.449 
13.297 361.918 13.297 c 361.246 13.297 360.711 13.484 360.316 13.863 c 
359.918 14.242 359.723 14.746 359.723 15.379 c 359.723 16.117 359.969 
16.672 360.461 17.047 c 360.957 17.422 361.695 17.609 362.676 17.609 c 
364.188 17.609 l 364.188 17.719 l 364.188 18.215 364.023 18.598 363.699 
18.867 c 363.371 19.141 362.914 19.273 362.324 19.273 c 361.949 19.273 
361.582 19.23 361.227 19.141 c 360.871 19.051 360.531 18.914 360.203 
18.734 c 360.203 19.734 l 360.598 19.887 360.98 20 361.352 20.074 c 
361.723 20.148 362.082 20.188 362.434 20.188 c 363.383 20.188 364.094 
19.941 364.562 19.449 c 365.031 18.957 365.266 18.211 365.266 17.211 c f
371.805 19.035 m 371.805 22.586 l 372.883 22.586 l 372.883 13.469 l 
371.805 13.469 l 371.805 14.453 l 371.578 14.062 371.289 13.773 370.945 
13.582 c 370.598 13.391 370.184 13.297 369.699 13.297 c 368.906 13.297 
368.262 13.613 367.762 14.246 c 367.266 14.879 367.016 15.711 367.016 
16.742 c 367.016 17.773 367.266 18.605 367.762 19.238 c 368.262 19.871 
368.906 20.188 369.699 20.188 c 370.184 20.188 370.598 20.094 370.945 
19.902 c 371.289 19.715 371.578 19.426 371.805 19.035 c 368.129 16.742 
m 368.129 15.953 368.293 15.328 368.621 14.879 c 368.945 14.426 369.395 
14.203 369.965 14.203 c 370.535 14.203 370.984 14.426 371.309 14.879 c 
371.641 15.328 371.805 15.953 371.805 16.742 c 371.805 17.535 371.641 
18.156 371.309 18.609 c 370.984 19.062 370.535 19.285 369.965 19.285 c 
369.395 19.285 368.945 19.062 368.621 18.609 c 368.293 18.156 368.129 
17.535 368.129 16.742 c f
380.715 17.02 m 380.715 16.492 l 375.758 16.492 l 375.805 15.75 376.031 
15.184 376.43 14.797 c 376.828 14.406 377.387 14.211 378.102 14.211 c 
378.516 14.211 378.918 14.262 379.305 14.363 c 379.695 14.465 380.082 
14.617 380.465 14.82 c 380.465 13.801 l 380.078 13.637 379.68 13.512 
379.273 13.426 c 378.867 13.34 378.457 13.297 378.039 13.297 c 376.992 
13.297 376.16 13.602 375.551 14.211 c 374.938 14.82 374.633 15.645 
374.633 16.688 c 374.633 17.758 374.922 18.609 375.504 19.242 c 376.082 
19.871 376.867 20.188 377.852 20.188 c 378.734 20.188 379.43 19.902 
379.945 19.336 c 380.461 18.766 380.715 17.996 380.715 17.02 c 379.637 
17.336 m 379.629 17.926 379.465 18.395 379.145 18.746 c 378.82 19.098 
378.395 19.273 377.863 19.273 c 377.262 19.273 376.781 19.105 376.418 
18.766 c 376.059 18.426 375.848 17.945 375.793 17.328 c h
379.637 17.336 m f
386.289 19.023 m 386.168 19.094 386.035 19.145 385.891 19.176 c 385.75 
19.211 385.594 19.227 385.422 19.227 c 384.812 19.227 384.344 19.031 
384.016 18.633 c 383.691 18.238 383.527 17.668 383.527 16.926 c 383.527 
13.469 l 382.445 13.469 l 382.445 20.031 l 383.527 20.031 l 383.527 
19.012 l 383.754 19.41 384.051 19.703 384.414 19.898 c 384.777 20.09 
385.219 20.188 385.738 20.188 c 385.812 20.188 385.895 20.184 385.984 
20.172 c 386.074 20.164 386.172 20.148 386.281 20.129 c h
386.289 19.023 m f
391.602 19.836 m 391.602 18.816 l 391.297 18.973 390.98 19.09 390.652 
19.168 c 390.324 19.246 389.984 19.285 389.633 19.285 c 389.098 19.285 
388.695 19.203 388.43 19.039 c 388.16 18.875 388.027 18.629 388.027 
18.301 c 388.027 18.051 388.125 17.855 388.316 17.715 c 388.508 17.57 
388.891 17.434 389.469 17.305 c 389.84 17.223 l 390.605 17.059 391.148 
16.828 391.469 16.531 c 391.793 16.23 391.953 15.812 391.953 15.281 c 
391.953 14.668 391.715 14.188 391.23 13.828 c 390.746 13.477 390.086 
13.297 389.242 13.297 c 388.891 13.297 388.523 13.332 388.141 13.402 c 
387.762 13.469 387.359 13.57 386.938 13.707 c 386.938 14.82 l 387.336 
14.613 387.73 14.457 388.117 14.355 c 388.504 14.254 388.887 14.203 
389.266 14.203 c 389.773 14.203 390.164 14.289 390.434 14.461 c 390.711 
14.637 390.848 14.879 390.848 15.195 c 390.848 15.488 390.746 15.715 
390.551 15.871 c 390.355 16.027 389.922 16.176 389.254 16.32 c 388.879 
16.41 l 388.211 16.551 387.727 16.766 387.43 17.059 c 387.133 17.348 
386.984 17.746 386.984 18.254 c 386.984 18.871 387.203 19.348 387.641 
19.684 c 388.078 20.02 388.699 20.188 389.504 20.188 c 389.902 20.188 
390.277 20.16 390.629 20.102 c 390.98 20.043 391.305 19.953 391.602 
19.836 c f
394.691 22.219 m 394.691 18.965 l 393.695 18.965 l 393.695 22.219 l h
396.906 22.219 m 396.906 18.965 l 395.91 18.965 l 395.91 22.219 l h
396.906 22.219 m f
72 43.199 m 76 43.199 l f
72 43.199 m 76 43.199 l S
518.398 43.199 m 514.398 43.199 l f
518.398 43.199 m 514.398 43.199 l S
65.766 47.859 m 65.156 47.859 64.699 47.559 64.391 46.957 c 64.086 
46.359 63.934 45.457 63.934 44.254 c 63.934 43.055 64.086 42.156 64.391 
41.555 c 64.699 40.957 65.156 40.656 65.766 40.656 c 66.379 40.656 
66.84 40.957 67.148 41.555 c 67.453 42.156 67.609 43.055 67.609 44.254 
c 67.609 45.457 67.453 46.359 67.148 46.957 c 66.84 47.559 66.379 
47.859 65.766 47.859 c 65.766 48.797 m 66.75 48.797 67.496 48.406 
68.016 47.629 c 68.531 46.855 68.793 45.73 68.793 44.254 c 68.793 
42.781 68.531 41.656 68.016 40.879 c 67.496 40.105 66.75 39.719 65.766 
39.719 c 64.785 39.719 64.039 40.105 63.52 40.879 c 63.004 41.656 
62.746 42.781 62.746 44.254 c 62.746 45.73 63.004 46.855 63.52 47.629 c 
64.039 48.406 64.785 48.797 65.766 48.797 c f
72 112.32 m 76 112.32 l f
72 112.32 m 76 112.32 l S
518.398 112.32 m 514.398 112.32 l f
518.398 112.32 m 514.398 112.32 l S
41.062 110.004 m 42.996 110.004 l 42.996 116.68 l 40.895 116.258 l 
40.895 117.336 l 42.984 117.758 l 44.168 117.758 l 44.168 110.004 l 
46.102 110.004 l 46.102 109.008 l 41.062 109.008 l h
41.062 110.004 m f
51.023 116.977 m 50.414 116.977 49.957 116.676 49.648 116.078 c 49.344 
115.48 49.191 114.578 49.191 113.375 c 49.191 112.176 49.344 111.277 
49.648 110.676 c 49.957 110.074 50.414 109.777 51.023 109.777 c 51.637 
109.777 52.098 110.074 52.402 110.676 c 52.711 111.277 52.863 112.176 
52.863 113.375 c 52.863 114.578 52.711 115.48 52.402 116.078 c 52.098 
116.676 51.637 116.977 51.023 116.977 c 51.023 117.914 m 52.004 117.914 
52.754 117.527 53.273 116.75 c 53.789 115.977 54.047 114.852 54.047 
113.375 c 54.047 111.902 53.789 110.777 53.273 110 c 52.754 109.227 
52.004 108.84 51.023 108.84 c 50.043 108.84 49.293 109.227 48.777 110 c 
48.258 110.777 48 111.902 48 113.375 c 48 114.852 48.258 115.977 48.777 
116.75 c 49.293 117.527 50.043 117.914 51.023 117.914 c f
58.66 116.977 m 58.051 116.977 57.59 116.676 57.285 116.078 c 56.977 
115.48 56.824 114.578 56.824 113.375 c 56.824 112.176 56.977 111.277 
57.285 110.676 c 57.59 110.074 58.051 109.777 58.66 109.777 c 59.273 
109.777 59.73 110.074 60.039 110.676 c 60.348 111.277 60.5 112.176 60.5 
113.375 c 60.5 114.578 60.348 115.48 60.039 116.078 c 59.73 116.676 
59.273 116.977 58.66 116.977 c 58.66 117.914 m 59.641 117.914 60.391 
117.527 60.906 116.75 c 61.426 115.977 61.684 114.852 61.684 113.375 c 
61.684 111.902 61.426 110.777 60.906 110 c 60.391 109.227 59.641 108.84 
58.66 108.84 c 57.68 108.84 56.93 109.227 56.41 110 c 55.895 110.777 
55.637 111.902 55.637 113.375 c 55.637 114.852 55.895 115.977 56.41 
116.75 c 56.93 117.527 57.68 117.914 58.66 117.914 c f
66.293 116.977 m 65.684 116.977 65.227 116.676 64.918 116.078 c 64.613 
115.48 64.461 114.578 64.461 113.375 c 64.461 112.176 64.613 111.277 
64.918 110.676 c 65.227 110.074 65.684 109.777 66.293 109.777 c 66.906 
109.777 67.367 110.074 67.672 110.676 c 67.98 111.277 68.133 112.176 
68.133 113.375 c 68.133 114.578 67.98 115.48 67.672 116.078 c 67.367 
116.676 66.906 116.977 66.293 116.977 c 66.293 117.914 m 67.273 117.914 
68.023 117.527 68.543 116.75 c 69.059 115.977 69.316 114.852 69.316 
113.375 c 69.316 111.902 69.059 110.777 68.543 110 c 68.023 109.227 
67.273 108.84 66.293 108.84 c 65.312 108.84 64.562 109.227 64.047 110 c 
63.531 110.777 63.27 111.902 63.27 113.375 c 63.27 114.852 63.531 
115.977 64.047 116.75 c 64.562 117.527 65.312 117.914 66.293 117.914 c f
72 181.441 m 76 181.441 l f
72 181.441 m 76 181.441 l S
518.398 181.441 m 514.398 181.441 l f
518.398 181.441 m 514.398 181.441 l S
41.438 179.125 m 45.57 179.125 l 45.57 178.129 l 40.016 178.129 l 
40.016 179.125 l 40.465 179.59 41.078 180.215 41.852 180.996 c 42.629 
181.781 43.113 182.285 43.312 182.512 c 43.691 182.938 43.957 183.297 
44.105 183.594 c 44.258 183.887 44.332 184.176 44.332 184.461 c 44.332 
184.926 44.172 185.305 43.844 185.598 c 43.52 185.891 43.094 186.039 
42.57 186.039 c 42.199 186.039 41.805 185.977 41.395 185.848 c 40.984 
185.719 40.543 185.523 40.074 185.258 c 40.074 186.457 l 40.551 186.648 
40.996 186.793 41.41 186.891 c 41.824 186.984 42.203 187.035 42.547 
187.035 c 43.453 187.035 44.176 186.809 44.715 186.355 c 45.254 185.902 
45.523 185.297 45.523 184.539 c 45.523 184.18 45.453 183.84 45.32 
183.516 c 45.188 183.195 44.941 182.816 44.586 182.379 c 44.488 182.266 
44.176 181.938 43.652 181.395 c 43.129 180.855 42.391 180.098 41.438 
179.125 c f
50.586 186.098 m 49.977 186.098 49.52 185.797 49.211 185.199 c 48.902 
184.598 48.75 183.699 48.75 182.492 c 48.75 181.297 48.902 180.395 
49.211 179.797 c 49.52 179.195 49.977 178.895 50.586 178.895 c 51.199 
178.895 51.66 179.195 51.965 179.797 c 52.273 180.395 52.426 181.297 
52.426 182.492 c 52.426 183.699 52.273 184.598 51.965 185.199 c 51.66 
185.797 51.199 186.098 50.586 186.098 c 50.586 187.035 m 51.566 187.035 
52.316 186.648 52.832 185.871 c 53.352 185.094 53.609 183.969 53.609 
182.492 c 53.609 181.02 53.352 179.898 52.832 179.121 c 52.316 178.344 
51.566 177.957 50.586 177.957 c 49.605 177.957 48.855 178.344 48.34 
179.121 c 47.82 179.898 47.562 181.02 47.562 182.492 c 47.562 183.969 
47.82 185.094 48.34 185.871 c 48.855 186.648 49.605 187.035 50.586 
187.035 c f
58.219 186.098 m 57.609 186.098 57.152 185.797 56.844 185.199 c 56.539 
184.598 56.387 183.699 56.387 182.492 c 56.387 181.297 56.539 180.395 
56.844 179.797 c 57.152 179.195 57.609 178.895 58.219 178.895 c 58.832 
178.895 59.293 179.195 59.598 179.797 c 59.906 180.395 60.062 181.297 
60.062 182.492 c 60.062 183.699 59.906 184.598 59.598 185.199 c 59.293 
185.797 58.832 186.098 58.219 186.098 c 58.219 187.035 m 59.199 187.035 
59.949 186.648 60.469 185.871 c 60.984 185.094 61.242 183.969 61.242 
182.492 c 61.242 181.02 60.984 179.898 60.469 179.121 c 59.949 178.344 
59.199 177.957 58.219 177.957 c 57.238 177.957 56.492 178.344 55.973 
179.121 c 55.457 179.898 55.195 181.02 55.195 182.492 c 55.195 183.969 
55.457 185.094 55.973 185.871 c 56.492 186.648 57.238 187.035 58.219 
187.035 c f
65.855 186.098 m 65.246 186.098 64.789 185.797 64.48 185.199 c 64.172 
184.598 64.02 183.699 64.02 182.492 c 64.02 181.297 64.172 180.395 
64.48 179.797 c 64.789 179.195 65.246 178.895 65.855 178.895 c 66.469 
178.895 66.93 179.195 67.234 179.797 c 67.543 180.395 67.695 181.297 
67.695 182.492 c 67.695 183.699 67.543 184.598 67.234 185.199 c 66.93 
185.797 66.469 186.098 65.855 186.098 c 65.855 187.035 m 66.836 187.035 
67.586 186.648 68.102 185.871 c 68.621 185.094 68.879 183.969 68.879 
182.492 c 68.879 181.02 68.621 179.898 68.102 179.121 c 67.586 178.344 
66.836 177.957 65.855 177.957 c 64.875 177.957 64.125 178.344 63.609 
179.121 c 63.09 179.898 62.832 181.02 62.832 182.492 c 62.832 183.969 
63.09 185.094 63.609 185.871 c 64.125 186.648 64.875 187.035 65.855 
187.035 c f
72 250.559 m 76 250.559 l f
72 250.559 m 76 250.559 l S
518.398 250.559 m 514.398 250.559 l f
518.398 250.559 m 514.398 250.559 l S
44.043 251.965 m 44.609 251.844 45.051 251.594 45.367 251.207 c 45.688 
250.828 45.844 250.355 45.844 249.793 c 45.844 248.93 45.547 248.262 
44.953 247.785 c 44.359 247.312 43.516 247.078 42.422 247.078 c 42.059 
247.078 41.68 247.113 41.289 247.188 c 40.902 247.258 40.5 247.367 
40.086 247.512 c 40.086 248.656 l 40.414 248.465 40.773 248.32 41.164 
248.223 c 41.555 248.125 41.965 248.074 42.391 248.074 c 43.129 248.074 
43.695 248.223 44.086 248.516 c 44.473 248.809 44.668 249.234 44.668 
249.793 c 44.668 250.309 44.488 250.711 44.125 251 c 43.766 251.293 
43.262 251.438 42.617 251.438 c 41.598 251.438 l 41.598 252.41 l 42.664 
252.41 l 43.246 252.41 43.691 252.527 44 252.758 c 44.309 252.992 
44.465 253.328 44.465 253.766 c 44.465 254.215 44.305 254.559 43.984 
254.797 c 43.668 255.039 43.211 255.16 42.617 255.16 c 42.293 255.16 
41.945 255.125 41.574 255.051 c 41.203 254.984 40.793 254.875 40.348 
254.727 c 40.348 255.781 l 40.801 255.906 41.219 256 41.613 256.062 c 
42.004 256.125 42.375 256.156 42.723 256.156 c 43.621 256.156 44.332 
255.949 44.855 255.543 c 45.379 255.133 45.641 254.582 45.641 253.887 c 
45.641 253.402 45.5 252.992 45.223 252.66 c 44.945 252.328 44.551 
252.094 44.043 251.965 c f
50.621 255.219 m 50.012 255.219 49.555 254.918 49.246 254.316 c 48.941 
253.719 48.785 252.816 48.785 251.613 c 48.785 250.414 48.941 249.516 
49.246 248.914 c 49.555 248.316 50.012 248.016 50.621 248.016 c 51.234 
248.016 51.695 248.316 52 248.914 c 52.309 249.516 52.461 250.414 
52.461 251.613 c 52.461 252.816 52.309 253.719 52 254.316 c 51.695 
254.918 51.234 255.219 50.621 255.219 c 50.621 256.156 m 51.602 256.156 
52.352 255.766 52.867 254.992 c 53.387 254.215 53.645 253.09 53.645 
251.613 c 53.645 250.141 53.387 249.016 52.867 248.242 c 52.352 247.465 
51.602 247.078 50.621 247.078 c 49.641 247.078 48.891 247.465 48.375 
248.242 c 47.855 249.016 47.598 250.141 47.598 251.613 c 47.598 253.09 
47.855 254.215 48.375 254.992 c 48.891 255.766 49.641 256.156 50.621 
256.156 c f
58.254 255.219 m 57.645 255.219 57.188 254.918 56.879 254.316 c 56.574 
253.719 56.422 252.816 56.422 251.613 c 56.422 250.414 56.574 249.516 
56.879 248.914 c 57.188 248.316 57.645 248.016 58.254 248.016 c 58.867 
248.016 59.328 248.316 59.637 248.914 c 59.941 249.516 60.098 250.414 
60.098 251.613 c 60.098 252.816 59.941 253.719 59.637 254.316 c 59.328 
254.918 58.867 255.219 58.254 255.219 c 58.254 256.156 m 59.238 256.156 
59.984 255.766 60.504 254.992 c 61.02 254.215 61.281 253.09 61.281 
251.613 c 61.281 250.141 61.02 249.016 60.504 248.242 c 59.984 247.465 
59.238 247.078 58.254 247.078 c 57.273 247.078 56.527 247.465 56.008 
248.242 c 55.492 249.016 55.234 250.141 55.234 251.613 c 55.234 253.09 
55.492 254.215 56.008 254.992 c 56.527 255.766 57.273 256.156 58.254 
256.156 c f
65.891 255.219 m 65.281 255.219 64.824 254.918 64.516 254.316 c 64.211 
253.719 64.055 252.816 64.055 251.613 c 64.055 250.414 64.211 249.516 
64.516 248.914 c 64.824 248.316 65.281 248.016 65.891 248.016 c 66.504 
248.016 66.965 248.316 67.27 248.914 c 67.578 249.516 67.73 250.414 
67.73 251.613 c 67.73 252.816 67.578 253.719 67.27 254.316 c 66.965 
254.918 66.504 255.219 65.891 255.219 c 65.891 256.156 m 66.871 256.156 
67.621 255.766 68.137 254.992 c 68.656 254.215 68.914 253.09 68.914 
251.613 c 68.914 250.141 68.656 249.016 68.137 248.242 c 67.621 247.465 
66.871 247.078 65.891 247.078 c 64.91 247.078 64.16 247.465 63.645 
248.242 c 63.125 249.016 62.867 250.141 62.867 251.613 c 62.867 253.09 
63.125 254.215 63.645 254.992 c 64.16 255.766 64.91 256.156 65.891 
256.156 c f
72 319.68 m 76 319.68 l f
72 319.68 m 76 319.68 l S
518.398 319.68 m 514.398 319.68 l f
518.398 319.68 m 514.398 319.68 l S
43.379 324.086 m 40.391 319.414 l 43.379 319.414 l h
43.066 325.117 m 44.559 325.117 l 44.559 319.414 l 45.805 319.414 l 
45.805 318.43 l 44.559 318.43 l 44.559 316.367 l 43.379 316.367 l 
43.379 318.43 l 39.43 318.43 l 39.43 319.574 l h
43.066 325.117 m f
50.293 324.336 m 49.684 324.336 49.227 324.039 48.918 323.438 c 48.613 
322.84 48.457 321.938 48.457 320.734 c 48.457 319.535 48.613 318.637 
48.918 318.035 c 49.227 317.438 49.684 317.137 50.293 317.137 c 50.906 
317.137 51.367 317.438 51.672 318.035 c 51.98 318.637 52.133 319.535 
52.133 320.734 c 52.133 321.938 51.98 322.84 51.672 323.438 c 51.367 
324.039 50.906 324.336 50.293 324.336 c 50.293 325.273 m 51.273 325.273 
52.023 324.887 52.539 324.109 c 53.059 323.336 53.316 322.211 53.316 
320.734 c 53.316 319.262 53.059 318.137 52.539 317.359 c 52.023 316.586 
51.273 316.199 50.293 316.199 c 49.312 316.199 48.562 316.586 48.047 
317.359 c 47.527 318.137 47.27 319.262 47.27 320.734 c 47.27 322.211 
47.527 323.336 48.047 324.109 c 48.562 324.887 49.312 325.273 50.293 
325.273 c f
57.926 324.336 m 57.316 324.336 56.859 324.039 56.551 323.438 c 56.246 
322.84 56.094 321.938 56.094 320.734 c 56.094 319.535 56.246 318.637 
56.551 318.035 c 56.859 317.438 57.316 317.137 57.926 317.137 c 58.539 
317.137 59 317.438 59.309 318.035 c 59.613 318.637 59.77 319.535 59.77 
320.734 c 59.77 321.938 59.613 322.84 59.309 323.438 c 59 324.039 
58.539 324.336 57.926 324.336 c 57.926 325.273 m 58.91 325.273 59.656 
324.887 60.176 324.109 c 60.691 323.336 60.953 322.211 60.953 320.734 c 
60.953 319.262 60.691 318.137 60.176 317.359 c 59.656 316.586 58.91 
316.199 57.926 316.199 c 56.945 316.199 56.199 316.586 55.68 317.359 c 
55.164 318.137 54.906 319.262 54.906 320.734 c 54.906 322.211 55.164 
323.336 55.68 324.109 c 56.199 324.887 56.945 325.273 57.926 325.273 c f
65.562 324.336 m 64.953 324.336 64.496 324.039 64.188 323.438 c 63.883 
322.84 63.727 321.938 63.727 320.734 c 63.727 319.535 63.883 318.637 
64.188 318.035 c 64.496 317.438 64.953 317.137 65.562 317.137 c 66.176 
317.137 66.637 317.438 66.941 318.035 c 67.25 318.637 67.402 319.535 
67.402 320.734 c 67.402 321.938 67.25 322.84 66.941 323.438 c 66.637 
324.039 66.176 324.336 65.562 324.336 c 65.562 325.273 m 66.543 325.273 
67.293 324.887 67.809 324.109 c 68.328 323.336 68.586 322.211 68.586 
320.734 c 68.586 319.262 68.328 318.137 67.809 317.359 c 67.293 316.586 
66.543 316.199 65.562 316.199 c 64.582 316.199 63.832 316.586 63.316 
317.359 c 62.797 318.137 62.539 319.262 62.539 320.734 c 62.539 322.211 
62.797 323.336 63.316 324.109 c 63.832 324.887 64.582 325.273 65.562 
325.273 c f
72 388.801 m 76 388.801 l f
72 388.801 m 76 388.801 l S
518.398 388.801 m 514.398 388.801 l f
518.398 388.801 m 514.398 388.801 l S
40.48 394.238 m 45.125 394.238 l 45.125 393.238 l 41.562 393.238 l 
41.562 391.098 l 41.734 391.156 41.906 391.199 42.078 391.227 c 42.25 
391.258 42.422 391.27 42.594 391.27 c 43.57 391.27 44.344 391.004 
44.914 390.469 c 45.484 389.934 45.77 389.211 45.77 388.297 c 45.77 
387.355 45.477 386.621 44.891 386.102 c 44.305 385.578 43.477 385.316 
42.41 385.316 c 42.043 385.316 41.672 385.348 41.289 385.41 c 40.91 
385.473 40.516 385.566 40.109 385.691 c 40.109 386.883 l 40.461 386.691 
40.824 386.551 41.199 386.457 c 41.574 386.363 41.969 386.316 42.387 
386.316 c 43.062 386.316 43.598 386.492 43.992 386.848 c 44.387 387.203 
44.586 387.688 44.586 388.297 c 44.586 388.906 44.387 389.387 43.992 
389.742 c 43.598 390.098 43.062 390.277 42.387 390.277 c 42.07 390.277 
41.754 390.242 41.441 390.172 c 41.125 390.102 40.805 389.992 40.48 
389.844 c h
40.48 394.238 m f
50.633 393.457 m 50.023 393.457 49.566 393.156 49.258 392.559 c 48.949 
391.957 48.797 391.059 48.797 389.855 c 48.797 388.656 48.949 387.754 
49.258 387.156 c 49.566 386.555 50.023 386.254 50.633 386.254 c 51.246 
386.254 51.707 386.555 52.012 387.156 c 52.32 387.754 52.473 388.656 
52.473 389.855 c 52.473 391.059 52.32 391.957 52.012 392.559 c 51.707 
393.156 51.246 393.457 50.633 393.457 c 50.633 394.395 m 51.613 394.395 
52.363 394.008 52.879 393.23 c 53.398 392.457 53.656 391.328 53.656 
389.855 c 53.656 388.383 53.398 387.258 52.879 386.48 c 52.363 385.707 
51.613 385.316 50.633 385.316 c 49.652 385.316 48.902 385.707 48.387 
386.48 c 47.867 387.258 47.609 388.383 47.609 389.855 c 47.609 391.328 
47.867 392.457 48.387 393.23 c 48.902 394.008 49.652 394.395 50.633 
394.395 c f
58.266 393.457 m 57.656 393.457 57.199 393.156 56.891 392.559 c 56.586 
391.957 56.434 391.059 56.434 389.855 c 56.434 388.656 56.586 387.754 
56.891 387.156 c 57.199 386.555 57.656 386.254 58.266 386.254 c 58.879 
386.254 59.34 386.555 59.645 387.156 c 59.953 387.754 60.109 388.656 
60.109 389.855 c 60.109 391.059 59.953 391.957 59.645 392.559 c 59.34 
393.156 58.879 393.457 58.266 393.457 c 58.266 394.395 m 59.246 394.395 
59.996 394.008 60.516 393.23 c 61.031 392.457 61.289 391.328 61.289 
389.855 c 61.289 388.383 61.031 387.258 60.516 386.48 c 59.996 385.707 
59.246 385.316 58.266 385.316 c 57.285 385.316 56.539 385.707 56.02 
386.48 c 55.504 387.258 55.242 388.383 55.242 389.855 c 55.242 391.328 
55.504 392.457 56.02 393.23 c 56.539 394.008 57.285 394.395 58.266 
394.395 c f
65.902 393.457 m 65.293 393.457 64.836 393.156 64.527 392.559 c 64.219 
391.957 64.066 391.059 64.066 389.855 c 64.066 388.656 64.219 387.754 
64.527 387.156 c 64.836 386.555 65.293 386.254 65.902 386.254 c 66.516 
386.254 66.977 386.555 67.281 387.156 c 67.59 387.754 67.742 388.656 
67.742 389.855 c 67.742 391.059 67.59 391.957 67.281 392.559 c 66.977 
393.156 66.516 393.457 65.902 393.457 c 65.902 394.395 m 66.883 394.395 
67.633 394.008 68.148 393.23 c 68.668 392.457 68.926 391.328 68.926 
389.855 c 68.926 388.383 68.668 387.258 68.148 386.48 c 67.633 385.707 
66.883 385.316 65.902 385.316 c 64.922 385.316 64.172 385.707 63.656 
386.48 c 63.137 387.258 62.879 388.383 62.879 389.855 c 62.879 391.328 
63.137 392.457 63.656 393.23 c 64.172 394.008 64.922 394.395 65.902 
394.395 c f
26.066 158.469 m 26.066 156.766 l 28.027 156.273 l 28.027 157.988 l h
22.734 157.59 m 25.168 156.98 l 25.168 158.691 l 22.734 159.309 l 
22.734 160.246 l 25.168 159.641 l 25.168 161.469 l 26.066 161.469 l 
26.066 159.414 l 28.027 158.934 l 28.027 160.797 l 28.922 160.797 l 
28.922 158.703 l 31.348 158.094 l 31.348 157.156 l 28.922 157.762 l 
28.922 156.043 l 31.348 155.438 l 31.348 154.496 l 28.922 155.105 l 
28.922 153.262 l 28.027 153.262 l 28.027 155.324 l 26.066 155.812 l 
26.066 153.93 l 25.168 153.93 l 25.168 156.043 l 22.734 156.641 l h
22.734 157.59 m f
28.758 167.223 m 24.785 167.223 l 24.785 168.301 l 28.719 168.301 l 
29.34 168.301 29.805 168.422 30.117 168.664 c 30.426 168.906 30.582 
169.27 30.582 169.754 c 30.582 170.336 30.395 170.797 30.023 171.133 c 
29.652 171.473 29.148 171.641 28.504 171.641 c 24.785 171.641 l 24.785 
172.719 l 31.348 172.719 l 31.348 171.641 l 30.34 171.641 l 30.738 
171.379 31.035 171.074 31.227 170.73 c 31.422 170.383 31.52 169.984 
31.52 169.527 c 31.52 168.773 31.285 168.199 30.816 167.809 c 30.348 
167.418 29.66 167.223 28.758 167.223 c f
25.793 178.742 m 25.723 178.621 25.672 178.488 25.641 178.348 c 25.605 
178.203 25.59 178.047 25.59 177.875 c 25.59 177.266 25.785 176.797 
26.184 176.473 c 26.578 176.145 27.148 175.98 27.891 175.98 c 31.348 
175.98 l 31.348 174.898 l 24.785 174.898 l 24.785 175.98 l 25.805 
175.98 l 25.406 176.211 25.109 176.504 24.918 176.867 c 24.727 177.23 
24.629 177.672 24.629 178.191 c 24.629 178.266 24.633 178.348 24.645 
178.438 c 24.652 178.527 24.668 178.629 24.688 178.738 c h
25.793 178.742 m f
22.23 179.875 m 22.23 180.953 l 31.348 180.953 l 31.348 179.875 l h
22.23 179.875 m f
24.98 187.391 m 26 187.391 l 25.844 187.086 25.727 186.77 25.648 
186.441 c 25.57 186.113 25.531 185.773 25.531 185.422 c 25.531 184.887 
25.613 184.484 25.777 184.219 c 25.938 183.949 26.188 183.816 26.516 
183.816 c 26.766 183.816 26.961 183.914 27.102 184.102 c 27.246 184.293 
27.383 184.68 27.512 185.258 c 27.594 185.629 l 27.758 186.395 27.988 
186.938 28.285 187.258 c 28.586 187.582 29 187.742 29.535 187.742 c 
30.148 187.742 30.629 187.5 30.984 187.02 c 31.34 186.535 31.52 185.875 
31.52 185.031 c 31.52 184.68 31.484 184.312 31.414 183.93 c 31.348 
183.551 31.246 183.148 31.109 182.727 c 29.996 182.727 l 30.203 183.125 
30.359 183.52 30.461 183.906 c 30.562 184.289 30.613 184.676 30.613 
185.055 c 30.613 185.562 30.527 185.953 30.355 186.223 c 30.18 186.496 
29.938 186.633 29.621 186.633 c 29.328 186.633 29.102 186.535 28.945 
186.34 c 28.789 186.141 28.641 185.711 28.496 185.039 c 28.406 184.664 
l 28.266 184 28.051 183.516 27.758 183.219 c 27.469 182.922 27.07 
182.773 26.562 182.773 c 25.945 182.773 25.469 182.992 25.133 183.43 c 
24.797 183.867 24.629 184.488 24.629 185.293 c 24.629 185.691 24.656 
186.066 24.715 186.418 c 24.773 186.77 24.859 187.094 24.98 187.391 c f
22.23 196.598 m 23.129 196.598 l 23.129 195.566 l 23.129 195.18 23.207 
194.91 23.363 194.758 c 23.52 194.609 23.801 194.535 24.207 194.535 c 
24.785 194.535 l 24.785 196.309 l 25.625 196.309 l 25.625 194.535 l 
31.348 194.535 l 31.348 193.449 l 25.625 193.449 l 25.625 192.418 l 
24.785 192.418 l 24.785 193.449 l 24.328 193.449 l 23.598 193.449 
23.066 193.621 22.734 193.961 c 22.398 194.301 22.23 194.84 22.23 
195.574 c h
22.23 196.598 m f
25.543 200.039 m 25.543 199.465 25.766 199.008 26.219 198.672 c 26.668 
198.332 27.289 198.164 28.074 198.164 c 28.859 198.164 29.477 198.332 
29.926 198.668 c 30.379 199 30.605 199.461 30.605 200.039 c 30.605 
200.617 30.379 201.07 29.926 201.406 c 29.473 201.742 28.855 201.91 
28.074 201.91 c 27.297 201.91 26.68 201.742 26.223 201.406 c 25.77 
201.07 25.543 200.617 25.543 200.039 c 24.629 200.039 m 24.629 200.977 
24.934 201.715 25.543 202.25 c 26.152 202.785 26.996 203.055 28.074 
203.055 c 29.145 203.055 29.988 202.785 30.602 202.25 c 31.215 201.715 
31.52 200.977 31.52 200.039 c 31.52 199.098 31.215 198.363 30.602 
197.828 c 29.988 197.297 29.145 197.031 28.074 197.031 c 26.996 197.031 
26.152 197.297 25.543 197.828 c 24.934 198.363 24.629 199.098 24.629 
200.039 c f
25.793 208.641 m 25.723 208.52 25.672 208.391 25.641 208.246 c 25.605 
208.105 25.59 207.949 25.59 207.777 c 25.59 207.168 25.785 206.699 
26.184 206.371 c 26.578 206.047 27.148 205.883 27.891 205.883 c 31.348 
205.883 l 31.348 204.797 l 24.785 204.797 l 24.785 205.883 l 25.805 
205.883 l 25.406 206.109 25.109 206.406 24.918 206.766 c 24.727 207.133 
24.629 207.574 24.629 208.094 c 24.629 208.168 24.633 208.25 24.645 
208.34 c 24.652 208.43 24.668 208.527 24.688 208.637 c h
25.793 208.641 m f
27.797 219.203 m 28.324 219.203 l 28.324 214.246 l 29.066 214.293 
29.633 214.516 30.02 214.914 c 30.41 215.316 30.605 215.875 30.605 
216.59 c 30.605 217 30.555 217.402 30.453 217.793 c 30.352 218.18 
30.199 218.566 29.996 218.949 c 31.016 218.949 l 31.18 218.562 31.305 
218.168 31.391 217.762 c 31.477 217.355 31.52 216.941 31.52 216.523 c 
31.52 215.477 31.215 214.648 30.605 214.035 c 29.996 213.426 29.172 
213.121 28.129 213.121 c 27.059 213.121 26.203 213.41 25.574 213.988 c 
24.945 214.57 24.629 215.352 24.629 216.336 c 24.629 217.219 24.914 
217.918 25.48 218.43 c 26.047 218.945 26.82 219.203 27.797 219.203 c 
27.48 218.125 m 26.891 218.117 26.422 217.953 26.07 217.629 c 25.719 
217.305 25.543 216.879 25.543 216.348 c 25.543 215.746 25.711 215.266 
26.051 214.902 c 26.391 214.543 26.871 214.336 27.488 214.281 c h
27.48 218.125 m f
28.051 223.953 m 28.051 223.082 28.148 222.48 28.348 222.145 c 28.547 
221.805 28.887 221.637 29.367 221.637 c 29.75 221.637 30.055 221.766 
30.281 222.016 c 30.504 222.27 30.613 222.613 30.613 223.043 c 30.613 
223.645 30.402 224.125 29.98 224.484 c 29.555 224.848 28.992 225.027 
28.289 225.027 c 28.051 225.027 l h
27.605 226.105 m 31.348 226.105 l 31.348 225.027 l 30.352 225.027 l 
30.75 224.781 31.043 224.473 31.234 224.105 c 31.422 223.738 31.52 
223.289 31.52 222.758 c 31.52 222.086 31.328 221.551 30.953 221.156 c 
30.574 220.758 30.07 220.559 29.438 220.559 c 28.699 220.559 28.145 
220.809 27.77 221.301 c 27.395 221.797 27.207 222.535 27.207 223.512 c 
27.207 225.027 l 27.098 225.027 l 26.602 225.027 26.219 224.863 25.949 
224.535 c 25.676 224.211 25.543 223.754 25.543 223.164 c 25.543 222.789 
25.586 222.422 25.676 222.066 c 25.766 221.711 25.902 221.371 26.082 
221.043 c 25.082 221.043 l 24.93 221.438 24.816 221.816 24.742 222.191 
c 24.668 222.562 24.629 222.922 24.629 223.273 c 24.629 224.223 24.875 
224.934 25.367 225.402 c 25.859 225.871 26.605 226.105 27.605 226.105 c f
25.035 233.047 m 26.047 233.047 l 25.875 232.742 25.75 232.438 25.668 
232.129 c 25.582 231.824 25.543 231.516 25.543 231.203 c 25.543 230.504 
25.762 229.957 26.207 229.57 c 26.648 229.184 27.27 228.992 28.074 
228.992 c 28.875 228.992 29.496 229.184 29.941 229.57 c 30.383 229.957 
30.605 230.504 30.605 231.203 c 30.605 231.516 30.562 231.824 30.477 
232.129 c 30.395 232.438 30.27 232.742 30.098 233.047 c 31.098 233.047 
l 31.238 232.746 31.344 232.434 31.41 232.113 c 31.484 231.789 31.52 
231.449 31.52 231.086 c 31.52 230.094 31.207 229.309 30.586 228.727 c 
29.965 228.145 29.129 227.855 28.074 227.855 c 27.004 227.855 26.16 
228.148 25.547 228.738 c 24.934 229.324 24.629 230.133 24.629 231.156 c 
24.629 231.488 24.664 231.812 24.73 232.125 c 24.797 232.441 24.902 
232.75 25.035 233.047 c f
27.387 240.379 m 31.348 240.379 l 31.348 239.301 l 27.422 239.301 l 
26.801 239.301 26.336 239.18 26.027 238.938 c 25.719 238.695 25.566 
238.332 25.566 237.848 c 25.566 237.266 25.75 236.805 26.121 236.469 c 
26.492 236.133 27 235.965 27.641 235.965 c 31.348 235.965 l 31.348 
234.879 l 22.23 234.879 l 22.23 235.965 l 25.805 235.965 l 25.41 
236.223 25.117 236.527 24.922 236.875 c 24.727 237.227 24.629 237.629 
24.629 238.086 c 24.629 238.84 24.859 239.41 25.328 239.797 c 25.793 
240.184 26.48 240.379 27.387 240.379 c f
25.793 250.145 m 25.723 250.023 25.672 249.891 25.641 249.75 c 25.605 
249.605 25.59 249.449 25.59 249.277 c 25.59 248.668 25.785 248.199 
26.184 247.875 c 26.578 247.547 27.148 247.383 27.891 247.383 c 31.348 
247.383 l 31.348 246.301 l 24.785 246.301 l 24.785 247.383 l 25.805 
247.383 l 25.406 247.613 25.109 247.906 24.918 248.27 c 24.727 248.633 
24.629 249.074 24.629 249.594 c 24.629 249.668 24.633 249.75 24.645 
249.84 c 24.652 249.93 24.668 250.031 24.688 250.141 c h
25.793 250.145 m f
28.051 254.258 m 28.051 253.387 28.148 252.785 28.348 252.449 c 28.547 
252.109 28.887 251.941 29.367 251.941 c 29.75 251.941 30.055 252.07 
30.281 252.32 c 30.504 252.574 30.613 252.918 30.613 253.348 c 30.613 
253.949 30.402 254.43 29.98 254.789 c 29.555 255.152 28.992 255.332 
28.289 255.332 c 28.051 255.332 l h
27.605 256.41 m 31.348 256.41 l 31.348 255.332 l 30.352 255.332 l 30.75 
255.086 31.043 254.777 31.234 254.41 c 31.422 254.043 31.52 253.594 
31.52 253.062 c 31.52 252.391 31.328 251.855 30.953 251.461 c 30.574 
251.062 30.07 250.863 29.438 250.863 c 28.699 250.863 28.145 251.113 
27.77 251.605 c 27.395 252.102 27.207 252.84 27.207 253.816 c 27.207 
255.332 l 27.098 255.332 l 26.602 255.332 26.219 255.168 25.949 254.84 
c 25.676 254.516 25.543 254.059 25.543 253.469 c 25.543 253.094 25.586 
252.727 25.676 252.371 c 25.766 252.016 25.902 251.676 26.082 251.348 c 
25.082 251.348 l 24.93 251.742 24.816 252.121 24.742 252.496 c 24.668 
252.867 24.629 253.227 24.629 253.578 c 24.629 254.527 24.875 255.238 
25.367 255.707 c 25.859 256.176 26.605 256.41 27.605 256.41 c f
22.922 259.695 m 24.785 259.695 l 24.785 261.914 l 25.625 261.914 l 
25.625 259.695 l 29.188 259.695 l 29.723 259.695 30.066 259.77 30.219 
259.914 c 30.371 260.062 30.445 260.359 30.445 260.809 c 30.445 261.914 
l 31.348 261.914 l 31.348 260.809 l 31.348 259.977 31.191 259.402 
30.883 259.086 c 30.57 258.77 30.008 258.613 29.188 258.613 c 25.625 
258.613 l 25.625 257.82 l 24.785 257.82 l 24.785 258.613 l 22.922 
258.613 l h
22.922 259.695 m f
24.785 263.336 m 24.785 264.414 l 31.348 264.414 l 31.348 263.336 l h
22.23 263.336 m 22.23 264.414 l 23.598 264.414 l 23.598 263.336 l h
22.23 263.336 m f
27.387 272.125 m 31.348 272.125 l 31.348 271.047 l 27.422 271.047 l 
26.801 271.047 26.336 270.926 26.027 270.684 c 25.719 270.441 25.566 
270.078 25.566 269.594 c 25.566 269.012 25.75 268.551 26.121 268.215 c 
26.492 267.879 27 267.711 27.641 267.711 c 31.348 267.711 l 31.348 
266.625 l 24.785 266.625 l 24.785 267.711 l 25.805 267.711 l 25.41 
267.969 25.117 268.273 24.922 268.621 c 24.727 268.973 24.629 269.375 
24.629 269.832 c 24.629 270.586 24.859 271.156 25.328 271.543 c 25.793 
271.93 26.48 272.125 27.387 272.125 c f
27.988 278.59 m 27.207 278.59 26.605 278.43 26.176 278.109 c 25.746 
277.785 25.531 277.336 25.531 276.754 c 25.531 276.176 25.746 275.727 
26.176 275.402 c 26.605 275.078 27.207 274.918 27.988 274.918 c 28.766 
274.918 29.371 275.078 29.801 275.402 c 30.23 275.727 30.445 276.176 
30.445 276.754 c 30.445 277.336 30.23 277.785 29.801 278.109 c 29.371 
278.43 28.766 278.59 27.988 278.59 c 30.535 279.668 m 31.652 279.668 
32.48 279.422 33.027 278.926 c 33.57 278.43 33.844 277.672 33.844 
276.648 c 33.844 276.27 33.816 275.91 33.758 275.574 c 33.703 275.238 
33.617 274.914 33.5 274.598 c 32.449 274.598 l 32.621 274.914 32.75 
275.227 32.828 275.535 c 32.91 275.844 32.953 276.156 32.953 276.477 c 
32.953 277.184 32.77 277.715 32.398 278.066 c 32.031 278.418 31.473 
278.59 30.727 278.59 c 30.191 278.59 l 30.582 278.371 30.871 278.086 
31.062 277.738 c 31.254 277.391 31.348 276.973 31.348 276.488 c 31.348 
275.684 31.043 275.035 30.43 274.543 c 29.816 274.051 29.004 273.805 
27.988 273.805 c 26.977 273.805 26.16 274.051 25.547 274.543 c 24.934 
275.035 24.629 275.684 24.629 276.488 c 24.629 276.973 24.723 277.391 
24.914 277.738 c 25.105 278.086 25.395 278.371 25.781 278.59 c 24.785 
278.59 l 24.785 279.668 l h
30.535 279.668 m f
1 w
72 388.801 m 518.398 388.801 l S
518.398 43.199 m 518.398 388.801 l S
72 43.199 m 518.398 43.199 l S
72 43.199 m 72 388.801 l S
72.789 53.664 m 72.18 53.664 71.723 53.363 71.414 52.766 c 71.109 
52.164 70.957 51.266 70.957 50.062 c 70.957 48.863 71.109 47.961 71.414 
47.363 c 71.723 46.762 72.18 46.461 72.789 46.461 c 73.402 46.461 
73.863 46.762 74.172 47.363 c 74.477 47.961 74.633 48.863 74.633 50.062 
c 74.633 51.266 74.477 52.164 74.172 52.766 c 73.863 53.363 73.402 
53.664 72.789 53.664 c 72.789 54.602 m 73.773 54.602 74.52 54.215 
75.039 53.438 c 75.555 52.664 75.816 51.535 75.816 50.062 c 75.816 
48.59 75.555 47.465 75.039 46.688 c 74.52 45.914 73.773 45.523 72.789 
45.523 c 71.809 45.523 71.062 45.914 70.543 46.688 c 70.027 47.465 
69.77 48.59 69.77 50.062 c 69.77 51.535 70.027 52.664 70.543 53.438 c 
71.062 54.215 71.809 54.602 72.789 54.602 c f
111.609 53.664 m 111 53.664 110.539 53.363 110.234 52.766 c 109.926 
52.164 109.773 51.266 109.773 50.062 c 109.773 48.863 109.926 47.961 
110.234 47.363 c 110.539 46.762 111 46.461 111.609 46.461 c 112.223 
46.461 112.68 46.762 112.988 47.363 c 113.297 47.961 113.449 48.863 
113.449 50.062 c 113.449 51.266 113.297 52.164 112.988 52.766 c 112.68 
53.363 112.223 53.664 111.609 53.664 c 111.609 54.602 m 112.59 54.602 
113.34 54.215 113.855 53.438 c 114.375 52.664 114.633 51.535 114.633 
50.062 c 114.633 48.59 114.375 47.465 113.855 46.688 c 113.34 45.914 
112.59 45.523 111.609 45.523 c 110.629 45.523 109.879 45.914 109.363 
46.688 c 108.844 47.465 108.586 48.59 108.586 50.062 c 108.586 51.535 
108.844 52.664 109.363 53.438 c 109.879 54.215 110.629 54.602 111.609 
54.602 c f
148.52 46.762 m 150.453 46.762 l 150.453 53.434 l 148.348 53.012 l 
148.348 54.09 l 150.441 54.512 l 151.625 54.512 l 151.625 46.762 l 
153.559 46.762 l 153.559 45.766 l 148.52 45.766 l h
148.52 46.762 m f
189.242 53.664 m 188.633 53.664 188.176 53.363 187.867 52.766 c 187.562 
52.164 187.41 51.266 187.41 50.062 c 187.41 48.863 187.562 47.961 
187.867 47.363 c 188.176 46.762 188.633 46.461 189.242 46.461 c 189.855 
46.461 190.316 46.762 190.621 47.363 c 190.93 47.961 191.082 48.863 
191.082 50.062 c 191.082 51.266 190.93 52.164 190.621 52.766 c 190.316 
53.363 189.855 53.664 189.242 53.664 c 189.242 54.602 m 190.223 54.602 
190.973 54.215 191.492 53.438 c 192.008 52.664 192.266 51.535 192.266 
50.062 c 192.266 48.59 192.008 47.465 191.492 46.688 c 190.973 45.914 
190.223 45.523 189.242 45.523 c 188.262 45.523 187.516 45.914 186.996 
46.688 c 186.48 47.465 186.219 48.59 186.219 50.062 c 186.219 51.535 
186.48 52.664 186.996 53.438 c 187.516 54.215 188.262 54.602 189.242 
54.602 c f
228.059 53.664 m 227.449 53.664 226.992 53.363 226.684 52.766 c 226.379 
52.164 226.227 51.266 226.227 50.062 c 226.227 48.863 226.379 47.961 
226.684 47.363 c 226.992 46.762 227.449 46.461 228.059 46.461 c 228.672 
46.461 229.133 46.762 229.441 47.363 c 229.746 47.961 229.902 48.863 
229.902 50.062 c 229.902 51.266 229.746 52.164 229.441 52.766 c 229.133 
53.363 228.672 53.664 228.059 53.664 c 228.059 54.602 m 229.043 54.602 
229.789 54.215 230.309 53.438 c 230.824 52.664 231.086 51.535 231.086 
50.062 c 231.086 48.59 230.824 47.465 230.309 46.688 c 229.789 45.914 
229.043 45.523 228.059 45.523 c 227.078 45.523 226.332 45.914 225.812 
46.688 c 225.297 47.465 225.039 48.59 225.039 50.062 c 225.039 51.535 
225.297 52.664 225.812 53.438 c 226.332 54.215 227.078 54.602 228.059 
54.602 c f
266.879 53.664 m 266.27 53.664 265.809 53.363 265.504 52.766 c 265.195 
52.164 265.043 51.266 265.043 50.062 c 265.043 48.863 265.195 47.961 
265.504 47.363 c 265.809 46.762 266.27 46.461 266.879 46.461 c 267.492 
46.461 267.949 46.762 268.258 47.363 c 268.566 47.961 268.719 48.863 
268.719 50.062 c 268.719 51.266 268.566 52.164 268.258 52.766 c 267.949 
53.363 267.492 53.664 266.879 53.664 c 266.879 54.602 m 267.859 54.602 
268.609 54.215 269.125 53.438 c 269.645 52.664 269.902 51.535 269.902 
50.062 c 269.902 48.59 269.645 47.465 269.125 46.688 c 268.609 45.914 
267.859 45.523 266.879 45.523 c 265.898 45.523 265.148 45.914 264.633 
46.688 c 264.113 47.465 263.855 48.59 263.855 50.062 c 263.855 51.535 
264.113 52.664 264.633 53.438 c 265.148 54.215 265.898 54.602 266.879 
54.602 c f
305.695 53.664 m 305.086 53.664 304.629 53.363 304.32 52.766 c 304.016 
52.164 303.859 51.266 303.859 50.062 c 303.859 48.863 304.016 47.961 
304.32 47.363 c 304.629 46.762 305.086 46.461 305.695 46.461 c 306.309 
46.461 306.77 46.762 307.074 47.363 c 307.383 47.961 307.535 48.863 
307.535 50.062 c 307.535 51.266 307.383 52.164 307.074 52.766 c 306.77 
53.363 306.309 53.664 305.695 53.664 c 305.695 54.602 m 306.676 54.602 
307.426 54.215 307.941 53.438 c 308.461 52.664 308.719 51.535 308.719 
50.062 c 308.719 48.59 308.461 47.465 307.941 46.688 c 307.426 45.914 
306.676 45.523 305.695 45.523 c 304.715 45.523 303.965 45.914 303.449 
46.688 c 302.93 47.465 302.672 48.59 302.672 50.062 c 302.672 51.535 
302.93 52.664 303.449 53.438 c 303.965 54.215 304.715 54.602 305.695 
54.602 c f
344.512 53.664 m 343.902 53.664 343.445 53.363 343.137 52.766 c 342.832 
52.164 342.68 51.266 342.68 50.062 c 342.68 48.863 342.832 47.961 
343.137 47.363 c 343.445 46.762 343.902 46.461 344.512 46.461 c 345.125 
46.461 345.586 46.762 345.891 47.363 c 346.199 47.961 346.352 48.863 
346.352 50.062 c 346.352 51.266 346.199 52.164 345.891 52.766 c 345.586 
53.363 345.125 53.664 344.512 53.664 c 344.512 54.602 m 345.492 54.602 
346.242 54.215 346.762 53.438 c 347.277 52.664 347.535 51.535 347.535 
50.062 c 347.535 48.59 347.277 47.465 346.762 46.688 c 346.242 45.914 
345.492 45.523 344.512 45.523 c 343.531 45.523 342.785 45.914 342.266 
46.688 c 341.75 47.465 341.488 48.59 341.488 50.062 c 341.488 51.535 
341.75 52.664 342.266 53.438 c 342.785 54.215 343.531 54.602 344.512 
54.602 c f
383.328 53.664 m 382.719 53.664 382.262 53.363 381.953 52.766 c 381.648 
52.164 381.496 51.266 381.496 50.062 c 381.496 48.863 381.648 47.961 
381.953 47.363 c 382.262 46.762 382.719 46.461 383.328 46.461 c 383.941 
46.461 384.402 46.762 384.711 47.363 c 385.016 47.961 385.172 48.863 
385.172 50.062 c 385.172 51.266 385.016 52.164 384.711 52.766 c 384.402 
53.363 383.941 53.664 383.328 53.664 c 383.328 54.602 m 384.312 54.602 
385.059 54.215 385.578 53.438 c 386.094 52.664 386.355 51.535 386.355 
50.062 c 386.355 48.59 386.094 47.465 385.578 46.688 c 385.059 45.914 
384.312 45.523 383.328 45.523 c 382.348 45.523 381.602 45.914 381.082 
46.688 c 380.566 47.465 380.309 48.59 380.309 50.062 c 380.309 51.535 
380.566 52.664 381.082 53.438 c 381.602 54.215 382.348 54.602 383.328 
54.602 c f
422.148 53.664 m 421.539 53.664 421.078 53.363 420.773 52.766 c 420.465 
52.164 420.312 51.266 420.312 50.062 c 420.312 48.863 420.465 47.961 
420.773 47.363 c 421.078 46.762 421.539 46.461 422.148 46.461 c 422.762 
46.461 423.219 46.762 423.527 47.363 c 423.836 47.961 423.988 48.863 
423.988 50.062 c 423.988 51.266 423.836 52.164 423.527 52.766 c 423.219 
53.363 422.762 53.664 422.148 53.664 c 422.148 54.602 m 423.129 54.602 
423.879 54.215 424.395 53.438 c 424.914 52.664 425.172 51.535 425.172 
50.062 c 425.172 48.59 424.914 47.465 424.395 46.688 c 423.879 45.914 
423.129 45.523 422.148 45.523 c 421.168 45.523 420.418 45.914 419.902 
46.688 c 419.383 47.465 419.125 48.59 419.125 50.062 c 419.125 51.535 
419.383 52.664 419.902 53.438 c 420.418 54.215 421.168 54.602 422.148 
54.602 c f
450.07 395.141 m 447.082 390.473 l 450.07 390.473 l h
449.758 396.172 m 451.246 396.172 l 451.246 390.473 l 452.496 390.473 l 
452.496 389.488 l 451.246 389.488 l 451.246 387.426 l 450.07 387.426 l 
450.07 389.488 l 446.121 389.488 l 446.121 390.629 l h
449.758 396.172 m f
454.488 387.605 m 454.488 388.684 l 454.785 388.543 455.086 388.438 
455.391 388.363 c 455.695 388.289 455.992 388.25 456.285 388.25 c 
457.066 388.25 457.664 388.516 458.074 389.039 c 458.488 389.562 
458.723 390.363 458.781 391.434 c 458.555 391.098 458.27 390.84 457.922 
390.66 c 457.574 390.48 457.188 390.391 456.766 390.391 c 455.891 
390.391 455.199 390.652 454.688 391.184 c 454.18 391.711 453.926 
392.438 453.926 393.355 c 453.926 394.254 454.191 394.973 454.723 
395.516 c 455.254 396.059 455.961 396.332 456.844 396.332 c 457.855 
396.332 458.625 395.941 459.16 395.168 c 459.691 394.391 459.961 
393.266 459.961 391.789 c 459.961 390.41 459.633 389.309 458.977 
388.488 c 458.324 387.664 457.445 387.254 456.34 387.254 c 456.043 
387.254 455.742 387.285 455.438 387.344 c 455.133 387.402 454.816 
387.488 454.488 387.605 c 456.844 391.316 m 457.375 391.316 457.793 
391.496 458.105 391.859 c 458.414 392.223 458.57 392.723 458.57 393.355 
c 458.57 393.984 458.414 394.48 458.105 394.848 c 457.793 395.211 
457.375 395.395 456.844 395.395 c 456.312 395.395 455.891 395.211 
455.578 394.848 c 455.27 394.48 455.113 393.984 455.113 393.355 c 
455.113 392.723 455.27 392.223 455.578 391.859 c 455.891 391.496 
456.312 391.316 456.844 391.316 c f
465.34 395.141 m 462.352 390.473 l 465.34 390.473 l h
465.027 396.172 m 466.516 396.172 l 466.516 390.473 l 467.766 390.473 l 
467.766 389.488 l 466.516 389.488 l 466.516 387.426 l 465.34 387.426 l 
465.34 389.488 l 461.391 389.488 l 461.391 390.629 l h
465.027 396.172 m f
472.973 395.141 m 469.984 390.473 l 472.973 390.473 l h
472.664 396.172 m 474.152 396.172 l 474.152 390.473 l 475.398 390.473 l 
475.398 389.488 l 474.152 389.488 l 474.152 387.426 l 472.973 387.426 l 
472.973 389.488 l 469.023 389.488 l 469.023 390.629 l h
472.664 396.172 m f
Q Q
showpage
%%Trailer
count op_count sub {pop} repeat
countdictstack dict_count sub {end} repeat
cairo_eps_state restore
%%EOF
