%!PS-Adobe-3.0 EPSF-3.0
%%Creator: cairo 1.10.2 (http://cairographics.org)
%%CreationDate: Wed Jul 23 18:53:44 2014
%%Pages: 1
%%BoundingBox: 0 0 576 432
%%DocumentData: Clean7Bit
%%LanguageLevel: 2
%%EndComments
%%BeginProlog
/cairo_eps_state save def
/dict_count countdictstack def
/op_count count 1 sub def
userdict begin
/q { gsave } bind def
/Q { grestore } bind def
/cm { 6 array astore concat } bind def
/w { setlinewidth } bind def
/J { setlinecap } bind def
/j { setlinejoin } bind def
/M { setmiterlimit } bind def
/d { setdash } bind def
/m { moveto } bind def
/l { lineto } bind def
/c { curveto } bind def
/h { closepath } bind def
/re { exch dup neg 3 1 roll 5 3 roll moveto 0 rlineto
      0 exch rlineto 0 rlineto closepath } bind def
/S { stroke } bind def
/f { fill } bind def
/f* { eofill } bind def
/n { newpath } bind def
/W { clip } bind def
/W* { eoclip } bind def
/BT { } bind def
/ET { } bind def
/pdfmark where { pop globaldict /?pdfmark /exec load put }
    { globaldict begin /?pdfmark /pop load def /pdfmark
    /cleartomark load def end } ifelse
/BDC { mark 3 1 roll /BDC pdfmark } bind def
/EMC { mark /EMC pdfmark } bind def
/cairo_store_point { /cairo_point_y exch def /cairo_point_x exch def } def
/Tj { show currentpoint cairo_store_point } bind def
/TJ {
  {
    dup
    type /stringtype eq
    { show } { -0.001 mul 0 cairo_font_matrix dtransform rmoveto } ifelse
  } forall
  currentpoint cairo_store_point
} bind def
/cairo_selectfont { cairo_font_matrix aload pop pop pop 0 0 6 array astore
    cairo_font exch selectfont cairo_point_x cairo_point_y moveto } bind def
/Tf { pop /cairo_font exch def /cairo_font_matrix where
      { pop cairo_selectfont } if } bind def
/Td { matrix translate cairo_font_matrix matrix concatmatrix dup
      /cairo_font_matrix exch def dup 4 get exch 5 get cairo_store_point
      /cairo_font where { pop cairo_selectfont } if } bind def
/Tm { 2 copy 8 2 roll 6 array astore /cairo_font_matrix exch def
      cairo_store_point /cairo_font where { pop cairo_selectfont } if } bind def
/g { setgray } bind def
/rg { setrgbcolor } bind def
/d1 { setcachedevice } bind def
%%EndProlog
%%Page: 1 1
%%BeginPageSetup
%%PageBoundingBox: 0 0 576 432
%%EndPageSetup
q 0 0 576 432 rectclip q
1 g
0 0 576 432 rectfill
72 388.801 446.398 -345.602 re f
Q q
72 388.801 446.398 -345.602 re W n
q
72 389 447 -346 re W n
  q
Q q
/CairoPattern {
  q
Q q
1 g
0 0 7200 7200 rectfill
0 g
-3600 3600 m 3600 10800 l -3000 3000 m 4200 10200 l -2400 2400 m 4800 
9600 l -1800 1800 m 5400 9000 l -1200 1200 m 6000 8400 l -600 600 m 
6600 7800 l 0 0 m 7200 7200 l 600 -600 m 7800 6600 l 1200 -1200 m 8400 
6000 l 1800 -1800 m 9000 5400 l 2400 -2400 m 9600 4800 l 3000 -3000 m 
10200 4200 l 3600 -3600 m 10800 3600 l f
100 w
0 J
0 j
[] 0.0 d
4 M q 1 0 0 -1 0 7200 cm
-3600 3600 m 3600 -3600 l -3000 4200 m 4200 -3000 l -2400 4800 m 4800 
-2400 l -1800 5400 m 5400 -1800 l -1200 6000 m 6000 -1200 l -600 6600 m 
6600 -600 l 0 7200 m 7200 0 l 600 7800 m 7800 600 l 1200 8400 m 8400 
1200 l 1800 9000 m 9000 1800 l 2400 9600 m 9600 2400 l 3000 10200 m 
10200 3000 l 3600 10800 m 10800 3600 l S Q
  Q
} bind def
<< /PatternType 1
   /PaintType 1
   /TilingType 1
   /XStep 7200 /YStep 7200
   /BBox [0 0 7200 7200]
   /PaintProc { CairoPattern }
>>
[ 0.01 0 0 0.01 0 360 ]
makepattern setpattern
72 43.34 37.199 -0.141 re f
Q q
0 g
1 w
0 J
1 j
[] 0.0 d
4 M 72 43.34 37.199 -0.141 re S
  Q
Q
Q q
72 388.801 446.398 -345.602 re W n
q
72 389 447 -346 re W n
  q
Q q
/CairoPattern {
  q
Q q
1 g
0 0 7200 7200 rectfill
0 g
-3600 3600 m 3600 10800 l -3000 3000 m 4200 10200 l -2400 2400 m 4800 
9600 l -1800 1800 m 5400 9000 l -1200 1200 m 6000 8400 l -600 600 m 
6600 7800 l 0 0 m 7200 7200 l 600 -600 m 7800 6600 l 1200 -1200 m 8400 
6000 l 1800 -1800 m 9000 5400 l 2400 -2400 m 9600 4800 l 3000 -3000 m 
10200 4200 l 3600 -3600 m 10800 3600 l f
100 w
0 J
0 j
[] 0.0 d
4 M q 1 0 0 -1 0 7200 cm
-3600 3600 m 3600 -3600 l -3000 4200 m 4200 -3000 l -2400 4800 m 4800 
-2400 l -1800 5400 m 5400 -1800 l -1200 6000 m 6000 -1200 l -600 6600 m 
6600 -600 l 0 7200 m 7200 0 l 600 7800 m 7800 600 l 1200 8400 m 8400 
1200 l 1800 9000 m 9000 1800 l 2400 9600 m 9600 2400 l 3000 10200 m 
10200 3000 l 3600 10800 m 10800 3600 l S Q
  Q
} bind def
<< /PatternType 1
   /PaintType 1
   /TilingType 1
   /XStep 7200 /YStep 7200
   /BBox [0 0 7200 7200]
   /PaintProc { CairoPattern }
>>
[ 0.01 0 0 0.01 0 360 ]
makepattern setpattern
109.199 43.199 m 146.398 43.199 l h
109.199 43.199 m f
Q q
0 g
1 w
0 J
1 j
[] 0.0 d
4 M 109.199 43.199 m 146.398 43.199 l h
109.199 43.199 m S
  Q
Q
Q q
72 388.801 446.398 -345.602 re W n
q
72 389 447 -346 re W n
  q
Q q
/CairoPattern {
  q
Q q
1 g
0 0 7200 7200 rectfill
0 g
-3600 3600 m 3600 10800 l -3000 3000 m 4200 10200 l -2400 2400 m 4800 
9600 l -1800 1800 m 5400 9000 l -1200 1200 m 6000 8400 l -600 600 m 
6600 7800 l 0 0 m 7200 7200 l 600 -600 m 7800 6600 l 1200 -1200 m 8400 
6000 l 1800 -1800 m 9000 5400 l 2400 -2400 m 9600 4800 l 3000 -3000 m 
10200 4200 l 3600 -3600 m 10800 3600 l f
100 w
0 J
0 j
[] 0.0 d
4 M q 1 0 0 -1 0 7200 cm
-3600 3600 m 3600 -3600 l -3000 4200 m 4200 -3000 l -2400 4800 m 4800 
-2400 l -1800 5400 m 5400 -1800 l -1200 6000 m 6000 -1200 l -600 6600 m 
6600 -600 l 0 7200 m 7200 0 l 600 7800 m 7800 600 l 1200 8400 m 8400 
1200 l 1800 9000 m 9000 1800 l 2400 9600 m 9600 2400 l 3000 10200 m 
10200 3000 l 3600 10800 m 10800 3600 l S Q
  Q
} bind def
<< /PatternType 1
   /PaintType 1
   /TilingType 1
   /XStep 7200 /YStep 7200
   /BBox [0 0 7200 7200]
   /PaintProc { CairoPattern }
>>
[ 0.01 0 0 0.01 0 360 ]
makepattern setpattern
146.398 43.199 m 183.602 43.199 l h
146.398 43.199 m f
Q q
0 g
1 w
0 J
1 j
[] 0.0 d
4 M 146.398 43.199 m 183.602 43.199 l h
146.398 43.199 m S
  Q
Q
Q q
72 388.801 446.398 -345.602 re W n
q
72 389 447 -346 re W n
  q
Q q
/CairoPattern {
  q
Q q
1 g
0 0 7200 7200 rectfill
0 g
-3600 3600 m 3600 10800 l -3000 3000 m 4200 10200 l -2400 2400 m 4800 
9600 l -1800 1800 m 5400 9000 l -1200 1200 m 6000 8400 l -600 600 m 
6600 7800 l 0 0 m 7200 7200 l 600 -600 m 7800 6600 l 1200 -1200 m 8400 
6000 l 1800 -1800 m 9000 5400 l 2400 -2400 m 9600 4800 l 3000 -3000 m 
10200 4200 l 3600 -3600 m 10800 3600 l f
100 w
0 J
0 j
[] 0.0 d
4 M q 1 0 0 -1 0 7200 cm
-3600 3600 m 3600 -3600 l -3000 4200 m 4200 -3000 l -2400 4800 m 4800 
-2400 l -1800 5400 m 5400 -1800 l -1200 6000 m 6000 -1200 l -600 6600 m 
6600 -600 l 0 7200 m 7200 0 l 600 7800 m 7800 600 l 1200 8400 m 8400 
1200 l 1800 9000 m 9000 1800 l 2400 9600 m 9600 2400 l 3000 10200 m 
10200 3000 l 3600 10800 m 10800 3600 l S Q
  Q
} bind def
<< /PatternType 1
   /PaintType 1
   /TilingType 1
   /XStep 7200 /YStep 7200
   /BBox [0 0 7200 7200]
   /PaintProc { CairoPattern }
>>
[ 0.01 0 0 0.01 0 360 ]
makepattern setpattern
183.602 43.199 m 220.801 43.199 l h
183.602 43.199 m f
Q q
0 g
1 w
0 J
1 j
[] 0.0 d
4 M 183.602 43.199 m 220.801 43.199 l h
183.602 43.199 m S
  Q
Q
Q q
72 388.801 446.398 -345.602 re W n
q
72 389 447 -346 re W n
  q
Q q
/CairoPattern {
  q
Q q
1 g
0 0 7200 7200 rectfill
0 g
-3600 3600 m 3600 10800 l -3000 3000 m 4200 10200 l -2400 2400 m 4800 
9600 l -1800 1800 m 5400 9000 l -1200 1200 m 6000 8400 l -600 600 m 
6600 7800 l 0 0 m 7200 7200 l 600 -600 m 7800 6600 l 1200 -1200 m 8400 
6000 l 1800 -1800 m 9000 5400 l 2400 -2400 m 9600 4800 l 3000 -3000 m 
10200 4200 l 3600 -3600 m 10800 3600 l f
100 w
0 J
0 j
[] 0.0 d
4 M q 1 0 0 -1 0 7200 cm
-3600 3600 m 3600 -3600 l -3000 4200 m 4200 -3000 l -2400 4800 m 4800 
-2400 l -1800 5400 m 5400 -1800 l -1200 6000 m 6000 -1200 l -600 6600 m 
6600 -600 l 0 7200 m 7200 0 l 600 7800 m 7800 600 l 1200 8400 m 8400 
1200 l 1800 9000 m 9000 1800 l 2400 9600 m 9600 2400 l 3000 10200 m 
10200 3000 l 3600 10800 m 10800 3600 l S Q
  Q
} bind def
<< /PatternType 1
   /PaintType 1
   /TilingType 1
   /XStep 7200 /YStep 7200
   /BBox [0 0 7200 7200]
   /PaintProc { CairoPattern }
>>
[ 0.01 0 0 0.01 0 360 ]
makepattern setpattern
220.801 43.199 m 258 43.199 l h
220.801 43.199 m f
Q q
0 g
1 w
0 J
1 j
[] 0.0 d
4 M 220.801 43.199 m 258 43.199 l h
220.801 43.199 m S
  Q
Q
Q q
72 388.801 446.398 -345.602 re W n
q
72 389 447 -346 re W n
  q
Q q
/CairoPattern {
  q
Q q
1 g
0 0 7200 7200 rectfill
0 g
-3600 3600 m 3600 10800 l -3000 3000 m 4200 10200 l -2400 2400 m 4800 
9600 l -1800 1800 m 5400 9000 l -1200 1200 m 6000 8400 l -600 600 m 
6600 7800 l 0 0 m 7200 7200 l 600 -600 m 7800 6600 l 1200 -1200 m 8400 
6000 l 1800 -1800 m 9000 5400 l 2400 -2400 m 9600 4800 l 3000 -3000 m 
10200 4200 l 3600 -3600 m 10800 3600 l f
100 w
0 J
0 j
[] 0.0 d
4 M q 1 0 0 -1 0 7200 cm
-3600 3600 m 3600 -3600 l -3000 4200 m 4200 -3000 l -2400 4800 m 4800 
-2400 l -1800 5400 m 5400 -1800 l -1200 6000 m 6000 -1200 l -600 6600 m 
6600 -600 l 0 7200 m 7200 0 l 600 7800 m 7800 600 l 1200 8400 m 8400 
1200 l 1800 9000 m 9000 1800 l 2400 9600 m 9600 2400 l 3000 10200 m 
10200 3000 l 3600 10800 m 10800 3600 l S Q
  Q
} bind def
<< /PatternType 1
   /PaintType 1
   /TilingType 1
   /XStep 7200 /YStep 7200
   /BBox [0 0 7200 7200]
   /PaintProc { CairoPattern }
>>
[ 0.01 0 0 0.01 0 360 ]
makepattern setpattern
258 43.199 m 295.199 43.199 l h
258 43.199 m f
Q q
0 g
1 w
0 J
1 j
[] 0.0 d
4 M 258 43.199 m 295.199 43.199 l h
258 43.199 m S
  Q
Q
Q q
72 388.801 446.398 -345.602 re W n
q
72 389 447 -346 re W n
  q
Q q
/CairoPattern {
  q
Q q
1 g
0 0 7200 7200 rectfill
0 g
-3600 3600 m 3600 10800 l -3000 3000 m 4200 10200 l -2400 2400 m 4800 
9600 l -1800 1800 m 5400 9000 l -1200 1200 m 6000 8400 l -600 600 m 
6600 7800 l 0 0 m 7200 7200 l 600 -600 m 7800 6600 l 1200 -1200 m 8400 
6000 l 1800 -1800 m 9000 5400 l 2400 -2400 m 9600 4800 l 3000 -3000 m 
10200 4200 l 3600 -3600 m 10800 3600 l f
100 w
0 J
0 j
[] 0.0 d
4 M q 1 0 0 -1 0 7200 cm
-3600 3600 m 3600 -3600 l -3000 4200 m 4200 -3000 l -2400 4800 m 4800 
-2400 l -1800 5400 m 5400 -1800 l -1200 6000 m 6000 -1200 l -600 6600 m 
6600 -600 l 0 7200 m 7200 0 l 600 7800 m 7800 600 l 1200 8400 m 8400 
1200 l 1800 9000 m 9000 1800 l 2400 9600 m 9600 2400 l 3000 10200 m 
10200 3000 l 3600 10800 m 10800 3600 l S Q
  Q
} bind def
<< /PatternType 1
   /PaintType 1
   /TilingType 1
   /XStep 7200 /YStep 7200
   /BBox [0 0 7200 7200]
   /PaintProc { CairoPattern }
>>
[ 0.01 0 0 0.01 0 360 ]
makepattern setpattern
295.199 43.199 m 332.398 43.199 l h
295.199 43.199 m f
Q q
0 g
1 w
0 J
1 j
[] 0.0 d
4 M 295.199 43.199 m 332.398 43.199 l h
295.199 43.199 m S
  Q
Q
Q q
72 388.801 446.398 -345.602 re W n
q
72 389 447 -346 re W n
  q
Q q
/CairoPattern {
  q
Q q
1 g
0 0 7200 7200 rectfill
0 g
-3600 3600 m 3600 10800 l -3000 3000 m 4200 10200 l -2400 2400 m 4800 
9600 l -1800 1800 m 5400 9000 l -1200 1200 m 6000 8400 l -600 600 m 
6600 7800 l 0 0 m 7200 7200 l 600 -600 m 7800 6600 l 1200 -1200 m 8400 
6000 l 1800 -1800 m 9000 5400 l 2400 -2400 m 9600 4800 l 3000 -3000 m 
10200 4200 l 3600 -3600 m 10800 3600 l f
100 w
0 J
0 j
[] 0.0 d
4 M q 1 0 0 -1 0 7200 cm
-3600 3600 m 3600 -3600 l -3000 4200 m 4200 -3000 l -2400 4800 m 4800 
-2400 l -1800 5400 m 5400 -1800 l -1200 6000 m 6000 -1200 l -600 6600 m 
6600 -600 l 0 7200 m 7200 0 l 600 7800 m 7800 600 l 1200 8400 m 8400 
1200 l 1800 9000 m 9000 1800 l 2400 9600 m 9600 2400 l 3000 10200 m 
10200 3000 l 3600 10800 m 10800 3600 l S Q
  Q
} bind def
<< /PatternType 1
   /PaintType 1
   /TilingType 1
   /XStep 7200 /YStep 7200
   /BBox [0 0 7200 7200]
   /PaintProc { CairoPattern }
>>
[ 0.01 0 0 0.01 0 360 ]
makepattern setpattern
332.398 43.199 m 369.602 43.199 l h
332.398 43.199 m f
Q q
0 g
1 w
0 J
1 j
[] 0.0 d
4 M 332.398 43.199 m 369.602 43.199 l h
332.398 43.199 m S
  Q
Q
Q q
72 388.801 446.398 -345.602 re W n
q
72 389 447 -346 re W n
  q
Q q
/CairoPattern {
  q
Q q
1 g
0 0 7200 7200 rectfill
0 g
-3600 3600 m 3600 10800 l -3000 3000 m 4200 10200 l -2400 2400 m 4800 
9600 l -1800 1800 m 5400 9000 l -1200 1200 m 6000 8400 l -600 600 m 
6600 7800 l 0 0 m 7200 7200 l 600 -600 m 7800 6600 l 1200 -1200 m 8400 
6000 l 1800 -1800 m 9000 5400 l 2400 -2400 m 9600 4800 l 3000 -3000 m 
10200 4200 l 3600 -3600 m 10800 3600 l f
100 w
0 J
0 j
[] 0.0 d
4 M q 1 0 0 -1 0 7200 cm
-3600 3600 m 3600 -3600 l -3000 4200 m 4200 -3000 l -2400 4800 m 4800 
-2400 l -1800 5400 m 5400 -1800 l -1200 6000 m 6000 -1200 l -600 6600 m 
6600 -600 l 0 7200 m 7200 0 l 600 7800 m 7800 600 l 1200 8400 m 8400 
1200 l 1800 9000 m 9000 1800 l 2400 9600 m 9600 2400 l 3000 10200 m 
10200 3000 l 3600 10800 m 10800 3600 l S Q
  Q
} bind def
<< /PatternType 1
   /PaintType 1
   /TilingType 1
   /XStep 7200 /YStep 7200
   /BBox [0 0 7200 7200]
   /PaintProc { CairoPattern }
>>
[ 0.01 0 0 0.01 0 360 ]
makepattern setpattern
369.602 43.199 m 406.801 43.199 l h
369.602 43.199 m f
Q q
0 g
1 w
0 J
1 j
[] 0.0 d
4 M 369.602 43.199 m 406.801 43.199 l h
369.602 43.199 m S
  Q
Q
Q q
72 388.801 446.398 -345.602 re W n
q
72 389 447 -346 re W n
  q
Q q
/CairoPattern {
  q
Q q
1 g
0 0 7200 7200 rectfill
0 g
-3600 3600 m 3600 10800 l -3000 3000 m 4200 10200 l -2400 2400 m 4800 
9600 l -1800 1800 m 5400 9000 l -1200 1200 m 6000 8400 l -600 600 m 
6600 7800 l 0 0 m 7200 7200 l 600 -600 m 7800 6600 l 1200 -1200 m 8400 
6000 l 1800 -1800 m 9000 5400 l 2400 -2400 m 9600 4800 l 3000 -3000 m 
10200 4200 l 3600 -3600 m 10800 3600 l f
100 w
0 J
0 j
[] 0.0 d
4 M q 1 0 0 -1 0 7200 cm
-3600 3600 m 3600 -3600 l -3000 4200 m 4200 -3000 l -2400 4800 m 4800 
-2400 l -1800 5400 m 5400 -1800 l -1200 6000 m 6000 -1200 l -600 6600 m 
6600 -600 l 0 7200 m 7200 0 l 600 7800 m 7800 600 l 1200 8400 m 8400 
1200 l 1800 9000 m 9000 1800 l 2400 9600 m 9600 2400 l 3000 10200 m 
10200 3000 l 3600 10800 m 10800 3600 l S Q
  Q
} bind def
<< /PatternType 1
   /PaintType 1
   /TilingType 1
   /XStep 7200 /YStep 7200
   /BBox [0 0 7200 7200]
   /PaintProc { CairoPattern }
>>
[ 0.01 0 0 0.01 0 360 ]
makepattern setpattern
406.801 43.199 m 444 43.199 l h
406.801 43.199 m f
Q q
0 g
1 w
0 J
1 j
[] 0.0 d
4 M 406.801 43.199 m 444 43.199 l h
406.801 43.199 m S
  Q
Q
Q q
72 388.801 446.398 -345.602 re W n
q
72 389 447 -346 re W n
  q
Q q
/CairoPattern {
  q
Q q
1 g
0 0 7200 7200 rectfill
0 g
-3600 3600 m 3600 10800 l -3000 3000 m 4200 10200 l -2400 2400 m 4800 
9600 l -1800 1800 m 5400 9000 l -1200 1200 m 6000 8400 l -600 600 m 
6600 7800 l 0 0 m 7200 7200 l 600 -600 m 7800 6600 l 1200 -1200 m 8400 
6000 l 1800 -1800 m 9000 5400 l 2400 -2400 m 9600 4800 l 3000 -3000 m 
10200 4200 l 3600 -3600 m 10800 3600 l f
100 w
0 J
0 j
[] 0.0 d
4 M q 1 0 0 -1 0 7200 cm
-3600 3600 m 3600 -3600 l -3000 4200 m 4200 -3000 l -2400 4800 m 4800 
-2400 l -1800 5400 m 5400 -1800 l -1200 6000 m 6000 -1200 l -600 6600 m 
6600 -600 l 0 7200 m 7200 0 l 600 7800 m 7800 600 l 1200 8400 m 8400 
1200 l 1800 9000 m 9000 1800 l 2400 9600 m 9600 2400 l 3000 10200 m 
10200 3000 l 3600 10800 m 10800 3600 l S Q
  Q
} bind def
<< /PatternType 1
   /PaintType 1
   /TilingType 1
   /XStep 7200 /YStep 7200
   /BBox [0 0 7200 7200]
   /PaintProc { CairoPattern }
>>
[ 0.01 0 0 0.01 0 360 ]
makepattern setpattern
444 384.859 37.199 -341.66 re f
Q q
0 g
1 w
0 J
1 j
[] 0.0 d
4 M 444 384.859 37.199 -341.66 re S
  Q
Q
0 g
0.5 w
0 J
1 j
[] 0.0 d
4 M 90.602 43.199 m 90.602 47.199 l S
90.602 388.801 m 90.602 384.801 l S
86.254 37.664 m 84.648 33.312 l 87.863 33.312 l h
85.586 38.832 m 86.926 38.832 l 90.262 30.082 l 89.031 30.082 l 88.234 
32.328 l 84.289 32.328 l 83.492 30.082 l 82.246 30.082 l h
85.586 38.832 m f
95.879 37.605 m 95.879 34.344 l 99.145 34.344 l 99.145 33.348 l 95.879 
33.348 l 95.879 30.082 l 94.895 30.082 l 94.895 33.348 l 91.633 33.348 
l 91.633 34.344 l 94.895 34.344 l 94.895 37.605 l h
95.879 37.605 m f
127.801 43.199 m 127.801 47.199 l S
127.801 388.801 m 127.801 384.801 l S
126.109 37.664 m 124.5 33.312 l 127.719 33.312 l h
125.438 38.832 m 126.781 38.832 l 130.113 30.082 l 128.883 30.082 l 
128.086 32.328 l 124.145 32.328 l 123.348 30.082 l 122.098 30.082 l h
125.438 38.832 m f
130.531 33.848 3.156 -0.957 re f
165 43.199 m 165 47.199 l S
165 388.801 m 165 384.801 l S
159.441 34.258 m 159.441 31.055 l 161.34 31.055 l 161.977 31.055 
162.449 31.188 162.754 31.449 c 163.062 31.715 163.215 32.117 163.215 
32.66 c 163.215 33.207 163.062 33.609 162.754 33.871 c 162.449 34.129 
161.977 34.258 161.34 34.258 c h
159.441 37.859 m 159.441 35.223 l 161.195 35.223 l 161.773 35.223 
162.203 35.328 162.484 35.547 c 162.77 35.762 162.91 36.094 162.91 
36.539 c 162.91 36.98 162.77 37.312 162.484 37.531 c 162.203 37.75 
161.773 37.859 161.195 37.859 c h
158.258 38.832 m 161.281 38.832 l 162.184 38.832 162.879 38.645 163.367 
38.27 c 163.855 37.895 164.102 37.359 164.102 36.668 c 164.102 36.133 
163.977 35.707 163.727 35.391 c 163.477 35.074 163.109 34.875 162.625 
34.801 c 163.207 34.676 163.66 34.414 163.98 34.016 c 164.305 33.621 
164.465 33.125 164.465 32.531 c 164.465 31.75 164.199 31.145 163.668 
30.719 c 163.137 30.293 162.379 30.082 161.398 30.082 c 158.258 30.082 
l h
158.258 38.832 m f
170.832 37.605 m 170.832 34.344 l 174.098 34.344 l 174.098 33.348 l 
170.832 33.348 l 170.832 30.082 l 169.848 30.082 l 169.848 33.348 l 
166.586 33.348 l 166.586 34.344 l 169.848 34.344 l 169.848 37.605 l h
170.832 37.605 m f
202.199 43.199 m 202.199 47.199 l S
202.199 388.801 m 202.199 384.801 l S
199.16 34.258 m 199.16 31.055 l 201.059 31.055 l 201.695 31.055 202.168 
31.188 202.473 31.449 c 202.781 31.715 202.934 32.117 202.934 32.66 c 
202.934 33.207 202.781 33.609 202.473 33.871 c 202.168 34.129 201.695 
34.258 201.059 34.258 c h
199.16 37.859 m 199.16 35.223 l 200.914 35.223 l 201.492 35.223 201.922 
35.328 202.203 35.547 c 202.488 35.762 202.629 36.094 202.629 36.539 c 
202.629 36.98 202.488 37.312 202.203 37.531 c 201.922 37.75 201.492 
37.859 200.914 37.859 c h
197.977 38.832 m 201 38.832 l 201.906 38.832 202.598 38.645 203.086 
38.27 c 203.574 37.895 203.82 37.359 203.82 36.668 c 203.82 36.133 
203.695 35.707 203.445 35.391 c 203.195 35.074 202.828 34.875 202.344 
34.801 c 202.926 34.676 203.379 34.414 203.699 34.016 c 204.023 33.621 
204.184 33.125 204.184 32.531 c 204.184 31.75 203.918 31.145 203.387 
30.719 c 202.855 30.293 202.098 30.082 201.117 30.082 c 197.977 30.082 
l h
197.977 38.832 m f
205.621 33.848 3.156 -0.957 re f
239.398 43.199 m 239.398 47.199 l S
239.398 388.801 m 239.398 384.801 l S
238.883 38.156 m 238.883 36.91 l 238.484 37.281 238.062 37.559 237.609 
37.738 c 237.156 37.922 236.68 38.016 236.172 38.016 c 235.172 38.016 
234.406 37.711 233.875 37.098 c 233.344 36.488 233.078 35.602 233.078 
34.445 c 233.078 33.293 233.344 32.414 233.875 31.801 c 234.406 31.191 
235.172 30.883 236.172 30.883 c 236.68 30.883 237.156 30.977 237.609 
31.16 c 238.062 31.344 238.484 31.621 238.883 31.992 c 238.883 30.754 l 
238.469 30.473 238.031 30.262 237.566 30.121 c 237.105 29.98 236.617 
29.91 236.102 29.91 c 234.777 29.91 233.734 30.316 232.969 31.125 c 
232.211 31.938 231.828 33.043 231.828 34.445 c 231.828 35.852 232.211 
36.961 232.969 37.77 c 233.734 38.582 234.777 38.988 236.102 38.988 c 
236.625 38.988 237.117 38.918 237.578 38.781 c 238.043 38.641 238.477 
38.434 238.883 38.156 c f
245.055 37.605 m 245.055 34.344 l 248.316 34.344 l 248.316 33.348 l 
245.055 33.348 l 245.055 30.082 l 244.07 30.082 l 244.07 33.348 l 
240.805 33.348 l 240.805 34.344 l 244.07 34.344 l 244.07 37.605 l h
245.055 37.605 m f
276.602 43.199 m 276.602 47.199 l S
276.602 388.801 m 276.602 384.801 l S
278.602 38.156 m 278.602 36.91 l 278.203 37.281 277.781 37.559 277.328 
37.738 c 276.879 37.922 276.398 38.016 275.891 38.016 c 274.891 38.016 
274.125 37.711 273.594 37.098 c 273.062 36.488 272.797 35.602 272.797 
34.445 c 272.797 33.293 273.062 32.414 273.594 31.801 c 274.125 31.191 
274.891 30.883 275.891 30.883 c 276.398 30.883 276.879 30.977 277.328 
31.16 c 277.781 31.344 278.203 31.621 278.602 31.992 c 278.602 30.754 l 
278.191 30.473 277.75 30.262 277.289 30.121 c 276.824 29.98 276.336 
29.91 275.82 29.91 c 274.496 29.91 273.453 30.316 272.691 31.125 c 
271.93 31.938 271.547 33.043 271.547 34.445 c 271.547 35.852 271.93 
36.961 272.691 37.77 c 273.453 38.582 274.496 38.988 275.82 38.988 c 
276.344 38.988 276.836 38.918 277.297 38.781 c 277.762 38.641 278.195 
38.434 278.602 38.156 c f
279.84 33.848 3.156 -0.957 re f
313.801 43.199 m 313.801 47.199 l S
313.801 388.801 m 313.801 384.801 l S
307.738 37.859 m 307.738 31.055 l 309.168 31.055 l 310.375 31.055 
311.262 31.328 311.82 31.875 c 312.379 32.422 312.66 33.285 312.66 
34.465 c 312.66 35.637 312.379 36.496 311.82 37.039 c 311.262 37.586 
310.375 37.859 309.168 37.859 c h
306.555 38.832 m 308.988 38.832 l 310.684 38.832 311.926 38.477 312.719 
37.773 c 313.512 37.066 313.91 35.965 313.91 34.465 c 313.91 32.957 
313.512 31.848 312.711 31.141 c 311.918 30.434 310.676 30.082 308.988 
30.082 c 306.555 30.082 l h
306.555 38.832 m f
320.137 37.605 m 320.137 34.344 l 323.398 34.344 l 323.398 33.348 l 
320.137 33.348 l 320.137 30.082 l 319.152 30.082 l 319.152 33.348 l 
315.891 33.348 l 315.891 34.344 l 319.152 34.344 l 319.152 37.605 l h
320.137 37.605 m f
351 43.199 m 351 47.199 l S
351 388.801 m 351 384.801 l S
347.457 37.859 m 347.457 31.055 l 348.887 31.055 l 350.094 31.055 
350.98 31.328 351.539 31.875 c 352.098 32.422 352.379 33.285 352.379 
34.465 c 352.379 35.637 352.098 36.496 351.539 37.039 c 350.98 37.586 
350.094 37.859 348.887 37.859 c h
346.273 38.832 m 348.707 38.832 l 350.402 38.832 351.645 38.477 352.438 
37.773 c 353.23 37.066 353.629 35.965 353.629 34.465 c 353.629 32.957 
353.23 31.848 352.43 31.141 c 351.637 30.434 350.395 30.082 348.707 
30.082 c 346.273 30.082 l h
346.273 38.832 m f
354.922 33.848 3.16 -0.957 re f
388.199 43.199 m 388.199 47.199 l S
388.199 388.801 m 388.199 384.801 l S
381.785 38.832 m 387.316 38.832 l 387.316 37.832 l 382.969 37.832 l 
382.969 35.242 l 387.133 35.242 l 387.133 34.25 l 382.969 34.25 l 
382.969 31.078 l 387.422 31.078 l 387.422 30.082 l 381.785 30.082 l h
381.785 38.832 m f
393.707 37.605 m 393.707 34.344 l 396.973 34.344 l 396.973 33.348 l 
393.707 33.348 l 393.707 30.082 l 392.723 30.082 l 392.723 33.348 l 
389.461 33.348 l 389.461 34.344 l 392.723 34.344 l 392.723 37.605 l h
393.707 37.605 m f
425.398 43.199 m 425.398 47.199 l S
425.398 388.801 m 425.398 384.801 l S
421.504 38.832 m 427.035 38.832 l 427.035 37.832 l 422.688 37.832 l 
422.688 35.242 l 426.852 35.242 l 426.852 34.25 l 422.688 34.25 l 
422.688 31.078 l 427.141 31.078 l 427.141 30.082 l 421.504 30.082 l h
421.504 38.832 m f
428.496 33.848 3.156 -0.957 re f
462.602 43.199 m 462.602 47.199 l S
462.602 388.801 m 462.602 384.801 l S
441.555 33.359 m 441.555 34.148 441.391 34.773 441.062 35.223 c 440.738 
35.676 440.289 35.898 439.719 35.898 c 439.148 35.898 438.699 35.676 
438.375 35.223 c 438.047 34.773 437.883 34.148 437.883 33.359 c 437.883 
32.566 438.047 31.941 438.375 31.492 c 438.699 31.039 439.148 30.816 
439.719 30.816 c 440.289 30.816 440.738 31.039 441.062 31.492 c 441.391 
31.941 441.555 32.566 441.555 33.359 c 437.883 35.648 m 438.109 36.039 
438.398 36.328 438.742 36.516 c 439.09 36.707 439.5 36.801 439.98 
36.801 c 440.781 36.801 441.426 36.484 441.926 35.852 c 442.422 35.219 
442.672 34.391 442.672 33.359 c 442.672 32.328 442.422 31.492 441.926 
30.859 c 441.426 30.227 440.781 29.91 439.98 29.91 c 439.5 29.91 439.09 
30.008 438.742 30.195 c 438.398 30.387 438.109 30.676 437.883 31.066 c 
437.883 30.082 l 436.801 30.082 l 436.801 39.199 l 437.883 39.199 l h
437.883 35.648 m f
450.07 33.633 m 450.07 33.105 l 445.113 33.105 l 445.164 32.363 445.387 
31.797 445.785 31.41 c 446.188 31.02 446.742 30.828 447.457 30.828 c 
447.871 30.828 448.273 30.875 448.664 30.977 c 449.051 31.078 449.438 
31.23 449.82 31.438 c 449.82 30.414 l 449.434 30.25 449.035 30.125 
448.629 30.039 c 448.223 29.953 447.812 29.91 447.395 29.91 c 446.348 
29.91 445.52 30.215 444.906 30.824 c 444.297 31.434 443.988 32.258 
443.988 33.301 c 443.988 34.375 444.281 35.227 444.859 35.855 c 445.441 
36.484 446.223 36.801 447.207 36.801 c 448.09 36.801 448.789 36.516 
449.301 35.949 c 449.816 35.383 450.07 34.609 450.07 33.633 c 448.992 
33.949 m 448.988 34.539 448.82 35.008 448.5 35.359 c 448.176 35.711 
447.75 35.891 447.219 35.891 c 446.617 35.891 446.137 35.719 445.773 
35.379 c 445.414 35.039 445.207 34.559 445.148 33.941 c h
448.992 33.949 m f
451.84 39.199 1.078 -9.117 re f
457.719 35.891 m 457.141 35.891 456.684 35.664 456.348 35.211 c 456.012 
34.762 455.844 34.141 455.844 33.359 c 455.844 32.574 456.008 31.953 
456.344 31.504 c 456.68 31.051 457.137 30.828 457.719 30.828 c 458.293 
30.828 458.746 31.051 459.082 31.504 c 459.418 31.957 459.586 32.578 
459.586 33.359 c 459.586 34.137 459.418 34.75 459.082 35.207 c 458.746 
35.66 458.293 35.891 457.719 35.891 c 457.719 36.801 m 458.656 36.801 
459.391 36.496 459.926 35.887 c 460.461 35.277 460.73 34.434 460.73 
33.359 c 460.73 32.285 460.461 31.441 459.926 30.828 c 459.391 30.219 
458.656 29.91 457.719 29.91 c 456.777 29.91 456.039 30.219 455.504 
30.828 c 454.973 31.441 454.707 32.285 454.707 33.359 c 454.707 34.434 
454.973 35.277 455.504 35.887 c 456.039 36.496 456.777 36.801 457.719 
36.801 c f
461.891 36.645 m 462.969 36.645 l 464.316 31.523 l 465.656 36.645 l 
466.93 36.645 l 468.277 31.523 l 469.621 36.645 l 470.699 36.645 l 
468.98 30.082 l 467.707 30.082 l 466.297 35.461 l 464.879 30.082 l 
463.605 30.082 l h
461.891 36.645 m f
476.312 38.832 m 480.957 38.832 l 480.957 37.832 l 477.395 37.832 l 
477.395 35.691 l 477.566 35.75 477.738 35.793 477.91 35.82 c 478.082 
35.852 478.254 35.863 478.426 35.863 c 479.402 35.863 480.176 35.598 
480.746 35.062 c 481.316 34.527 481.602 33.801 481.602 32.891 c 481.602 
31.949 481.309 31.215 480.723 30.691 c 480.137 30.172 479.309 29.91 
478.242 29.91 c 477.875 29.91 477.504 29.941 477.121 30.004 c 476.742 
30.066 476.348 30.16 475.941 30.285 c 475.941 31.477 l 476.293 31.285 
476.656 31.145 477.031 31.051 c 477.406 30.957 477.801 30.91 478.219 
30.91 c 478.895 30.91 479.43 31.086 479.824 31.441 c 480.219 31.797 
480.418 32.277 480.418 32.891 c 480.418 33.496 480.219 33.98 479.824 
34.336 c 479.43 34.691 478.895 34.867 478.219 34.867 c 477.902 34.867 
477.586 34.832 477.273 34.766 c 476.961 34.695 476.637 34.586 476.312 
34.438 c h
476.312 38.832 m f
486.465 38.051 m 485.855 38.051 485.398 37.75 485.09 37.152 c 484.781 
36.551 484.629 35.652 484.629 34.445 c 484.629 33.25 484.781 32.348 
485.09 31.75 c 485.398 31.148 485.855 30.848 486.465 30.848 c 487.078 
30.848 487.539 31.148 487.844 31.75 c 488.152 32.348 488.305 33.25 
488.305 34.445 c 488.305 35.652 488.152 36.551 487.844 37.152 c 487.539 
37.75 487.078 38.051 486.465 38.051 c 486.465 38.988 m 487.445 38.988 
488.195 38.602 488.711 37.824 c 489.23 37.047 489.488 35.922 489.488 
34.445 c 489.488 32.973 489.23 31.852 488.711 31.074 c 488.195 30.297 
487.445 29.91 486.465 29.91 c 485.484 29.91 484.734 30.297 484.219 
31.074 c 483.699 31.852 483.441 32.973 483.441 34.445 c 483.441 35.922 
483.699 37.047 484.219 37.824 c 484.734 38.602 485.484 38.988 486.465 
38.988 c f
499.801 43.199 m 499.801 47.199 l S
499.801 388.801 m 499.801 384.801 l S
173.664 16.828 m 173.664 17.609 173.504 18.211 173.18 18.641 c 172.859 
19.07 172.406 19.285 171.824 19.285 c 171.246 19.285 170.797 19.07 
170.477 18.641 c 170.152 18.211 169.992 17.609 169.992 16.828 c 169.992 
16.047 170.152 15.445 170.477 15.016 c 170.797 14.586 171.246 14.371 
171.824 14.371 c 172.406 14.371 172.859 14.586 173.18 15.016 c 173.504 
15.445 173.664 16.047 173.664 16.828 c 174.742 14.281 m 174.742 13.164 
174.496 12.336 174 11.789 c 173.504 11.246 172.742 10.973 171.719 
10.973 c 171.34 10.973 170.984 11 170.648 11.059 c 170.312 11.113 
169.984 11.199 169.668 11.316 c 169.668 12.367 l 169.984 12.195 170.297 
12.066 170.605 11.988 c 170.914 11.906 171.23 11.863 171.551 11.863 c 
172.258 11.863 172.785 12.047 173.137 12.418 c 173.488 12.785 173.664 
13.344 173.664 14.09 c 173.664 14.625 l 173.441 14.234 173.156 13.945 
172.809 13.754 c 172.461 13.562 172.047 13.469 171.562 13.469 c 170.758 
13.469 170.109 13.773 169.617 14.387 c 169.125 15 168.879 15.812 
168.879 16.828 c 168.879 17.84 169.125 18.656 169.617 19.266 c 170.109 
19.883 170.758 20.188 171.562 20.188 c 172.047 20.188 172.461 20.094 
172.809 19.902 c 173.156 19.711 173.441 19.422 173.664 19.035 c 173.664 
20.031 l 174.742 20.031 l h
174.742 14.281 m f
180.766 19.023 m 180.645 19.094 180.512 19.145 180.371 19.176 c 180.227 
19.211 180.07 19.227 179.898 19.227 c 179.289 19.227 178.82 19.031 
178.496 18.633 c 178.168 18.238 178.008 17.668 178.008 16.926 c 178.008 
13.469 l 176.922 13.469 l 176.922 20.031 l 178.008 20.031 l 178.008 
19.012 l 178.234 19.41 178.527 19.703 178.891 19.898 c 179.254 20.09 
179.695 20.188 180.215 20.188 c 180.289 20.188 180.371 20.184 180.461 
20.172 c 180.551 20.164 180.652 20.148 180.762 20.129 c h
180.766 19.023 m f
184.879 16.766 m 184.008 16.766 183.406 16.668 183.07 16.469 c 182.734 
16.27 182.566 15.93 182.566 15.449 c 182.566 15.066 182.691 14.762 
182.941 14.535 c 183.195 14.312 183.539 14.203 183.973 14.203 c 184.57 
14.203 185.051 14.414 185.41 14.836 c 185.773 15.262 185.953 15.824 
185.953 16.527 c 185.953 16.766 l h
187.031 17.211 m 187.031 13.469 l 185.953 13.469 l 185.953 14.465 l 
185.707 14.066 185.398 13.773 185.031 13.582 c 184.664 13.391 184.215 
13.297 183.684 13.297 c 183.012 13.297 182.477 13.484 182.082 13.863 c 
181.684 14.242 181.488 14.746 181.488 15.379 c 181.488 16.117 181.734 
16.672 182.227 17.047 c 182.723 17.422 183.461 17.609 184.441 17.609 c 
185.953 17.609 l 185.953 17.719 l 185.953 18.215 185.789 18.598 185.465 
18.867 c 185.137 19.141 184.68 19.273 184.09 19.273 c 183.715 19.273 
183.348 19.23 182.992 19.141 c 182.637 19.051 182.297 18.914 181.969 
18.734 c 181.969 19.734 l 182.363 19.887 182.746 20 183.117 20.074 c 
183.488 20.148 183.848 20.188 184.199 20.188 c 185.148 20.188 185.859 
19.941 186.328 19.449 c 186.797 18.957 187.031 18.211 187.031 17.211 c f
193.57 19.035 m 193.57 22.586 l 194.648 22.586 l 194.648 13.469 l 
193.57 13.469 l 193.57 14.453 l 193.344 14.062 193.055 13.773 192.711 
13.582 c 192.363 13.391 191.949 13.297 191.465 13.297 c 190.672 13.297 
190.027 13.613 189.527 14.246 c 189.031 14.879 188.781 15.711 188.781 
16.742 c 188.781 17.773 189.031 18.605 189.527 19.238 c 190.027 19.871 
190.672 20.188 191.465 20.188 c 191.949 20.188 192.363 20.094 192.711 
19.902 c 193.055 19.715 193.344 19.426 193.57 19.035 c 189.895 16.742 m 
189.895 15.953 190.059 15.328 190.387 14.879 c 190.711 14.426 191.16 
14.203 191.73 14.203 c 192.301 14.203 192.746 14.426 193.074 14.879 c 
193.402 15.328 193.57 15.953 193.57 16.742 c 193.57 17.535 193.402 
18.156 193.074 18.609 c 192.746 19.062 192.301 19.285 191.73 19.285 c 
191.16 19.285 190.711 19.062 190.387 18.609 c 190.059 18.156 189.895 
17.535 189.895 16.742 c f
196.867 20.031 m 197.945 20.031 l 197.945 13.469 l 196.867 13.469 l h
196.867 22.586 m 197.945 22.586 l 197.945 21.219 l 196.867 21.219 l h
196.867 22.586 m f
205.656 17.43 m 205.656 13.469 l 204.578 13.469 l 204.578 17.395 l 
204.578 18.016 204.457 18.48 204.215 18.789 c 203.973 19.098 203.609 
19.25 203.125 19.25 c 202.543 19.25 202.086 19.066 201.75 18.695 c 
201.414 18.324 201.246 17.816 201.246 17.176 c 201.246 13.469 l 200.16 
13.469 l 200.16 20.031 l 201.246 20.031 l 201.246 19.012 l 201.504 
19.406 201.809 19.699 202.156 19.895 c 202.504 20.09 202.91 20.188 
203.367 20.188 c 204.121 20.188 204.691 19.953 205.078 19.488 c 205.465 
19.023 205.656 18.336 205.656 17.43 c f
212.125 16.828 m 212.125 17.609 211.965 18.211 211.641 18.641 c 211.32 
19.07 210.867 19.285 210.285 19.285 c 209.707 19.285 209.258 19.07 
208.938 18.641 c 208.613 18.211 208.453 17.609 208.453 16.828 c 208.453 
16.047 208.613 15.445 208.938 15.016 c 209.258 14.586 209.707 14.371 
210.285 14.371 c 210.867 14.371 211.32 14.586 211.641 15.016 c 211.965 
15.445 212.125 16.047 212.125 16.828 c 213.203 14.281 m 213.203 13.164 
212.957 12.336 212.461 11.789 c 211.965 11.246 211.203 10.973 210.18 
10.973 c 209.801 10.973 209.445 11 209.109 11.059 c 208.773 11.113 
208.445 11.199 208.129 11.316 c 208.129 12.367 l 208.445 12.195 208.758 
12.066 209.066 11.988 c 209.375 11.906 209.691 11.863 210.012 11.863 c 
210.719 11.863 211.246 12.047 211.598 12.418 c 211.949 12.785 212.125 
13.344 212.125 14.09 c 212.125 14.625 l 211.902 14.234 211.617 13.945 
211.27 13.754 c 210.922 13.562 210.508 13.469 210.023 13.469 c 209.219 
13.469 208.57 13.773 208.078 14.387 c 207.586 15 207.34 15.812 207.34 
16.828 c 207.34 17.84 207.586 18.656 208.078 19.266 c 208.57 19.883 
209.219 20.188 210.023 20.188 c 210.508 20.188 210.922 20.094 211.27 
19.902 c 211.617 19.711 211.902 19.422 212.125 19.035 c 212.125 20.031 
l 213.203 20.031 l h
213.203 14.281 m f
222.562 22.586 m 222.562 21.688 l 221.531 21.688 l 221.145 21.688 
220.875 21.609 220.723 21.453 c 220.574 21.297 220.5 21.016 220.5 
20.609 c 220.5 20.031 l 222.273 20.031 l 222.273 19.191 l 220.5 19.191 
l 220.5 13.469 l 219.414 13.469 l 219.414 19.191 l 218.383 19.191 l 
218.383 20.031 l 219.414 20.031 l 219.414 20.488 l 219.414 21.219 
219.586 21.75 219.926 22.082 c 220.266 22.418 220.805 22.586 221.543 
22.586 c h
222.562 22.586 m f
226.008 19.273 m 225.43 19.273 224.973 19.051 224.637 18.598 c 224.301 
18.148 224.133 17.527 224.133 16.742 c 224.133 15.957 224.297 15.34 
224.633 14.891 c 224.965 14.438 225.426 14.211 226.008 14.211 c 226.582 
14.211 227.035 14.438 227.371 14.891 c 227.707 15.344 227.875 15.961 
227.875 16.742 c 227.875 17.52 227.707 18.137 227.371 18.594 c 227.035 
19.047 226.582 19.273 226.008 19.273 c 226.008 20.188 m 226.945 20.188 
227.68 19.883 228.215 19.273 c 228.75 18.664 229.02 17.82 229.02 16.742 
c 229.02 15.672 228.75 14.828 228.215 14.215 c 227.68 13.602 226.945 
13.297 226.008 13.297 c 225.066 13.297 224.328 13.602 223.793 14.215 c 
223.262 14.828 222.996 15.672 222.996 16.742 c 222.996 17.82 223.262 
18.664 223.793 19.273 c 224.328 19.883 225.066 20.188 226.008 20.188 c f
234.609 19.023 m 234.488 19.094 234.355 19.145 234.211 19.176 c 234.07 
19.211 233.914 19.227 233.742 19.227 c 233.133 19.227 232.664 19.031 
232.336 18.633 c 232.012 18.238 231.848 17.668 231.848 16.926 c 231.848 
13.469 l 230.766 13.469 l 230.766 20.031 l 231.848 20.031 l 231.848 
19.012 l 232.074 19.41 232.371 19.703 232.734 19.898 c 233.098 20.09 
233.539 20.188 234.059 20.188 c 234.133 20.188 234.215 20.184 234.305 
20.172 c 234.395 20.164 234.492 20.148 234.602 20.129 c h
234.609 19.023 m f
240.574 22.219 m 240.574 18.965 l 239.578 18.965 l 239.578 22.219 l h
242.789 22.219 m 242.789 18.965 l 241.793 18.965 l 241.793 22.219 l h
242.789 22.219 m f
251.672 21.543 m 251.672 20.297 l 251.273 20.668 250.848 20.941 250.395 
21.125 c 249.945 21.309 249.465 21.402 248.957 21.402 c 247.957 21.402 
247.191 21.094 246.66 20.484 c 246.129 19.875 245.863 18.988 245.863 
17.832 c 245.863 16.68 246.129 15.797 246.66 15.188 c 247.191 14.578 
247.957 14.27 248.957 14.27 c 249.465 14.27 249.945 14.363 250.395 
14.547 c 250.848 14.73 251.273 15.008 251.672 15.379 c 251.672 14.141 l 
251.258 13.859 250.82 13.648 250.355 13.508 c 249.891 13.367 249.402 
13.297 248.887 13.297 c 247.562 13.297 246.52 13.703 245.758 14.512 c 
244.996 15.324 244.617 16.43 244.617 17.832 c 244.617 19.238 244.996 
20.348 245.758 21.156 c 246.52 21.969 247.562 22.375 248.887 22.375 c 
249.41 22.375 249.902 22.305 250.367 22.168 c 250.828 22.027 251.266 
21.82 251.672 21.543 c f
255.996 19.273 m 255.418 19.273 254.961 19.051 254.625 18.598 c 254.289 
18.148 254.121 17.527 254.121 16.742 c 254.121 15.957 254.285 15.34 
254.621 14.891 c 254.953 14.438 255.414 14.211 255.996 14.211 c 256.57 
14.211 257.023 14.438 257.359 14.891 c 257.695 15.344 257.863 15.961 
257.863 16.742 c 257.863 17.52 257.695 18.137 257.359 18.594 c 257.023 
19.047 256.57 19.273 255.996 19.273 c 255.996 20.188 m 256.934 20.188 
257.668 19.883 258.203 19.273 c 258.738 18.664 259.008 17.82 259.008 
16.742 c 259.008 15.672 258.738 14.828 258.203 14.215 c 257.668 13.602 
256.934 13.297 255.996 13.297 c 255.055 13.297 254.316 13.602 253.781 
14.215 c 253.25 14.828 252.984 15.672 252.984 16.742 c 252.984 17.82 
253.25 18.664 253.781 19.273 c 254.316 19.883 255.055 20.188 255.996 
20.188 c f
266.25 17.43 m 266.25 13.469 l 265.172 13.469 l 265.172 17.395 l 
265.172 18.016 265.051 18.48 264.809 18.789 c 264.566 19.098 264.203 
19.25 263.719 19.25 c 263.137 19.25 262.676 19.066 262.34 18.695 c 
262.004 18.324 261.836 17.816 261.836 17.176 c 261.836 13.469 l 260.754 
13.469 l 260.754 20.031 l 261.836 20.031 l 261.836 19.012 l 262.094 
19.406 262.398 19.699 262.746 19.895 c 263.098 20.09 263.5 20.188 
263.957 20.188 c 264.711 20.188 265.281 19.953 265.668 19.488 c 266.055 
19.023 266.25 18.336 266.25 17.43 c f
271.723 22.586 m 271.723 21.688 l 270.691 21.688 l 270.305 21.688 
270.035 21.609 269.883 21.453 c 269.734 21.297 269.66 21.016 269.66 
20.609 c 269.66 20.031 l 271.434 20.031 l 271.434 19.191 l 269.66 
19.191 l 269.66 13.469 l 268.574 13.469 l 268.574 19.191 l 267.543 
19.191 l 267.543 20.031 l 268.574 20.031 l 268.574 20.488 l 268.574 
21.219 268.746 21.75 269.086 22.082 c 269.426 22.418 269.965 22.586 
270.703 22.586 c h
271.723 22.586 m f
272.625 20.031 m 273.703 20.031 l 273.703 13.469 l 272.625 13.469 l h
272.625 22.586 m 273.703 22.586 l 273.703 21.219 l 272.625 21.219 l h
272.625 22.586 m f
280.277 16.828 m 280.277 17.609 280.113 18.211 279.793 18.641 c 279.473 
19.07 279.02 19.285 278.438 19.285 c 277.859 19.285 277.41 19.07 
277.086 18.641 c 276.766 18.211 276.602 17.609 276.602 16.828 c 276.602 
16.047 276.766 15.445 277.086 15.016 c 277.41 14.586 277.859 14.371 
278.438 14.371 c 279.02 14.371 279.473 14.586 279.793 15.016 c 280.113 
15.445 280.277 16.047 280.277 16.828 c 281.355 14.281 m 281.355 13.164 
281.105 12.336 280.609 11.789 c 280.113 11.246 279.355 10.973 278.332 
10.973 c 277.953 10.973 277.594 11 277.258 11.059 c 276.922 11.113 
276.598 11.199 276.281 11.316 c 276.281 12.367 l 276.598 12.195 276.91 
12.066 277.219 11.988 c 277.527 11.906 277.84 11.863 278.16 11.863 c 
278.867 11.863 279.398 12.047 279.75 12.418 c 280.102 12.785 280.277 
13.344 280.277 14.09 c 280.277 14.625 l 280.055 14.234 279.77 13.945 
279.422 13.754 c 279.074 13.562 278.656 13.469 278.172 13.469 c 277.367 
13.469 276.719 13.773 276.227 14.387 c 275.734 15 275.488 15.812 
275.488 16.828 c 275.488 17.84 275.734 18.656 276.227 19.266 c 276.719 
19.883 277.367 20.188 278.172 20.188 c 278.656 20.188 279.074 20.094 
279.422 19.902 c 279.77 19.711 280.055 19.422 280.277 19.035 c 280.277 
20.031 l 281.355 20.031 l h
281.355 14.281 m f
283.465 16.059 m 283.465 20.031 l 284.543 20.031 l 284.543 16.098 l 
284.543 15.477 284.664 15.012 284.902 14.699 c 285.148 14.391 285.512 
14.234 285.996 14.234 c 286.578 14.234 287.035 14.422 287.375 14.793 c 
287.711 15.164 287.883 15.668 287.883 16.312 c 287.883 20.031 l 288.961 
20.031 l 288.961 13.469 l 287.883 13.469 l 287.883 14.477 l 287.621 
14.078 287.316 13.781 286.969 13.59 c 286.625 13.395 286.223 13.297 
285.766 13.297 c 285.012 13.297 284.441 13.531 284.051 14 c 283.66 
14.469 283.465 15.156 283.465 16.059 c f
294.984 19.023 m 294.863 19.094 294.73 19.145 294.586 19.176 c 294.445 
19.211 294.289 19.227 294.117 19.227 c 293.508 19.227 293.039 19.031 
292.711 18.633 c 292.387 18.238 292.223 17.668 292.223 16.926 c 292.223 
13.469 l 291.141 13.469 l 291.141 20.031 l 292.223 20.031 l 292.223 
19.012 l 292.449 19.41 292.746 19.703 293.109 19.898 c 293.473 20.09 
293.914 20.188 294.434 20.188 c 294.508 20.188 294.59 20.184 294.68 
20.172 c 294.77 20.164 294.867 20.148 294.977 20.129 c h
294.984 19.023 m f
301.457 17.02 m 301.457 16.492 l 296.5 16.492 l 296.547 15.75 296.77 
15.184 297.172 14.797 c 297.57 14.406 298.129 14.211 298.844 14.211 c 
299.258 14.211 299.66 14.262 300.047 14.363 c 300.438 14.465 300.824 
14.617 301.207 14.82 c 301.207 13.801 l 300.82 13.637 300.422 13.512 
300.016 13.426 c 299.609 13.34 299.199 13.297 298.781 13.297 c 297.734 
13.297 296.902 13.602 296.293 14.211 c 295.68 14.82 295.375 15.645 
295.375 16.688 c 295.375 17.758 295.664 18.609 296.246 19.242 c 296.824 
19.871 297.609 20.188 298.594 20.188 c 299.477 20.188 300.172 19.902 
300.688 19.336 c 301.199 18.766 301.457 17.996 301.457 17.02 c 300.379 
17.336 m 300.371 17.926 300.207 18.395 299.883 18.746 c 299.562 19.098 
299.137 19.273 298.605 19.273 c 298.004 19.273 297.52 19.105 297.16 
18.766 c 296.797 18.426 296.59 17.945 296.535 17.328 c h
300.379 17.336 m f
312.656 17.02 m 312.656 16.492 l 307.699 16.492 l 307.746 15.75 307.969 
15.184 308.367 14.797 c 308.77 14.406 309.324 14.211 310.043 14.211 c 
310.453 14.211 310.855 14.262 311.246 14.363 c 311.633 14.465 312.02 
14.617 312.402 14.82 c 312.402 13.801 l 312.016 13.637 311.621 13.512 
311.215 13.426 c 310.809 13.34 310.395 13.297 309.977 13.297 c 308.93 
13.297 308.102 13.602 307.488 14.211 c 306.879 14.82 306.574 15.645 
306.574 16.688 c 306.574 17.758 306.863 18.609 307.441 19.242 c 308.023 
19.871 308.805 20.188 309.789 20.188 c 310.672 20.188 311.371 19.902 
311.883 19.336 c 312.398 18.766 312.656 17.996 312.656 17.02 c 311.578 
17.336 m 311.57 17.926 311.402 18.395 311.082 18.746 c 310.758 19.098 
310.332 19.273 309.801 19.273 c 309.199 19.273 308.719 19.105 308.355 
18.766 c 307.996 18.426 307.789 17.945 307.734 17.328 c h
311.578 17.336 m f
319.879 17.43 m 319.879 13.469 l 318.801 13.469 l 318.801 17.395 l 
318.801 18.016 318.68 18.48 318.438 18.789 c 318.195 19.098 317.832 
19.25 317.348 19.25 c 316.766 19.25 316.309 19.066 315.973 18.695 c 
315.633 18.324 315.465 17.816 315.465 17.176 c 315.465 13.469 l 314.383 
13.469 l 314.383 20.031 l 315.465 20.031 l 315.465 19.012 l 315.727 
19.406 316.027 19.699 316.379 19.895 c 316.727 20.09 317.133 20.188 
317.59 20.188 c 318.344 20.188 318.914 19.953 319.301 19.488 c 319.688 
19.023 319.879 18.336 319.879 17.43 c f
323.098 21.895 m 323.098 20.031 l 325.316 20.031 l 325.316 19.191 l 
323.098 19.191 l 323.098 15.629 l 323.098 15.094 323.168 14.75 323.316 
14.598 c 323.461 14.445 323.762 14.371 324.211 14.371 c 325.316 14.371 
l 325.316 13.469 l 324.211 13.469 l 323.379 13.469 322.805 13.625 
322.488 13.934 c 322.172 14.246 322.012 14.809 322.012 15.629 c 322.012 
19.191 l 321.223 19.191 l 321.223 20.031 l 322.012 20.031 l 322.012 
21.895 l h
323.098 21.895 m f
326.734 20.031 m 327.812 20.031 l 327.812 13.469 l 326.734 13.469 l h
326.734 22.586 m 327.812 22.586 l 327.812 21.219 l 326.734 21.219 l h
326.734 22.586 m f
331.137 21.895 m 331.137 20.031 l 333.355 20.031 l 333.355 19.191 l 
331.137 19.191 l 331.137 15.629 l 331.137 15.094 331.207 14.75 331.355 
14.598 c 331.5 14.445 331.801 14.371 332.25 14.371 c 333.355 14.371 l 
333.355 13.469 l 332.25 13.469 l 331.418 13.469 330.844 13.625 330.527 
13.934 c 330.211 14.246 330.051 14.809 330.051 15.629 c 330.051 19.191 
l 329.262 19.191 l 329.262 20.031 l 330.051 20.031 l 330.051 21.895 l h
331.137 21.895 m f
337.504 12.859 m 337.199 12.078 336.902 11.566 336.613 11.332 c 336.324 
11.094 335.938 10.973 335.453 10.973 c 334.59 10.973 l 334.59 11.875 l 
335.227 11.875 l 335.523 11.875 335.75 11.945 335.914 12.086 c 336.082 
12.227 336.262 12.559 336.461 13.082 c 336.652 13.574 l 334 20.031 l 
335.145 20.031 l 337.195 14.898 l 339.246 20.031 l 340.387 20.031 l h
337.504 12.859 m f
346.758 21.895 m 346.758 20.031 l 348.977 20.031 l 348.977 19.191 l 
346.758 19.191 l 346.758 15.629 l 346.758 15.094 346.828 14.75 346.977 
14.598 c 347.121 14.445 347.422 14.371 347.871 14.371 c 348.977 14.371 
l 348.977 13.469 l 347.871 13.469 l 347.039 13.469 346.465 13.625 
346.148 13.934 c 345.832 14.246 345.672 14.809 345.672 15.629 c 345.672 
19.191 l 344.883 19.191 l 344.883 20.031 l 345.672 20.031 l 345.672 
21.895 l h
346.758 21.895 m f
353.379 16.766 m 352.508 16.766 351.902 16.668 351.566 16.469 c 351.23 
16.27 351.062 15.93 351.062 15.449 c 351.062 15.066 351.188 14.762 
351.441 14.535 c 351.695 14.312 352.035 14.203 352.469 14.203 c 353.066 
14.203 353.547 14.414 353.91 14.836 c 354.27 15.262 354.449 15.824 
354.449 16.527 c 354.449 16.766 l h
355.527 17.211 m 355.527 13.469 l 354.449 13.469 l 354.449 14.465 l 
354.203 14.066 353.898 13.773 353.531 13.582 c 353.16 13.391 352.711 
13.297 352.18 13.297 c 351.512 13.297 350.977 13.484 350.578 13.863 c 
350.184 14.242 349.984 14.746 349.984 15.379 c 349.984 16.117 350.23 
16.672 350.727 17.047 c 351.219 17.422 351.957 17.609 352.938 17.609 c 
354.449 17.609 l 354.449 17.719 l 354.449 18.215 354.289 18.598 353.961 
18.867 c 353.633 19.141 353.176 19.273 352.586 19.273 c 352.211 19.273 
351.848 19.23 351.488 19.141 c 351.133 19.051 350.793 18.914 350.465 
18.734 c 350.465 19.734 l 350.859 19.887 351.242 20 351.613 20.074 c 
351.984 20.148 352.348 20.188 352.695 20.188 c 353.648 20.188 354.355 
19.941 354.824 19.449 c 355.293 18.957 355.527 18.211 355.527 17.211 c f
362.066 16.828 m 362.066 17.609 361.906 18.211 361.582 18.641 c 361.262 
19.07 360.809 19.285 360.227 19.285 c 359.648 19.285 359.199 19.07 
358.875 18.641 c 358.555 18.211 358.395 17.609 358.395 16.828 c 358.395 
16.047 358.555 15.445 358.875 15.016 c 359.199 14.586 359.648 14.371 
360.227 14.371 c 360.809 14.371 361.262 14.586 361.582 15.016 c 361.906 
15.445 362.066 16.047 362.066 16.828 c 363.145 14.281 m 363.145 13.164 
362.895 12.336 362.398 11.789 c 361.906 11.246 361.145 10.973 360.121 
10.973 c 359.742 10.973 359.387 11 359.051 11.059 c 358.715 11.113 
358.387 11.199 358.07 11.316 c 358.07 12.367 l 358.387 12.195 358.699 
12.066 359.008 11.988 c 359.316 11.906 359.633 11.863 359.953 11.863 c 
360.66 11.863 361.188 12.047 361.539 12.418 c 361.891 12.785 362.066 
13.344 362.066 14.09 c 362.066 14.625 l 361.844 14.234 361.559 13.945 
361.211 13.754 c 360.863 13.562 360.449 13.469 359.961 13.469 c 359.16 
13.469 358.512 13.773 358.02 14.387 c 357.527 15 357.281 15.812 357.281 
16.828 c 357.281 17.84 357.527 18.656 358.02 19.266 c 358.512 19.883 
359.16 20.188 359.961 20.188 c 360.449 20.188 360.863 20.094 361.211 
19.902 c 361.559 19.711 361.844 19.422 362.066 19.035 c 362.066 20.031 
l 363.145 20.031 l h
363.145 14.281 m f
369.547 19.836 m 369.547 18.816 l 369.246 18.973 368.93 19.09 368.602 
19.168 c 368.273 19.246 367.934 19.285 367.578 19.285 c 367.043 19.285 
366.645 19.203 366.375 19.039 c 366.109 18.875 365.977 18.629 365.977 
18.301 c 365.977 18.051 366.07 17.855 366.262 17.715 c 366.453 17.57 
366.836 17.434 367.418 17.305 c 367.785 17.223 l 368.551 17.059 369.094 
16.828 369.418 16.531 c 369.738 16.23 369.902 15.812 369.902 15.281 c 
369.902 14.668 369.66 14.188 369.176 13.828 c 368.695 13.477 368.031 
13.297 367.188 13.297 c 366.836 13.297 366.469 13.332 366.09 13.402 c 
365.707 13.469 365.305 13.57 364.887 13.707 c 364.887 14.82 l 365.285 
14.613 365.676 14.457 366.062 14.355 c 366.449 14.254 366.832 14.203 
367.211 14.203 c 367.719 14.203 368.109 14.289 368.383 14.461 c 368.656 
14.637 368.793 14.879 368.793 15.195 c 368.793 15.488 368.695 15.715 
368.496 15.871 c 368.301 16.027 367.867 16.176 367.199 16.32 c 366.824 
16.41 l 366.156 16.551 365.676 16.766 365.375 17.059 c 365.082 17.348 
364.934 17.746 364.934 18.254 c 364.934 18.871 365.152 19.348 365.59 
19.684 c 366.027 20.02 366.648 20.188 367.453 20.188 c 367.852 20.188 
368.223 20.16 368.574 20.102 c 368.93 20.043 369.254 19.953 369.547 
19.836 c f
378.02 22.574 m 377.5 21.676 377.109 20.785 376.855 19.906 c 376.602 
19.027 376.473 18.137 376.473 17.234 c 376.473 16.332 376.602 15.441 
376.859 14.555 c 377.113 13.672 377.504 12.781 378.02 11.887 c 377.082 
11.887 l 376.5 12.805 376.059 13.707 375.77 14.594 c 375.477 15.48 
375.332 16.359 375.332 17.234 c 375.332 18.105 375.477 18.984 375.766 
19.867 c 376.055 20.75 376.496 21.652 377.082 22.574 c h
378.02 22.574 m f
380.16 22.219 m 385.691 22.219 l 385.691 21.219 l 381.344 21.219 l 
381.344 18.629 l 385.508 18.629 l 385.508 17.633 l 381.344 17.633 l 
381.344 14.465 l 385.797 14.465 l 385.797 13.469 l 380.16 13.469 l h
380.16 22.219 m f
386.527 22.219 m 393.93 22.219 l 393.93 21.219 l 390.824 21.219 l 
390.824 13.469 l 389.637 13.469 l 389.637 21.219 l 386.527 21.219 l h
386.527 22.219 m f
396.027 16.766 m 395.156 16.766 394.555 16.668 394.219 16.469 c 393.883 
16.27 393.715 15.93 393.715 15.449 c 393.715 15.066 393.84 14.762 
394.09 14.535 c 394.344 14.312 394.688 14.203 395.121 14.203 c 395.719 
14.203 396.199 14.414 396.559 14.836 c 396.922 15.262 397.102 15.824 
397.102 16.527 c 397.102 16.766 l h
398.18 17.211 m 398.18 13.469 l 397.102 13.469 l 397.102 14.465 l 
396.855 14.066 396.547 13.773 396.18 13.582 c 395.812 13.391 395.363 
13.297 394.832 13.297 c 394.16 13.297 393.625 13.484 393.23 13.863 c 
392.832 14.242 392.637 14.746 392.637 15.379 c 392.637 16.117 392.883 
16.672 393.375 17.047 c 393.871 17.422 394.609 17.609 395.59 17.609 c 
397.102 17.609 l 397.102 17.719 l 397.102 18.215 396.938 18.598 396.613 
18.867 c 396.285 19.141 395.828 19.273 395.238 19.273 c 394.863 19.273 
394.496 19.23 394.141 19.141 c 393.785 19.051 393.445 18.914 393.117 
18.734 c 393.117 19.734 l 393.512 19.887 393.895 20 394.266 20.074 c 
394.637 20.148 394.996 20.188 395.348 20.188 c 396.297 20.188 397.008 
19.941 397.477 19.449 c 397.945 18.957 398.18 18.211 398.18 17.211 c f
404.719 16.828 m 404.719 17.609 404.555 18.211 404.234 18.641 c 403.914 
19.07 403.461 19.285 402.879 19.285 c 402.301 19.285 401.852 19.07 
401.527 18.641 c 401.207 18.211 401.043 17.609 401.043 16.828 c 401.043 
16.047 401.207 15.445 401.527 15.016 c 401.852 14.586 402.301 14.371 
402.879 14.371 c 403.461 14.371 403.914 14.586 404.234 15.016 c 404.555 
15.445 404.719 16.047 404.719 16.828 c 405.797 14.281 m 405.797 13.164 
405.547 12.336 405.051 11.789 c 404.555 11.246 403.797 10.973 402.773 
10.973 c 402.395 10.973 402.035 11 401.699 11.059 c 401.363 11.113 
401.039 11.199 400.723 11.316 c 400.723 12.367 l 401.039 12.195 401.352 
12.066 401.66 11.988 c 401.969 11.906 402.281 11.863 402.602 11.863 c 
403.309 11.863 403.84 12.047 404.191 12.418 c 404.543 12.785 404.719 
13.344 404.719 14.09 c 404.719 14.625 l 404.496 14.234 404.211 13.945 
403.863 13.754 c 403.516 13.562 403.098 13.469 402.613 13.469 c 401.809 
13.469 401.16 13.773 400.668 14.387 c 400.176 15 399.93 15.812 399.93 
16.828 c 399.93 17.84 400.176 18.656 400.668 19.266 c 401.16 19.883 
401.809 20.188 402.613 20.188 c 403.098 20.188 403.516 20.094 403.863 
19.902 c 404.211 19.711 404.496 19.422 404.719 19.035 c 404.719 20.031 
l 405.797 20.031 l h
405.797 14.281 m f
412.199 19.836 m 412.199 18.816 l 411.895 18.973 411.578 19.09 411.25 
19.168 c 410.922 19.246 410.582 19.285 410.23 19.285 c 409.695 19.285 
409.293 19.203 409.027 19.039 c 408.758 18.875 408.625 18.629 408.625 
18.301 c 408.625 18.051 408.723 17.855 408.914 17.715 c 409.105 17.57 
409.488 17.434 410.066 17.305 c 410.438 17.223 l 411.203 17.059 411.746 
16.828 412.066 16.531 c 412.391 16.23 412.551 15.812 412.551 15.281 c 
412.551 14.668 412.312 14.188 411.828 13.828 c 411.344 13.477 410.684 
13.297 409.84 13.297 c 409.488 13.297 409.121 13.332 408.738 13.402 c 
408.359 13.469 407.957 13.57 407.535 13.707 c 407.535 14.82 l 407.934 
14.613 408.328 14.457 408.715 14.355 c 409.102 14.254 409.484 14.203 
409.863 14.203 c 410.371 14.203 410.762 14.289 411.031 14.461 c 411.309 
14.637 411.445 14.879 411.445 15.195 c 411.445 15.488 411.344 15.715 
411.148 15.871 c 410.949 16.027 410.52 16.176 409.852 16.32 c 409.477 
16.41 l 408.809 16.551 408.324 16.766 408.027 17.059 c 407.73 17.348 
407.582 17.746 407.582 18.254 c 407.582 18.871 407.801 19.348 408.238 
19.684 c 408.676 20.02 409.297 20.188 410.102 20.188 c 410.5 20.188 
410.875 20.16 411.227 20.102 c 411.578 20.043 411.902 19.953 412.199 
19.836 c f
414.098 22.574 m 415.035 22.574 l 415.621 21.652 416.059 20.75 416.352 
19.867 c 416.641 18.984 416.789 18.105 416.789 17.234 c 416.789 16.359 
416.641 15.48 416.352 14.594 c 416.059 13.707 415.621 12.805 415.035 
11.887 c 414.098 11.887 l 414.617 12.781 415.004 13.672 415.262 14.555 
c 415.52 15.441 415.645 16.332 415.645 17.234 c 415.645 18.137 415.52 
19.027 415.262 19.906 c 415.004 20.785 414.617 21.676 414.098 22.574 c f
419.969 22.219 m 419.969 18.965 l 418.973 18.965 l 418.973 22.219 l h
422.184 22.219 m 422.184 18.965 l 421.188 18.965 l 421.188 22.219 l h
422.184 22.219 m f
72 43.199 m 76 43.199 l f
72 43.199 m 76 43.199 l S
518.398 43.199 m 514.398 43.199 l f
518.398 43.199 m 514.398 43.199 l S
65.766 47.859 m 65.156 47.859 64.699 47.559 64.391 46.957 c 64.086 
46.359 63.934 45.457 63.934 44.254 c 63.934 43.055 64.086 42.156 64.391 
41.555 c 64.699 40.957 65.156 40.656 65.766 40.656 c 66.379 40.656 
66.84 40.957 67.148 41.555 c 67.453 42.156 67.609 43.055 67.609 44.254 
c 67.609 45.457 67.453 46.359 67.148 46.957 c 66.84 47.559 66.379 
47.859 65.766 47.859 c 65.766 48.797 m 66.75 48.797 67.496 48.406 
68.016 47.629 c 68.531 46.855 68.793 45.73 68.793 44.254 c 68.793 
42.781 68.531 41.656 68.016 40.879 c 67.496 40.105 66.75 39.719 65.766 
39.719 c 64.785 39.719 64.039 40.105 63.52 40.879 c 63.004 41.656 
62.746 42.781 62.746 44.254 c 62.746 45.73 63.004 46.855 63.52 47.629 c 
64.039 48.406 64.785 48.797 65.766 48.797 c f
72 112.32 m 76 112.32 l f
72 112.32 m 76 112.32 l S
518.398 112.32 m 514.398 112.32 l f
518.398 112.32 m 514.398 112.32 l S
41.062 110.004 m 42.996 110.004 l 42.996 116.68 l 40.895 116.258 l 
40.895 117.336 l 42.984 117.758 l 44.168 117.758 l 44.168 110.004 l 
46.102 110.004 l 46.102 109.008 l 41.062 109.008 l h
41.062 110.004 m f
51.023 116.977 m 50.414 116.977 49.957 116.676 49.648 116.078 c 49.344 
115.48 49.191 114.578 49.191 113.375 c 49.191 112.176 49.344 111.277 
49.648 110.676 c 49.957 110.074 50.414 109.777 51.023 109.777 c 51.637 
109.777 52.098 110.074 52.402 110.676 c 52.711 111.277 52.863 112.176 
52.863 113.375 c 52.863 114.578 52.711 115.48 52.402 116.078 c 52.098 
116.676 51.637 116.977 51.023 116.977 c 51.023 117.914 m 52.004 117.914 
52.754 117.527 53.273 116.75 c 53.789 115.977 54.047 114.852 54.047 
113.375 c 54.047 111.902 53.789 110.777 53.273 110 c 52.754 109.227 
52.004 108.84 51.023 108.84 c 50.043 108.84 49.293 109.227 48.777 110 c 
48.258 110.777 48 111.902 48 113.375 c 48 114.852 48.258 115.977 48.777 
116.75 c 49.293 117.527 50.043 117.914 51.023 117.914 c f
58.66 116.977 m 58.051 116.977 57.59 116.676 57.285 116.078 c 56.977 
115.48 56.824 114.578 56.824 113.375 c 56.824 112.176 56.977 111.277 
57.285 110.676 c 57.59 110.074 58.051 109.777 58.66 109.777 c 59.273 
109.777 59.73 110.074 60.039 110.676 c 60.348 111.277 60.5 112.176 60.5 
113.375 c 60.5 114.578 60.348 115.48 60.039 116.078 c 59.73 116.676 
59.273 116.977 58.66 116.977 c 58.66 117.914 m 59.641 117.914 60.391 
117.527 60.906 116.75 c 61.426 115.977 61.684 114.852 61.684 113.375 c 
61.684 111.902 61.426 110.777 60.906 110 c 60.391 109.227 59.641 108.84 
58.66 108.84 c 57.68 108.84 56.93 109.227 56.41 110 c 55.895 110.777 
55.637 111.902 55.637 113.375 c 55.637 114.852 55.895 115.977 56.41 
116.75 c 56.93 117.527 57.68 117.914 58.66 117.914 c f
66.293 116.977 m 65.684 116.977 65.227 116.676 64.918 116.078 c 64.613 
115.48 64.461 114.578 64.461 113.375 c 64.461 112.176 64.613 111.277 
64.918 110.676 c 65.227 110.074 65.684 109.777 66.293 109.777 c 66.906 
109.777 67.367 110.074 67.672 110.676 c 67.98 111.277 68.133 112.176 
68.133 113.375 c 68.133 114.578 67.98 115.48 67.672 116.078 c 67.367 
116.676 66.906 116.977 66.293 116.977 c 66.293 117.914 m 67.273 117.914 
68.023 117.527 68.543 116.75 c 69.059 115.977 69.316 114.852 69.316 
113.375 c 69.316 111.902 69.059 110.777 68.543 110 c 68.023 109.227 
67.273 108.84 66.293 108.84 c 65.312 108.84 64.562 109.227 64.047 110 c 
63.531 110.777 63.27 111.902 63.27 113.375 c 63.27 114.852 63.531 
115.977 64.047 116.75 c 64.562 117.527 65.312 117.914 66.293 117.914 c f
72 181.441 m 76 181.441 l f
72 181.441 m 76 181.441 l S
518.398 181.441 m 514.398 181.441 l f
518.398 181.441 m 514.398 181.441 l S
41.438 179.125 m 45.57 179.125 l 45.57 178.129 l 40.016 178.129 l 
40.016 179.125 l 40.465 179.59 41.078 180.215 41.852 180.996 c 42.629 
181.781 43.113 182.285 43.312 182.512 c 43.691 182.938 43.957 183.297 
44.105 183.594 c 44.258 183.887 44.332 184.176 44.332 184.461 c 44.332 
184.926 44.172 185.305 43.844 185.598 c 43.52 185.891 43.094 186.039 
42.57 186.039 c 42.199 186.039 41.805 185.977 41.395 185.848 c 40.984 
185.719 40.543 185.523 40.074 185.258 c 40.074 186.457 l 40.551 186.648 
40.996 186.793 41.41 186.891 c 41.824 186.984 42.203 187.035 42.547 
187.035 c 43.453 187.035 44.176 186.809 44.715 186.355 c 45.254 185.902 
45.523 185.297 45.523 184.539 c 45.523 184.18 45.453 183.84 45.32 
183.516 c 45.188 183.195 44.941 182.816 44.586 182.379 c 44.488 182.266 
44.176 181.938 43.652 181.395 c 43.129 180.855 42.391 180.098 41.438 
179.125 c f
50.586 186.098 m 49.977 186.098 49.52 185.797 49.211 185.199 c 48.902 
184.598 48.75 183.699 48.75 182.492 c 48.75 181.297 48.902 180.395 
49.211 179.797 c 49.52 179.195 49.977 178.895 50.586 178.895 c 51.199 
178.895 51.66 179.195 51.965 179.797 c 52.273 180.395 52.426 181.297 
52.426 182.492 c 52.426 183.699 52.273 184.598 51.965 185.199 c 51.66 
185.797 51.199 186.098 50.586 186.098 c 50.586 187.035 m 51.566 187.035 
52.316 186.648 52.832 185.871 c 53.352 185.094 53.609 183.969 53.609 
182.492 c 53.609 181.02 53.352 179.898 52.832 179.121 c 52.316 178.344 
51.566 177.957 50.586 177.957 c 49.605 177.957 48.855 178.344 48.34 
179.121 c 47.82 179.898 47.562 181.02 47.562 182.492 c 47.562 183.969 
47.82 185.094 48.34 185.871 c 48.855 186.648 49.605 187.035 50.586 
187.035 c f
58.219 186.098 m 57.609 186.098 57.152 185.797 56.844 185.199 c 56.539 
184.598 56.387 183.699 56.387 182.492 c 56.387 181.297 56.539 180.395 
56.844 179.797 c 57.152 179.195 57.609 178.895 58.219 178.895 c 58.832 
178.895 59.293 179.195 59.598 179.797 c 59.906 180.395 60.062 181.297 
60.062 182.492 c 60.062 183.699 59.906 184.598 59.598 185.199 c 59.293 
185.797 58.832 186.098 58.219 186.098 c 58.219 187.035 m 59.199 187.035 
59.949 186.648 60.469 185.871 c 60.984 185.094 61.242 183.969 61.242 
182.492 c 61.242 181.02 60.984 179.898 60.469 179.121 c 59.949 178.344 
59.199 177.957 58.219 177.957 c 57.238 177.957 56.492 178.344 55.973 
179.121 c 55.457 179.898 55.195 181.02 55.195 182.492 c 55.195 183.969 
55.457 185.094 55.973 185.871 c 56.492 186.648 57.238 187.035 58.219 
187.035 c f
65.855 186.098 m 65.246 186.098 64.789 185.797 64.48 185.199 c 64.172 
184.598 64.02 183.699 64.02 182.492 c 64.02 181.297 64.172 180.395 
64.48 179.797 c 64.789 179.195 65.246 178.895 65.855 178.895 c 66.469 
178.895 66.93 179.195 67.234 179.797 c 67.543 180.395 67.695 181.297 
67.695 182.492 c 67.695 183.699 67.543 184.598 67.234 185.199 c 66.93 
185.797 66.469 186.098 65.855 186.098 c 65.855 187.035 m 66.836 187.035 
67.586 186.648 68.102 185.871 c 68.621 185.094 68.879 183.969 68.879 
182.492 c 68.879 181.02 68.621 179.898 68.102 179.121 c 67.586 178.344 
66.836 177.957 65.855 177.957 c 64.875 177.957 64.125 178.344 63.609 
179.121 c 63.09 179.898 62.832 181.02 62.832 182.492 c 62.832 183.969 
63.09 185.094 63.609 185.871 c 64.125 186.648 64.875 187.035 65.855 
187.035 c f
72 250.559 m 76 250.559 l f
72 250.559 m 76 250.559 l S
518.398 250.559 m 514.398 250.559 l f
518.398 250.559 m 514.398 250.559 l S
44.043 251.965 m 44.609 251.844 45.051 251.594 45.367 251.207 c 45.688 
250.828 45.844 250.355 45.844 249.793 c 45.844 248.93 45.547 248.262 
44.953 247.785 c 44.359 247.312 43.516 247.078 42.422 247.078 c 42.059 
247.078 41.68 247.113 41.289 247.188 c 40.902 247.258 40.5 247.367 
40.086 247.512 c 40.086 248.656 l 40.414 248.465 40.773 248.32 41.164 
248.223 c 41.555 248.125 41.965 248.074 42.391 248.074 c 43.129 248.074 
43.695 248.223 44.086 248.516 c 44.473 248.809 44.668 249.234 44.668 
249.793 c 44.668 250.309 44.488 250.711 44.125 251 c 43.766 251.293 
43.262 251.438 42.617 251.438 c 41.598 251.438 l 41.598 252.41 l 42.664 
252.41 l 43.246 252.41 43.691 252.527 44 252.758 c 44.309 252.992 
44.465 253.328 44.465 253.766 c 44.465 254.215 44.305 254.559 43.984 
254.797 c 43.668 255.039 43.211 255.16 42.617 255.16 c 42.293 255.16 
41.945 255.125 41.574 255.051 c 41.203 254.984 40.793 254.875 40.348 
254.727 c 40.348 255.781 l 40.801 255.906 41.219 256 41.613 256.062 c 
42.004 256.125 42.375 256.156 42.723 256.156 c 43.621 256.156 44.332 
255.949 44.855 255.543 c 45.379 255.133 45.641 254.582 45.641 253.887 c 
45.641 253.402 45.5 252.992 45.223 252.66 c 44.945 252.328 44.551 
252.094 44.043 251.965 c f
50.621 255.219 m 50.012 255.219 49.555 254.918 49.246 254.316 c 48.941 
253.719 48.785 252.816 48.785 251.613 c 48.785 250.414 48.941 249.516 
49.246 248.914 c 49.555 248.316 50.012 248.016 50.621 248.016 c 51.234 
248.016 51.695 248.316 52 248.914 c 52.309 249.516 52.461 250.414 
52.461 251.613 c 52.461 252.816 52.309 253.719 52 254.316 c 51.695 
254.918 51.234 255.219 50.621 255.219 c 50.621 256.156 m 51.602 256.156 
52.352 255.766 52.867 254.992 c 53.387 254.215 53.645 253.09 53.645 
251.613 c 53.645 250.141 53.387 249.016 52.867 248.242 c 52.352 247.465 
51.602 247.078 50.621 247.078 c 49.641 247.078 48.891 247.465 48.375 
248.242 c 47.855 249.016 47.598 250.141 47.598 251.613 c 47.598 253.09 
47.855 254.215 48.375 254.992 c 48.891 255.766 49.641 256.156 50.621 
256.156 c f
58.254 255.219 m 57.645 255.219 57.188 254.918 56.879 254.316 c 56.574 
253.719 56.422 252.816 56.422 251.613 c 56.422 250.414 56.574 249.516 
56.879 248.914 c 57.188 248.316 57.645 248.016 58.254 248.016 c 58.867 
248.016 59.328 248.316 59.637 248.914 c 59.941 249.516 60.098 250.414 
60.098 251.613 c 60.098 252.816 59.941 253.719 59.637 254.316 c 59.328 
254.918 58.867 255.219 58.254 255.219 c 58.254 256.156 m 59.238 256.156 
59.984 255.766 60.504 254.992 c 61.02 254.215 61.281 253.09 61.281 
251.613 c 61.281 250.141 61.02 249.016 60.504 248.242 c 59.984 247.465 
59.238 247.078 58.254 247.078 c 57.273 247.078 56.527 247.465 56.008 
248.242 c 55.492 249.016 55.234 250.141 55.234 251.613 c 55.234 253.09 
55.492 254.215 56.008 254.992 c 56.527 255.766 57.273 256.156 58.254 
256.156 c f
65.891 255.219 m 65.281 255.219 64.824 254.918 64.516 254.316 c 64.211 
253.719 64.055 252.816 64.055 251.613 c 64.055 250.414 64.211 249.516 
64.516 248.914 c 64.824 248.316 65.281 248.016 65.891 248.016 c 66.504 
248.016 66.965 248.316 67.27 248.914 c 67.578 249.516 67.73 250.414 
67.73 251.613 c 67.73 252.816 67.578 253.719 67.27 254.316 c 66.965 
254.918 66.504 255.219 65.891 255.219 c 65.891 256.156 m 66.871 256.156 
67.621 255.766 68.137 254.992 c 68.656 254.215 68.914 253.09 68.914 
251.613 c 68.914 250.141 68.656 249.016 68.137 248.242 c 67.621 247.465 
66.871 247.078 65.891 247.078 c 64.91 247.078 64.16 247.465 63.645 
248.242 c 63.125 249.016 62.867 250.141 62.867 251.613 c 62.867 253.09 
63.125 254.215 63.645 254.992 c 64.16 255.766 64.91 256.156 65.891 
256.156 c f
72 319.68 m 76 319.68 l f
72 319.68 m 76 319.68 l S
518.398 319.68 m 514.398 319.68 l f
518.398 319.68 m 514.398 319.68 l S
43.379 324.086 m 40.391 319.414 l 43.379 319.414 l h
43.066 325.117 m 44.559 325.117 l 44.559 319.414 l 45.805 319.414 l 
45.805 318.43 l 44.559 318.43 l 44.559 316.367 l 43.379 316.367 l 
43.379 318.43 l 39.43 318.43 l 39.43 319.574 l h
43.066 325.117 m f
50.293 324.336 m 49.684 324.336 49.227 324.039 48.918 323.438 c 48.613 
322.84 48.457 321.938 48.457 320.734 c 48.457 319.535 48.613 318.637 
48.918 318.035 c 49.227 317.438 49.684 317.137 50.293 317.137 c 50.906 
317.137 51.367 317.438 51.672 318.035 c 51.98 318.637 52.133 319.535 
52.133 320.734 c 52.133 321.938 51.98 322.84 51.672 323.438 c 51.367 
324.039 50.906 324.336 50.293 324.336 c 50.293 325.273 m 51.273 325.273 
52.023 324.887 52.539 324.109 c 53.059 323.336 53.316 322.211 53.316 
320.734 c 53.316 319.262 53.059 318.137 52.539 317.359 c 52.023 316.586 
51.273 316.199 50.293 316.199 c 49.312 316.199 48.562 316.586 48.047 
317.359 c 47.527 318.137 47.27 319.262 47.27 320.734 c 47.27 322.211 
47.527 323.336 48.047 324.109 c 48.562 324.887 49.312 325.273 50.293 
325.273 c f
57.926 324.336 m 57.316 324.336 56.859 324.039 56.551 323.438 c 56.246 
322.84 56.094 321.938 56.094 320.734 c 56.094 319.535 56.246 318.637 
56.551 318.035 c 56.859 317.438 57.316 317.137 57.926 317.137 c 58.539 
317.137 59 317.438 59.309 318.035 c 59.613 318.637 59.77 319.535 59.77 
320.734 c 59.77 321.938 59.613 322.84 59.309 323.438 c 59 324.039 
58.539 324.336 57.926 324.336 c 57.926 325.273 m 58.91 325.273 59.656 
324.887 60.176 324.109 c 60.691 323.336 60.953 322.211 60.953 320.734 c 
60.953 319.262 60.691 318.137 60.176 317.359 c 59.656 316.586 58.91 
316.199 57.926 316.199 c 56.945 316.199 56.199 316.586 55.68 317.359 c 
55.164 318.137 54.906 319.262 54.906 320.734 c 54.906 322.211 55.164 
323.336 55.68 324.109 c 56.199 324.887 56.945 325.273 57.926 325.273 c f
65.562 324.336 m 64.953 324.336 64.496 324.039 64.188 323.438 c 63.883 
322.84 63.727 321.938 63.727 320.734 c 63.727 319.535 63.883 318.637 
64.188 318.035 c 64.496 317.438 64.953 317.137 65.562 317.137 c 66.176 
317.137 66.637 317.438 66.941 318.035 c 67.25 318.637 67.402 319.535 
67.402 320.734 c 67.402 321.938 67.25 322.84 66.941 323.438 c 66.637 
324.039 66.176 324.336 65.562 324.336 c 65.562 325.273 m 66.543 325.273 
67.293 324.887 67.809 324.109 c 68.328 323.336 68.586 322.211 68.586 
320.734 c 68.586 319.262 68.328 318.137 67.809 317.359 c 67.293 316.586 
66.543 316.199 65.562 316.199 c 64.582 316.199 63.832 316.586 63.316 
317.359 c 62.797 318.137 62.539 319.262 62.539 320.734 c 62.539 322.211 
62.797 323.336 63.316 324.109 c 63.832 324.887 64.582 325.273 65.562 
325.273 c f
72 388.801 m 76 388.801 l f
72 388.801 m 76 388.801 l S
518.398 388.801 m 514.398 388.801 l f
518.398 388.801 m 514.398 388.801 l S
40.48 394.238 m 45.125 394.238 l 45.125 393.238 l 41.562 393.238 l 
41.562 391.098 l 41.734 391.156 41.906 391.199 42.078 391.227 c 42.25 
391.258 42.422 391.27 42.594 391.27 c 43.57 391.27 44.344 391.004 
44.914 390.469 c 45.484 389.934 45.77 389.211 45.77 388.297 c 45.77 
387.355 45.477 386.621 44.891 386.102 c 44.305 385.578 43.477 385.316 
42.41 385.316 c 42.043 385.316 41.672 385.348 41.289 385.41 c 40.91 
385.473 40.516 385.566 40.109 385.691 c 40.109 386.883 l 40.461 386.691 
40.824 386.551 41.199 386.457 c 41.574 386.363 41.969 386.316 42.387 
386.316 c 43.062 386.316 43.598 386.492 43.992 386.848 c 44.387 387.203 
44.586 387.688 44.586 388.297 c 44.586 388.906 44.387 389.387 43.992 
389.742 c 43.598 390.098 43.062 390.277 42.387 390.277 c 42.07 390.277 
41.754 390.242 41.441 390.172 c 41.125 390.102 40.805 389.992 40.48 
389.844 c h
40.48 394.238 m f
50.633 393.457 m 50.023 393.457 49.566 393.156 49.258 392.559 c 48.949 
391.957 48.797 391.059 48.797 389.855 c 48.797 388.656 48.949 387.754 
49.258 387.156 c 49.566 386.555 50.023 386.254 50.633 386.254 c 51.246 
386.254 51.707 386.555 52.012 387.156 c 52.32 387.754 52.473 388.656 
52.473 389.855 c 52.473 391.059 52.32 391.957 52.012 392.559 c 51.707 
393.156 51.246 393.457 50.633 393.457 c 50.633 394.395 m 51.613 394.395 
52.363 394.008 52.879 393.23 c 53.398 392.457 53.656 391.328 53.656 
389.855 c 53.656 388.383 53.398 387.258 52.879 386.48 c 52.363 385.707 
51.613 385.316 50.633 385.316 c 49.652 385.316 48.902 385.707 48.387 
386.48 c 47.867 387.258 47.609 388.383 47.609 389.855 c 47.609 391.328 
47.867 392.457 48.387 393.23 c 48.902 394.008 49.652 394.395 50.633 
394.395 c f
58.266 393.457 m 57.656 393.457 57.199 393.156 56.891 392.559 c 56.586 
391.957 56.434 391.059 56.434 389.855 c 56.434 388.656 56.586 387.754 
56.891 387.156 c 57.199 386.555 57.656 386.254 58.266 386.254 c 58.879 
386.254 59.34 386.555 59.645 387.156 c 59.953 387.754 60.109 388.656 
60.109 389.855 c 60.109 391.059 59.953 391.957 59.645 392.559 c 59.34 
393.156 58.879 393.457 58.266 393.457 c 58.266 394.395 m 59.246 394.395 
59.996 394.008 60.516 393.23 c 61.031 392.457 61.289 391.328 61.289 
389.855 c 61.289 388.383 61.031 387.258 60.516 386.48 c 59.996 385.707 
59.246 385.316 58.266 385.316 c 57.285 385.316 56.539 385.707 56.02 
386.48 c 55.504 387.258 55.242 388.383 55.242 389.855 c 55.242 391.328 
55.504 392.457 56.02 393.23 c 56.539 394.008 57.285 394.395 58.266 
394.395 c f
65.902 393.457 m 65.293 393.457 64.836 393.156 64.527 392.559 c 64.219 
391.957 64.066 391.059 64.066 389.855 c 64.066 388.656 64.219 387.754 
64.527 387.156 c 64.836 386.555 65.293 386.254 65.902 386.254 c 66.516 
386.254 66.977 386.555 67.281 387.156 c 67.59 387.754 67.742 388.656 
67.742 389.855 c 67.742 391.059 67.59 391.957 67.281 392.559 c 66.977 
393.156 66.516 393.457 65.902 393.457 c 65.902 394.395 m 66.883 394.395 
67.633 394.008 68.148 393.23 c 68.668 392.457 68.926 391.328 68.926 
389.855 c 68.926 388.383 68.668 387.258 68.148 386.48 c 67.633 385.707 
66.883 385.316 65.902 385.316 c 64.922 385.316 64.172 385.707 63.656 
386.48 c 63.137 387.258 62.879 388.383 62.879 389.855 c 62.879 391.328 
63.137 392.457 63.656 393.23 c 64.172 394.008 64.922 394.395 65.902 
394.395 c f
26.066 158.469 m 26.066 156.766 l 28.027 156.273 l 28.027 157.988 l h
22.734 157.59 m 25.168 156.98 l 25.168 158.691 l 22.734 159.309 l 
22.734 160.246 l 25.168 159.641 l 25.168 161.469 l 26.066 161.469 l 
26.066 159.414 l 28.027 158.934 l 28.027 160.797 l 28.922 160.797 l 
28.922 158.703 l 31.348 158.094 l 31.348 157.156 l 28.922 157.762 l 
28.922 156.043 l 31.348 155.438 l 31.348 154.496 l 28.922 155.105 l 
28.922 153.262 l 28.027 153.262 l 28.027 155.324 l 26.066 155.812 l 
26.066 153.93 l 25.168 153.93 l 25.168 156.043 l 22.734 156.641 l h
22.734 157.59 m f
28.758 167.223 m 24.785 167.223 l 24.785 168.301 l 28.719 168.301 l 
29.34 168.301 29.805 168.422 30.117 168.664 c 30.426 168.906 30.582 
169.27 30.582 169.754 c 30.582 170.336 30.395 170.797 30.023 171.133 c 
29.652 171.473 29.148 171.641 28.504 171.641 c 24.785 171.641 l 24.785 
172.719 l 31.348 172.719 l 31.348 171.641 l 30.34 171.641 l 30.738 
171.379 31.035 171.074 31.227 170.73 c 31.422 170.383 31.52 169.984 
31.52 169.527 c 31.52 168.773 31.285 168.199 30.816 167.809 c 30.348 
167.418 29.66 167.223 28.758 167.223 c f
25.793 178.742 m 25.723 178.621 25.672 178.488 25.641 178.348 c 25.605 
178.203 25.59 178.047 25.59 177.875 c 25.59 177.266 25.785 176.797 
26.184 176.473 c 26.578 176.145 27.148 175.98 27.891 175.98 c 31.348 
175.98 l 31.348 174.898 l 24.785 174.898 l 24.785 175.98 l 25.805 
175.98 l 25.406 176.211 25.109 176.504 24.918 176.867 c 24.727 177.23 
24.629 177.672 24.629 178.191 c 24.629 178.266 24.633 178.348 24.645 
178.438 c 24.652 178.527 24.668 178.629 24.688 178.738 c h
25.793 178.742 m f
22.23 179.875 m 22.23 180.953 l 31.348 180.953 l 31.348 179.875 l h
22.23 179.875 m f
24.98 187.391 m 26 187.391 l 25.844 187.086 25.727 186.77 25.648 
186.441 c 25.57 186.113 25.531 185.773 25.531 185.422 c 25.531 184.887 
25.613 184.484 25.777 184.219 c 25.938 183.949 26.188 183.816 26.516 
183.816 c 26.766 183.816 26.961 183.914 27.102 184.102 c 27.246 184.293 
27.383 184.68 27.512 185.258 c 27.594 185.629 l 27.758 186.395 27.988 
186.938 28.285 187.258 c 28.586 187.582 29 187.742 29.535 187.742 c 
30.148 187.742 30.629 187.5 30.984 187.02 c 31.34 186.535 31.52 185.875 
31.52 185.031 c 31.52 184.68 31.484 184.312 31.414 183.93 c 31.348 
183.551 31.246 183.148 31.109 182.727 c 29.996 182.727 l 30.203 183.125 
30.359 183.52 30.461 183.906 c 30.562 184.289 30.613 184.676 30.613 
185.055 c 30.613 185.562 30.527 185.953 30.355 186.223 c 30.18 186.496 
29.938 186.633 29.621 186.633 c 29.328 186.633 29.102 186.535 28.945 
186.34 c 28.789 186.141 28.641 185.711 28.496 185.039 c 28.406 184.664 
l 28.266 184 28.051 183.516 27.758 183.219 c 27.469 182.922 27.07 
182.773 26.562 182.773 c 25.945 182.773 25.469 182.992 25.133 183.43 c 
24.797 183.867 24.629 184.488 24.629 185.293 c 24.629 185.691 24.656 
186.066 24.715 186.418 c 24.773 186.77 24.859 187.094 24.98 187.391 c f
22.23 196.598 m 23.129 196.598 l 23.129 195.566 l 23.129 195.18 23.207 
194.91 23.363 194.758 c 23.52 194.609 23.801 194.535 24.207 194.535 c 
24.785 194.535 l 24.785 196.309 l 25.625 196.309 l 25.625 194.535 l 
31.348 194.535 l 31.348 193.449 l 25.625 193.449 l 25.625 192.418 l 
24.785 192.418 l 24.785 193.449 l 24.328 193.449 l 23.598 193.449 
23.066 193.621 22.734 193.961 c 22.398 194.301 22.23 194.84 22.23 
195.574 c h
22.23 196.598 m f
25.543 200.039 m 25.543 199.465 25.766 199.008 26.219 198.672 c 26.668 
198.332 27.289 198.164 28.074 198.164 c 28.859 198.164 29.477 198.332 
29.926 198.668 c 30.379 199 30.605 199.461 30.605 200.039 c 30.605 
200.617 30.379 201.07 29.926 201.406 c 29.473 201.742 28.855 201.91 
28.074 201.91 c 27.297 201.91 26.68 201.742 26.223 201.406 c 25.77 
201.07 25.543 200.617 25.543 200.039 c 24.629 200.039 m 24.629 200.977 
24.934 201.715 25.543 202.25 c 26.152 202.785 26.996 203.055 28.074 
203.055 c 29.145 203.055 29.988 202.785 30.602 202.25 c 31.215 201.715 
31.52 200.977 31.52 200.039 c 31.52 199.098 31.215 198.363 30.602 
197.828 c 29.988 197.297 29.145 197.031 28.074 197.031 c 26.996 197.031 
26.152 197.297 25.543 197.828 c 24.934 198.363 24.629 199.098 24.629 
200.039 c f
25.793 208.641 m 25.723 208.52 25.672 208.391 25.641 208.246 c 25.605 
208.105 25.59 207.949 25.59 207.777 c 25.59 207.168 25.785 206.699 
26.184 206.371 c 26.578 206.047 27.148 205.883 27.891 205.883 c 31.348 
205.883 l 31.348 204.797 l 24.785 204.797 l 24.785 205.883 l 25.805 
205.883 l 25.406 206.109 25.109 206.406 24.918 206.766 c 24.727 207.133 
24.629 207.574 24.629 208.094 c 24.629 208.168 24.633 208.25 24.645 
208.34 c 24.652 208.43 24.668 208.527 24.688 208.637 c h
25.793 208.641 m f
27.797 219.203 m 28.324 219.203 l 28.324 214.246 l 29.066 214.293 
29.633 214.516 30.02 214.914 c 30.41 215.316 30.605 215.875 30.605 
216.59 c 30.605 217 30.555 217.402 30.453 217.793 c 30.352 218.18 
30.199 218.566 29.996 218.949 c 31.016 218.949 l 31.18 218.562 31.305 
218.168 31.391 217.762 c 31.477 217.355 31.52 216.941 31.52 216.523 c 
31.52 215.477 31.215 214.648 30.605 214.035 c 29.996 213.426 29.172 
213.121 28.129 213.121 c 27.059 213.121 26.203 213.41 25.574 213.988 c 
24.945 214.57 24.629 215.352 24.629 216.336 c 24.629 217.219 24.914 
217.918 25.48 218.43 c 26.047 218.945 26.82 219.203 27.797 219.203 c 
27.48 218.125 m 26.891 218.117 26.422 217.953 26.07 217.629 c 25.719 
217.305 25.543 216.879 25.543 216.348 c 25.543 215.746 25.711 215.266 
26.051 214.902 c 26.391 214.543 26.871 214.336 27.488 214.281 c h
27.48 218.125 m f
28.051 223.953 m 28.051 223.082 28.148 222.48 28.348 222.145 c 28.547 
221.805 28.887 221.637 29.367 221.637 c 29.75 221.637 30.055 221.766 
30.281 222.016 c 30.504 222.27 30.613 222.613 30.613 223.043 c 30.613 
223.645 30.402 224.125 29.98 224.484 c 29.555 224.848 28.992 225.027 
28.289 225.027 c 28.051 225.027 l h
27.605 226.105 m 31.348 226.105 l 31.348 225.027 l 30.352 225.027 l 
30.75 224.781 31.043 224.473 31.234 224.105 c 31.422 223.738 31.52 
223.289 31.52 222.758 c 31.52 222.086 31.328 221.551 30.953 221.156 c 
30.574 220.758 30.07 220.559 29.438 220.559 c 28.699 220.559 28.145 
220.809 27.77 221.301 c 27.395 221.797 27.207 222.535 27.207 223.512 c 
27.207 225.027 l 27.098 225.027 l 26.602 225.027 26.219 224.863 25.949 
224.535 c 25.676 224.211 25.543 223.754 25.543 223.164 c 25.543 222.789 
25.586 222.422 25.676 222.066 c 25.766 221.711 25.902 221.371 26.082 
221.043 c 25.082 221.043 l 24.93 221.438 24.816 221.816 24.742 222.191 
c 24.668 222.562 24.629 222.922 24.629 223.273 c 24.629 224.223 24.875 
224.934 25.367 225.402 c 25.859 225.871 26.605 226.105 27.605 226.105 c f
25.035 233.047 m 26.047 233.047 l 25.875 232.742 25.75 232.438 25.668 
232.129 c 25.582 231.824 25.543 231.516 25.543 231.203 c 25.543 230.504 
25.762 229.957 26.207 229.57 c 26.648 229.184 27.27 228.992 28.074 
228.992 c 28.875 228.992 29.496 229.184 29.941 229.57 c 30.383 229.957 
30.605 230.504 30.605 231.203 c 30.605 231.516 30.562 231.824 30.477 
232.129 c 30.395 232.438 30.27 232.742 30.098 233.047 c 31.098 233.047 
l 31.238 232.746 31.344 232.434 31.41 232.113 c 31.484 231.789 31.52 
231.449 31.52 231.086 c 31.52 230.094 31.207 229.309 30.586 228.727 c 
29.965 228.145 29.129 227.855 28.074 227.855 c 27.004 227.855 26.16 
228.148 25.547 228.738 c 24.934 229.324 24.629 230.133 24.629 231.156 c 
24.629 231.488 24.664 231.812 24.73 232.125 c 24.797 232.441 24.902 
232.75 25.035 233.047 c f
27.387 240.379 m 31.348 240.379 l 31.348 239.301 l 27.422 239.301 l 
26.801 239.301 26.336 239.18 26.027 238.938 c 25.719 238.695 25.566 
238.332 25.566 237.848 c 25.566 237.266 25.75 236.805 26.121 236.469 c 
26.492 236.133 27 235.965 27.641 235.965 c 31.348 235.965 l 31.348 
234.879 l 22.23 234.879 l 22.23 235.965 l 25.805 235.965 l 25.41 
236.223 25.117 236.527 24.922 236.875 c 24.727 237.227 24.629 237.629 
24.629 238.086 c 24.629 238.84 24.859 239.41 25.328 239.797 c 25.793 
240.184 26.48 240.379 27.387 240.379 c f
25.793 250.145 m 25.723 250.023 25.672 249.891 25.641 249.75 c 25.605 
249.605 25.59 249.449 25.59 249.277 c 25.59 248.668 25.785 248.199 
26.184 247.875 c 26.578 247.547 27.148 247.383 27.891 247.383 c 31.348 
247.383 l 31.348 246.301 l 24.785 246.301 l 24.785 247.383 l 25.805 
247.383 l 25.406 247.613 25.109 247.906 24.918 248.27 c 24.727 248.633 
24.629 249.074 24.629 249.594 c 24.629 249.668 24.633 249.75 24.645 
249.84 c 24.652 249.93 24.668 250.031 24.688 250.141 c h
25.793 250.145 m f
28.051 254.258 m 28.051 253.387 28.148 252.785 28.348 252.449 c 28.547 
252.109 28.887 251.941 29.367 251.941 c 29.75 251.941 30.055 252.07 
30.281 252.32 c 30.504 252.574 30.613 252.918 30.613 253.348 c 30.613 
253.949 30.402 254.43 29.98 254.789 c 29.555 255.152 28.992 255.332 
28.289 255.332 c 28.051 255.332 l h
27.605 256.41 m 31.348 256.41 l 31.348 255.332 l 30.352 255.332 l 30.75 
255.086 31.043 254.777 31.234 254.41 c 31.422 254.043 31.52 253.594 
31.52 253.062 c 31.52 252.391 31.328 251.855 30.953 251.461 c 30.574 
251.062 30.07 250.863 29.438 250.863 c 28.699 250.863 28.145 251.113 
27.77 251.605 c 27.395 252.102 27.207 252.84 27.207 253.816 c 27.207 
255.332 l 27.098 255.332 l 26.602 255.332 26.219 255.168 25.949 254.84 
c 25.676 254.516 25.543 254.059 25.543 253.469 c 25.543 253.094 25.586 
252.727 25.676 252.371 c 25.766 252.016 25.902 251.676 26.082 251.348 c 
25.082 251.348 l 24.93 251.742 24.816 252.121 24.742 252.496 c 24.668 
252.867 24.629 253.227 24.629 253.578 c 24.629 254.527 24.875 255.238 
25.367 255.707 c 25.859 256.176 26.605 256.41 27.605 256.41 c f
22.922 259.695 m 24.785 259.695 l 24.785 261.914 l 25.625 261.914 l 
25.625 259.695 l 29.188 259.695 l 29.723 259.695 30.066 259.77 30.219 
259.914 c 30.371 260.062 30.445 260.359 30.445 260.809 c 30.445 261.914 
l 31.348 261.914 l 31.348 260.809 l 31.348 259.977 31.191 259.402 
30.883 259.086 c 30.57 258.77 30.008 258.613 29.188 258.613 c 25.625 
258.613 l 25.625 257.82 l 24.785 257.82 l 24.785 258.613 l 22.922 
258.613 l h
22.922 259.695 m f
24.785 263.336 m 24.785 264.414 l 31.348 264.414 l 31.348 263.336 l h
22.23 263.336 m 22.23 264.414 l 23.598 264.414 l 23.598 263.336 l h
22.23 263.336 m f
27.387 272.125 m 31.348 272.125 l 31.348 271.047 l 27.422 271.047 l 
26.801 271.047 26.336 270.926 26.027 270.684 c 25.719 270.441 25.566 
270.078 25.566 269.594 c 25.566 269.012 25.75 268.551 26.121 268.215 c 
26.492 267.879 27 267.711 27.641 267.711 c 31.348 267.711 l 31.348 
266.625 l 24.785 266.625 l 24.785 267.711 l 25.805 267.711 l 25.41 
267.969 25.117 268.273 24.922 268.621 c 24.727 268.973 24.629 269.375 
24.629 269.832 c 24.629 270.586 24.859 271.156 25.328 271.543 c 25.793 
271.93 26.48 272.125 27.387 272.125 c f
27.988 278.59 m 27.207 278.59 26.605 278.43 26.176 278.109 c 25.746 
277.785 25.531 277.336 25.531 276.754 c 25.531 276.176 25.746 275.727 
26.176 275.402 c 26.605 275.078 27.207 274.918 27.988 274.918 c 28.766 
274.918 29.371 275.078 29.801 275.402 c 30.23 275.727 30.445 276.176 
30.445 276.754 c 30.445 277.336 30.23 277.785 29.801 278.109 c 29.371 
278.43 28.766 278.59 27.988 278.59 c 30.535 279.668 m 31.652 279.668 
32.48 279.422 33.027 278.926 c 33.57 278.43 33.844 277.672 33.844 
276.648 c 33.844 276.27 33.816 275.91 33.758 275.574 c 33.703 275.238 
33.617 274.914 33.5 274.598 c 32.449 274.598 l 32.621 274.914 32.75 
275.227 32.828 275.535 c 32.91 275.844 32.953 276.156 32.953 276.477 c 
32.953 277.184 32.77 277.715 32.398 278.066 c 32.031 278.418 31.473 
278.59 30.727 278.59 c 30.191 278.59 l 30.582 278.371 30.871 278.086 
31.062 277.738 c 31.254 277.391 31.348 276.973 31.348 276.488 c 31.348 
275.684 31.043 275.035 30.43 274.543 c 29.816 274.051 29.004 273.805 
27.988 273.805 c 26.977 273.805 26.16 274.051 25.547 274.543 c 24.934 
275.035 24.629 275.684 24.629 276.488 c 24.629 276.973 24.723 277.391 
24.914 277.738 c 25.105 278.086 25.395 278.371 25.781 278.59 c 24.785 
278.59 l 24.785 279.668 l h
30.535 279.668 m f
1 w
72 388.801 m 518.398 388.801 l S
518.398 43.199 m 518.398 388.801 l S
72 43.199 m 518.398 43.199 l S
72 43.199 m 72 388.801 l S
90.125 46.828 m 94.258 46.828 l 94.258 45.832 l 88.703 45.832 l 88.703 
46.828 l 89.152 47.293 89.762 47.918 90.539 48.699 c 91.312 49.484 
91.801 49.988 92 50.219 c 92.379 50.645 92.645 51.004 92.793 51.297 c 
92.945 51.594 93.02 51.883 93.02 52.168 c 93.02 52.633 92.859 53.012 
92.531 53.305 c 92.203 53.598 91.781 53.746 91.258 53.746 c 90.887 
53.746 90.492 53.68 90.082 53.551 c 89.668 53.422 89.23 53.227 88.762 
52.965 c 88.762 54.16 l 89.238 54.352 89.684 54.496 90.094 54.594 c 
90.512 54.691 90.891 54.738 91.234 54.738 c 92.141 54.738 92.863 54.512 
93.402 54.059 c 93.941 53.605 94.211 53.004 94.211 52.246 c 94.211 
51.883 94.141 51.543 94.008 51.223 c 93.875 50.898 93.629 50.52 93.273 
50.082 c 93.176 49.969 92.863 49.641 92.34 49.102 c 91.816 48.559 
91.078 47.801 90.125 46.828 c f
128.59 53.664 m 127.98 53.664 127.523 53.363 127.215 52.766 c 126.91 
52.164 126.758 51.266 126.758 50.062 c 126.758 48.863 126.91 47.961 
127.215 47.363 c 127.523 46.762 127.98 46.461 128.59 46.461 c 129.203 
46.461 129.664 46.762 129.969 47.363 c 130.277 47.961 130.43 48.863 
130.43 50.062 c 130.43 51.266 130.277 52.164 129.969 52.766 c 129.664 
53.363 129.203 53.664 128.59 53.664 c 128.59 54.602 m 129.57 54.602 
130.32 54.215 130.84 53.438 c 131.355 52.664 131.613 51.535 131.613 
50.062 c 131.613 48.59 131.355 47.465 130.84 46.688 c 130.32 45.914 
129.57 45.523 128.59 45.523 c 127.609 45.523 126.863 45.914 126.344 
46.688 c 125.828 47.465 125.566 48.59 125.566 50.062 c 125.566 51.535 
125.828 52.664 126.344 53.438 c 126.863 54.215 127.609 54.602 128.59 
54.602 c f
165.789 53.664 m 165.18 53.664 164.723 53.363 164.414 52.766 c 164.109 
52.164 163.957 51.266 163.957 50.062 c 163.957 48.863 164.109 47.961 
164.414 47.363 c 164.723 46.762 165.18 46.461 165.789 46.461 c 166.402 
46.461 166.863 46.762 167.172 47.363 c 167.477 47.961 167.633 48.863 
167.633 50.062 c 167.633 51.266 167.477 52.164 167.172 52.766 c 166.863 
53.363 166.402 53.664 165.789 53.664 c 165.789 54.602 m 166.773 54.602 
167.52 54.215 168.039 53.438 c 168.555 52.664 168.816 51.535 168.816 
50.062 c 168.816 48.59 168.555 47.465 168.039 46.688 c 167.52 45.914 
166.773 45.523 165.789 45.523 c 164.809 45.523 164.062 45.914 163.543 
46.688 c 163.027 47.465 162.77 48.59 162.77 50.062 c 162.77 51.535 
163.027 52.664 163.543 53.438 c 164.062 54.215 164.809 54.602 165.789 
54.602 c f
202.992 53.664 m 202.383 53.664 201.922 53.363 201.617 52.766 c 201.309 
52.164 201.156 51.266 201.156 50.062 c 201.156 48.863 201.309 47.961 
201.617 47.363 c 201.922 46.762 202.383 46.461 202.992 46.461 c 203.605 
46.461 204.062 46.762 204.371 47.363 c 204.68 47.961 204.832 48.863 
204.832 50.062 c 204.832 51.266 204.68 52.164 204.371 52.766 c 204.062 
53.363 203.605 53.664 202.992 53.664 c 202.992 54.602 m 203.973 54.602 
204.723 54.215 205.238 53.438 c 205.758 52.664 206.016 51.535 206.016 
50.062 c 206.016 48.59 205.758 47.465 205.238 46.688 c 204.723 45.914 
203.973 45.523 202.992 45.523 c 202.012 45.523 201.262 45.914 200.742 
46.688 c 200.227 47.465 199.969 48.59 199.969 50.062 c 199.969 51.535 
200.227 52.664 200.742 53.438 c 201.262 54.215 202.012 54.602 202.992 
54.602 c f
240.191 53.664 m 239.582 53.664 239.125 53.363 238.816 52.766 c 238.508 
52.164 238.355 51.266 238.355 50.062 c 238.355 48.863 238.508 47.961 
238.816 47.363 c 239.125 46.762 239.582 46.461 240.191 46.461 c 240.805 
46.461 241.266 46.762 241.57 47.363 c 241.879 47.961 242.031 48.863 
242.031 50.062 c 242.031 51.266 241.879 52.164 241.57 52.766 c 241.266 
53.363 240.805 53.664 240.191 53.664 c 240.191 54.602 m 241.172 54.602 
241.922 54.215 242.438 53.438 c 242.957 52.664 243.215 51.535 243.215 
50.062 c 243.215 48.59 242.957 47.465 242.438 46.688 c 241.922 45.914 
241.172 45.523 240.191 45.523 c 239.211 45.523 238.461 45.914 237.945 
46.688 c 237.426 47.465 237.168 48.59 237.168 50.062 c 237.168 51.535 
237.426 52.664 237.945 53.438 c 238.461 54.215 239.211 54.602 240.191 
54.602 c f
277.391 53.664 m 276.781 53.664 276.324 53.363 276.016 52.766 c 275.711 
52.164 275.555 51.266 275.555 50.062 c 275.555 48.863 275.711 47.961 
276.016 47.363 c 276.324 46.762 276.781 46.461 277.391 46.461 c 278.004 
46.461 278.465 46.762 278.77 47.363 c 279.078 47.961 279.23 48.863 
279.23 50.062 c 279.23 51.266 279.078 52.164 278.77 52.766 c 278.465 
53.363 278.004 53.664 277.391 53.664 c 277.391 54.602 m 278.371 54.602 
279.121 54.215 279.637 53.438 c 280.156 52.664 280.414 51.535 280.414 
50.062 c 280.414 48.59 280.156 47.465 279.637 46.688 c 279.121 45.914 
278.371 45.523 277.391 45.523 c 276.41 45.523 275.66 45.914 275.145 
46.688 c 274.625 47.465 274.367 48.59 274.367 50.062 c 274.367 51.535 
274.625 52.664 275.145 53.438 c 275.66 54.215 276.41 54.602 277.391 
54.602 c f
314.59 53.664 m 313.98 53.664 313.523 53.363 313.215 52.766 c 312.91 
52.164 312.758 51.266 312.758 50.062 c 312.758 48.863 312.91 47.961 
313.215 47.363 c 313.523 46.762 313.98 46.461 314.59 46.461 c 315.203 
46.461 315.664 46.762 315.969 47.363 c 316.277 47.961 316.43 48.863 
316.43 50.062 c 316.43 51.266 316.277 52.164 315.969 52.766 c 315.664 
53.363 315.203 53.664 314.59 53.664 c 314.59 54.602 m 315.57 54.602 
316.32 54.215 316.84 53.438 c 317.355 52.664 317.613 51.535 317.613 
50.062 c 317.613 48.59 317.355 47.465 316.84 46.688 c 316.32 45.914 
315.57 45.523 314.59 45.523 c 313.609 45.523 312.863 45.914 312.344 
46.688 c 311.828 47.465 311.566 48.59 311.566 50.062 c 311.566 51.535 
311.828 52.664 312.344 53.438 c 312.863 54.215 313.609 54.602 314.59 
54.602 c f
351.789 53.664 m 351.18 53.664 350.723 53.363 350.414 52.766 c 350.109 
52.164 349.957 51.266 349.957 50.062 c 349.957 48.863 350.109 47.961 
350.414 47.363 c 350.723 46.762 351.18 46.461 351.789 46.461 c 352.402 
46.461 352.863 46.762 353.172 47.363 c 353.477 47.961 353.633 48.863 
353.633 50.062 c 353.633 51.266 353.477 52.164 353.172 52.766 c 352.863 
53.363 352.402 53.664 351.789 53.664 c 351.789 54.602 m 352.773 54.602 
353.52 54.215 354.039 53.438 c 354.555 52.664 354.816 51.535 354.816 
50.062 c 354.816 48.59 354.555 47.465 354.039 46.688 c 353.52 45.914 
352.773 45.523 351.789 45.523 c 350.809 45.523 350.062 45.914 349.543 
46.688 c 349.027 47.465 348.77 48.59 348.77 50.062 c 348.77 51.535 
349.027 52.664 349.543 53.438 c 350.062 54.215 350.809 54.602 351.789 
54.602 c f
388.992 53.664 m 388.383 53.664 387.922 53.363 387.617 52.766 c 387.309 
52.164 387.156 51.266 387.156 50.062 c 387.156 48.863 387.309 47.961 
387.617 47.363 c 387.922 46.762 388.383 46.461 388.992 46.461 c 389.605 
46.461 390.062 46.762 390.371 47.363 c 390.68 47.961 390.832 48.863 
390.832 50.062 c 390.832 51.266 390.68 52.164 390.371 52.766 c 390.062 
53.363 389.605 53.664 388.992 53.664 c 388.992 54.602 m 389.973 54.602 
390.723 54.215 391.238 53.438 c 391.758 52.664 392.016 51.535 392.016 
50.062 c 392.016 48.59 391.758 47.465 391.238 46.688 c 390.723 45.914 
389.973 45.523 388.992 45.523 c 388.012 45.523 387.262 45.914 386.742 
46.688 c 386.227 47.465 385.969 48.59 385.969 50.062 c 385.969 51.535 
386.227 52.664 386.742 53.438 c 387.262 54.215 388.012 54.602 388.992 
54.602 c f
426.191 53.664 m 425.582 53.664 425.125 53.363 424.816 52.766 c 424.508 
52.164 424.355 51.266 424.355 50.062 c 424.355 48.863 424.508 47.961 
424.816 47.363 c 425.125 46.762 425.582 46.461 426.191 46.461 c 426.805 
46.461 427.266 46.762 427.57 47.363 c 427.879 47.961 428.031 48.863 
428.031 50.062 c 428.031 51.266 427.879 52.164 427.57 52.766 c 427.266 
53.363 426.805 53.664 426.191 53.664 c 426.191 54.602 m 427.172 54.602 
427.922 54.215 428.438 53.438 c 428.957 52.664 429.215 51.535 429.215 
50.062 c 429.215 48.59 428.957 47.465 428.438 46.688 c 427.922 45.914 
427.172 45.523 426.191 45.523 c 425.211 45.523 424.461 45.914 423.945 
46.688 c 423.426 47.465 423.168 48.59 423.168 50.062 c 423.168 51.535 
423.426 52.664 423.945 53.438 c 424.461 54.215 425.211 54.602 426.191 
54.602 c f
452.641 395.074 m 449.652 390.402 l 452.641 390.402 l h
452.328 396.105 m 453.816 396.105 l 453.816 390.402 l 455.066 390.402 l 
455.066 389.418 l 453.816 389.418 l 453.816 387.355 l 452.641 387.355 l 
452.641 389.418 l 448.691 389.418 l 448.691 390.559 l h
452.328 396.105 m f
457.059 387.539 m 457.059 388.617 l 457.355 388.473 457.656 388.367 
457.961 388.293 c 458.266 388.219 458.562 388.184 458.855 388.184 c 
459.637 388.184 460.234 388.445 460.645 388.969 c 461.059 389.496 
461.293 390.293 461.352 391.363 c 461.125 391.027 460.84 390.77 460.492 
390.59 c 460.145 390.41 459.758 390.32 459.336 390.32 c 458.461 390.32 
457.77 390.586 457.262 391.113 c 456.75 391.645 456.496 392.367 456.496 
393.285 c 456.496 394.184 456.762 394.902 457.293 395.445 c 457.824 
395.988 458.531 396.262 459.414 396.262 c 460.426 396.262 461.195 
395.875 461.73 395.098 c 462.262 394.324 462.531 393.195 462.531 
391.723 c 462.531 390.344 462.203 389.242 461.547 388.418 c 460.895 
387.598 460.016 387.184 458.91 387.184 c 458.613 387.184 458.312 
387.215 458.008 387.273 c 457.703 387.332 457.387 387.422 457.059 
387.539 c 459.414 391.246 m 459.945 391.246 460.363 391.426 460.676 
391.789 c 460.984 392.152 461.141 392.652 461.141 393.285 c 461.141 
393.914 460.984 394.41 460.676 394.777 c 460.363 395.141 459.945 
395.324 459.414 395.324 c 458.883 395.324 458.461 395.141 458.152 
394.777 c 457.84 394.41 457.684 393.914 457.684 393.285 c 457.684 
392.652 457.84 392.152 458.152 391.789 c 458.461 391.426 458.883 
391.246 459.414 391.246 c f
467.91 395.074 m 464.922 390.402 l 467.91 390.402 l h
467.598 396.105 m 469.086 396.105 l 469.086 390.402 l 470.336 390.402 l 
470.336 389.418 l 469.086 389.418 l 469.086 387.355 l 467.91 387.355 l 
467.91 389.418 l 463.961 389.418 l 463.961 390.559 l h
467.598 396.105 m f
475.879 392.074 m 476.445 391.953 476.887 391.699 477.203 391.316 c 
477.523 390.934 477.684 390.461 477.684 389.898 c 477.684 389.035 
477.387 388.367 476.793 387.895 c 476.199 387.422 475.355 387.184 
474.262 387.184 c 473.895 387.184 473.516 387.223 473.129 387.293 c 
472.738 387.367 472.336 387.477 471.922 387.621 c 471.922 388.762 l 
472.25 388.57 472.609 388.426 473 388.328 c 473.391 388.23 473.801 
388.184 474.227 388.184 c 474.969 388.184 475.531 388.328 475.922 
388.621 c 476.309 388.914 476.504 389.34 476.504 389.898 c 476.504 
390.414 476.324 390.816 475.961 391.109 c 475.602 391.398 475.098 
391.543 474.453 391.543 c 473.434 391.543 l 473.434 392.52 l 474.5 
392.52 l 475.082 392.52 475.527 392.633 475.836 392.867 c 476.145 
393.098 476.301 393.434 476.301 393.871 c 476.301 394.32 476.141 
394.664 475.82 394.906 c 475.504 395.145 475.047 395.266 474.453 
395.266 c 474.129 395.266 473.781 395.23 473.41 395.16 c 473.039 395.09 
472.633 394.98 472.188 394.832 c 472.188 395.887 l 472.637 396.012 
473.059 396.105 473.449 396.168 c 473.844 396.23 474.211 396.262 
474.559 396.262 c 475.457 396.262 476.168 396.059 476.691 395.648 c 
477.215 395.242 477.477 394.691 477.477 393.996 c 477.477 393.512 
477.34 393.102 477.062 392.766 c 476.785 392.434 476.391 392.203 
475.879 392.074 c f
Q Q
showpage
%%Trailer
count op_count sub {pop} repeat
countdictstack dict_count sub {end} repeat
cairo_eps_state restore
%%EOF
