%!PS-Adobe-3.0 EPSF-3.0
%%Creator: cairo 1.10.2 (http://cairographics.org)
%%CreationDate: Thu Jul 24 10:10:29 2014
%%Pages: 1
%%BoundingBox: 0 0 576 432
%%DocumentData: Clean7Bit
%%LanguageLevel: 2
%%EndComments
%%BeginProlog
/cairo_eps_state save def
/dict_count countdictstack def
/op_count count 1 sub def
userdict begin
/q { gsave } bind def
/Q { grestore } bind def
/cm { 6 array astore concat } bind def
/w { setlinewidth } bind def
/J { setlinecap } bind def
/j { setlinejoin } bind def
/M { setmiterlimit } bind def
/d { setdash } bind def
/m { moveto } bind def
/l { lineto } bind def
/c { curveto } bind def
/h { closepath } bind def
/re { exch dup neg 3 1 roll 5 3 roll moveto 0 rlineto
      0 exch rlineto 0 rlineto closepath } bind def
/S { stroke } bind def
/f { fill } bind def
/f* { eofill } bind def
/n { newpath } bind def
/W { clip } bind def
/W* { eoclip } bind def
/BT { } bind def
/ET { } bind def
/pdfmark where { pop globaldict /?pdfmark /exec load put }
    { globaldict begin /?pdfmark /pop load def /pdfmark
    /cleartomark load def end } ifelse
/BDC { mark 3 1 roll /BDC pdfmark } bind def
/EMC { mark /EMC pdfmark } bind def
/cairo_store_point { /cairo_point_y exch def /cairo_point_x exch def } def
/Tj { show currentpoint cairo_store_point } bind def
/TJ {
  {
    dup
    type /stringtype eq
    { show } { -0.001 mul 0 cairo_font_matrix dtransform rmoveto } ifelse
  } forall
  currentpoint cairo_store_point
} bind def
/cairo_selectfont { cairo_font_matrix aload pop pop pop 0 0 6 array astore
    cairo_font exch selectfont cairo_point_x cairo_point_y moveto } bind def
/Tf { pop /cairo_font exch def /cairo_font_matrix where
      { pop cairo_selectfont } if } bind def
/Td { matrix translate cairo_font_matrix matrix concatmatrix dup
      /cairo_font_matrix exch def dup 4 get exch 5 get cairo_store_point
      /cairo_font where { pop cairo_selectfont } if } bind def
/Tm { 2 copy 8 2 roll 6 array astore /cairo_font_matrix exch def
      cairo_store_point /cairo_font where { pop cairo_selectfont } if } bind def
/g { setgray } bind def
/rg { setrgbcolor } bind def
/d1 { setcachedevice } bind def
%%EndProlog
%%Page: 1 1
%%BeginPageSetup
%%PageBoundingBox: 0 0 576 432
%%EndPageSetup
q 0 0 576 432 rectclip q
1 g
0 0 576 432 rectfill
72 388.801 446.398 -345.602 re f
Q q
72 388.801 446.398 -345.602 re W n
q
72 389 447 -346 re W n
  q
Q q
/CairoPattern {
  q
Q q
1 g
0 0 7200 7200 rectfill
0 g
-3600 3600 m 3600 10800 l -3000 3000 m 4200 10200 l -2400 2400 m 4800 
9600 l -1800 1800 m 5400 9000 l -1200 1200 m 6000 8400 l -600 600 m 
6600 7800 l 0 0 m 7200 7200 l 600 -600 m 7800 6600 l 1200 -1200 m 8400 
6000 l 1800 -1800 m 9000 5400 l 2400 -2400 m 9600 4800 l 3000 -3000 m 
10200 4200 l 3600 -3600 m 10800 3600 l f
100 w
0 J
0 j
[] 0.0 d
4 M q 1 0 0 -1 0 7200 cm
-3600 3600 m 3600 -3600 l -3000 4200 m 4200 -3000 l -2400 4800 m 4800 
-2400 l -1800 5400 m 5400 -1800 l -1200 6000 m 6000 -1200 l -600 6600 m 
6600 -600 l 0 7200 m 7200 0 l 600 7800 m 7800 600 l 1200 8400 m 8400 
1200 l 1800 9000 m 9000 1800 l 2400 9600 m 9600 2400 l 3000 10200 m 
10200 3000 l 3600 10800 m 10800 3600 l S Q
  Q
} bind def
<< /PatternType 1
   /PaintType 1
   /TilingType 1
   /XStep 7200 /YStep 7200
   /BBox [0 0 7200 7200]
   /PaintProc { CairoPattern }
>>
[ 0.01 0 0 0.01 0 360 ]
makepattern setpattern
72 43.301 38.816 -0.102 re f
Q q
0 g
1 w
0 J
1 j
[] 0.0 d
4 M 72 43.301 38.816 -0.102 re S
  Q
Q
Q q
72 388.801 446.398 -345.602 re W n
q
72 389 447 -346 re W n
  q
Q q
/CairoPattern {
  q
Q q
1 g
0 0 7200 7200 rectfill
0 g
-3600 3600 m 3600 10800 l -3000 3000 m 4200 10200 l -2400 2400 m 4800 
9600 l -1800 1800 m 5400 9000 l -1200 1200 m 6000 8400 l -600 600 m 
6600 7800 l 0 0 m 7200 7200 l 600 -600 m 7800 6600 l 1200 -1200 m 8400 
6000 l 1800 -1800 m 9000 5400 l 2400 -2400 m 9600 4800 l 3000 -3000 m 
10200 4200 l 3600 -3600 m 10800 3600 l f
100 w
0 J
0 j
[] 0.0 d
4 M q 1 0 0 -1 0 7200 cm
-3600 3600 m 3600 -3600 l -3000 4200 m 4200 -3000 l -2400 4800 m 4800 
-2400 l -1800 5400 m 5400 -1800 l -1200 6000 m 6000 -1200 l -600 6600 m 
6600 -600 l 0 7200 m 7200 0 l 600 7800 m 7800 600 l 1200 8400 m 8400 
1200 l 1800 9000 m 9000 1800 l 2400 9600 m 9600 2400 l 3000 10200 m 
10200 3000 l 3600 10800 m 10800 3600 l S Q
  Q
} bind def
<< /PatternType 1
   /PaintType 1
   /TilingType 1
   /XStep 7200 /YStep 7200
   /BBox [0 0 7200 7200]
   /PaintProc { CairoPattern }
>>
[ 0.01 0 0 0.01 0 360 ]
makepattern setpattern
110.816 43.199 m 149.637 43.199 l h
110.816 43.199 m f
Q q
0 g
1 w
0 J
1 j
[] 0.0 d
4 M 110.816 43.199 m 149.637 43.199 l h
110.816 43.199 m S
  Q
Q
Q q
72 388.801 446.398 -345.602 re W n
q
72 389 447 -346 re W n
  q
Q q
/CairoPattern {
  q
Q q
1 g
0 0 7200 7200 rectfill
0 g
-3600 3600 m 3600 10800 l -3000 3000 m 4200 10200 l -2400 2400 m 4800 
9600 l -1800 1800 m 5400 9000 l -1200 1200 m 6000 8400 l -600 600 m 
6600 7800 l 0 0 m 7200 7200 l 600 -600 m 7800 6600 l 1200 -1200 m 8400 
6000 l 1800 -1800 m 9000 5400 l 2400 -2400 m 9600 4800 l 3000 -3000 m 
10200 4200 l 3600 -3600 m 10800 3600 l f
100 w
0 J
0 j
[] 0.0 d
4 M q 1 0 0 -1 0 7200 cm
-3600 3600 m 3600 -3600 l -3000 4200 m 4200 -3000 l -2400 4800 m 4800 
-2400 l -1800 5400 m 5400 -1800 l -1200 6000 m 6000 -1200 l -600 6600 m 
6600 -600 l 0 7200 m 7200 0 l 600 7800 m 7800 600 l 1200 8400 m 8400 
1200 l 1800 9000 m 9000 1800 l 2400 9600 m 9600 2400 l 3000 10200 m 
10200 3000 l 3600 10800 m 10800 3600 l S Q
  Q
} bind def
<< /PatternType 1
   /PaintType 1
   /TilingType 1
   /XStep 7200 /YStep 7200
   /BBox [0 0 7200 7200]
   /PaintProc { CairoPattern }
>>
[ 0.01 0 0 0.01 0 360 ]
makepattern setpattern
149.637 43.199 m 188.453 43.199 l h
149.637 43.199 m f
Q q
0 g
1 w
0 J
1 j
[] 0.0 d
4 M 149.637 43.199 m 188.453 43.199 l h
149.637 43.199 m S
  Q
Q
Q q
72 388.801 446.398 -345.602 re W n
q
72 389 447 -346 re W n
  q
Q q
/CairoPattern {
  q
Q q
1 g
0 0 7200 7200 rectfill
0 g
-3600 3600 m 3600 10800 l -3000 3000 m 4200 10200 l -2400 2400 m 4800 
9600 l -1800 1800 m 5400 9000 l -1200 1200 m 6000 8400 l -600 600 m 
6600 7800 l 0 0 m 7200 7200 l 600 -600 m 7800 6600 l 1200 -1200 m 8400 
6000 l 1800 -1800 m 9000 5400 l 2400 -2400 m 9600 4800 l 3000 -3000 m 
10200 4200 l 3600 -3600 m 10800 3600 l f
100 w
0 J
0 j
[] 0.0 d
4 M q 1 0 0 -1 0 7200 cm
-3600 3600 m 3600 -3600 l -3000 4200 m 4200 -3000 l -2400 4800 m 4800 
-2400 l -1800 5400 m 5400 -1800 l -1200 6000 m 6000 -1200 l -600 6600 m 
6600 -600 l 0 7200 m 7200 0 l 600 7800 m 7800 600 l 1200 8400 m 8400 
1200 l 1800 9000 m 9000 1800 l 2400 9600 m 9600 2400 l 3000 10200 m 
10200 3000 l 3600 10800 m 10800 3600 l S Q
  Q
} bind def
<< /PatternType 1
   /PaintType 1
   /TilingType 1
   /XStep 7200 /YStep 7200
   /BBox [0 0 7200 7200]
   /PaintProc { CairoPattern }
>>
[ 0.01 0 0 0.01 0 360 ]
makepattern setpattern
188.453 111.035 38.816 -67.836 re f
Q q
0 g
1 w
0 J
1 j
[] 0.0 d
4 M 188.453 111.035 38.816 -67.836 re S
  Q
Q
Q q
72 388.801 446.398 -345.602 re W n
q
72 389 447 -346 re W n
  q
Q q
/CairoPattern {
  q
Q q
1 g
0 0 7200 7200 rectfill
0 g
-3600 3600 m 3600 10800 l -3000 3000 m 4200 10200 l -2400 2400 m 4800 
9600 l -1800 1800 m 5400 9000 l -1200 1200 m 6000 8400 l -600 600 m 
6600 7800 l 0 0 m 7200 7200 l 600 -600 m 7800 6600 l 1200 -1200 m 8400 
6000 l 1800 -1800 m 9000 5400 l 2400 -2400 m 9600 4800 l 3000 -3000 m 
10200 4200 l 3600 -3600 m 10800 3600 l f
100 w
0 J
0 j
[] 0.0 d
4 M q 1 0 0 -1 0 7200 cm
-3600 3600 m 3600 -3600 l -3000 4200 m 4200 -3000 l -2400 4800 m 4800 
-2400 l -1800 5400 m 5400 -1800 l -1200 6000 m 6000 -1200 l -600 6600 m 
6600 -600 l 0 7200 m 7200 0 l 600 7800 m 7800 600 l 1200 8400 m 8400 
1200 l 1800 9000 m 9000 1800 l 2400 9600 m 9600 2400 l 3000 10200 m 
10200 3000 l 3600 10800 m 10800 3600 l S Q
  Q
} bind def
<< /PatternType 1
   /PaintType 1
   /TilingType 1
   /XStep 7200 /YStep 7200
   /BBox [0 0 7200 7200]
   /PaintProc { CairoPattern }
>>
[ 0.01 0 0 0.01 0 360 ]
makepattern setpattern
227.27 145.695 38.816 -102.496 re f
Q q
0 g
1 w
0 J
1 j
[] 0.0 d
4 M 227.27 145.695 38.816 -102.496 re S
  Q
Q
Q q
72 388.801 446.398 -345.602 re W n
q
72 389 447 -346 re W n
  q
Q q
/CairoPattern {
  q
Q q
1 g
0 0 7200 7200 rectfill
0 g
-3600 3600 m 3600 10800 l -3000 3000 m 4200 10200 l -2400 2400 m 4800 
9600 l -1800 1800 m 5400 9000 l -1200 1200 m 6000 8400 l -600 600 m 
6600 7800 l 0 0 m 7200 7200 l 600 -600 m 7800 6600 l 1200 -1200 m 8400 
6000 l 1800 -1800 m 9000 5400 l 2400 -2400 m 9600 4800 l 3000 -3000 m 
10200 4200 l 3600 -3600 m 10800 3600 l f
100 w
0 J
0 j
[] 0.0 d
4 M q 1 0 0 -1 0 7200 cm
-3600 3600 m 3600 -3600 l -3000 4200 m 4200 -3000 l -2400 4800 m 4800 
-2400 l -1800 5400 m 5400 -1800 l -1200 6000 m 6000 -1200 l -600 6600 m 
6600 -600 l 0 7200 m 7200 0 l 600 7800 m 7800 600 l 1200 8400 m 8400 
1200 l 1800 9000 m 9000 1800 l 2400 9600 m 9600 2400 l 3000 10200 m 
10200 3000 l 3600 10800 m 10800 3600 l S Q
  Q
} bind def
<< /PatternType 1
   /PaintType 1
   /TilingType 1
   /XStep 7200 /YStep 7200
   /BBox [0 0 7200 7200]
   /PaintProc { CairoPattern }
>>
[ 0.01 0 0 0.01 0 360 ]
makepattern setpattern
266.086 360.363 38.816 -317.164 re f
Q q
0 g
1 w
0 J
1 j
[] 0.0 d
4 M 266.086 360.363 38.816 -317.164 re S
  Q
Q
Q q
72 388.801 446.398 -345.602 re W n
q
72 389 447 -346 re W n
  q
Q q
/CairoPattern {
  q
Q q
1 g
0 0 7200 7200 rectfill
0 g
-3600 3600 m 3600 10800 l -3000 3000 m 4200 10200 l -2400 2400 m 4800 
9600 l -1800 1800 m 5400 9000 l -1200 1200 m 6000 8400 l -600 600 m 
6600 7800 l 0 0 m 7200 7200 l 600 -600 m 7800 6600 l 1200 -1200 m 8400 
6000 l 1800 -1800 m 9000 5400 l 2400 -2400 m 9600 4800 l 3000 -3000 m 
10200 4200 l 3600 -3600 m 10800 3600 l f
100 w
0 J
0 j
[] 0.0 d
4 M q 1 0 0 -1 0 7200 cm
-3600 3600 m 3600 -3600 l -3000 4200 m 4200 -3000 l -2400 4800 m 4800 
-2400 l -1800 5400 m 5400 -1800 l -1200 6000 m 6000 -1200 l -600 6600 m 
6600 -600 l 0 7200 m 7200 0 l 600 7800 m 7800 600 l 1200 8400 m 8400 
1200 l 1800 9000 m 9000 1800 l 2400 9600 m 9600 2400 l 3000 10200 m 
10200 3000 l 3600 10800 m 10800 3600 l S Q
  Q
} bind def
<< /PatternType 1
   /PaintType 1
   /TilingType 1
   /XStep 7200 /YStep 7200
   /BBox [0 0 7200 7200]
   /PaintProc { CairoPattern }
>>
[ 0.01 0 0 0.01 0 360 ]
makepattern setpattern
304.902 43.891 38.82 -0.691 re f
Q q
0 g
1 w
0 J
1 j
[] 0.0 d
4 M 304.902 43.891 38.82 -0.691 re S
  Q
Q
Q q
72 388.801 446.398 -345.602 re W n
q
72 389 447 -346 re W n
  q
Q q
/CairoPattern {
  q
Q q
1 g
0 0 7200 7200 rectfill
0 g
-3600 3600 m 3600 10800 l -3000 3000 m 4200 10200 l -2400 2400 m 4800 
9600 l -1800 1800 m 5400 9000 l -1200 1200 m 6000 8400 l -600 600 m 
6600 7800 l 0 0 m 7200 7200 l 600 -600 m 7800 6600 l 1200 -1200 m 8400 
6000 l 1800 -1800 m 9000 5400 l 2400 -2400 m 9600 4800 l 3000 -3000 m 
10200 4200 l 3600 -3600 m 10800 3600 l f
100 w
0 J
0 j
[] 0.0 d
4 M q 1 0 0 -1 0 7200 cm
-3600 3600 m 3600 -3600 l -3000 4200 m 4200 -3000 l -2400 4800 m 4800 
-2400 l -1800 5400 m 5400 -1800 l -1200 6000 m 6000 -1200 l -600 6600 m 
6600 -600 l 0 7200 m 7200 0 l 600 7800 m 7800 600 l 1200 8400 m 8400 
1200 l 1800 9000 m 9000 1800 l 2400 9600 m 9600 2400 l 3000 10200 m 
10200 3000 l 3600 10800 m 10800 3600 l S Q
  Q
} bind def
<< /PatternType 1
   /PaintType 1
   /TilingType 1
   /XStep 7200 /YStep 7200
   /BBox [0 0 7200 7200]
   /PaintProc { CairoPattern }
>>
[ 0.01 0 0 0.01 0 360 ]
makepattern setpattern
343.723 43.199 m 382.539 43.199 l h
343.723 43.199 m f
Q q
0 g
1 w
0 J
1 j
[] 0.0 d
4 M 343.723 43.199 m 382.539 43.199 l h
343.723 43.199 m S
  Q
Q
Q q
72 388.801 446.398 -345.602 re W n
q
72 389 447 -346 re W n
  q
Q q
/CairoPattern {
  q
Q q
1 g
0 0 7200 7200 rectfill
0 g
-3600 3600 m 3600 10800 l -3000 3000 m 4200 10200 l -2400 2400 m 4800 
9600 l -1800 1800 m 5400 9000 l -1200 1200 m 6000 8400 l -600 600 m 
6600 7800 l 0 0 m 7200 7200 l 600 -600 m 7800 6600 l 1200 -1200 m 8400 
6000 l 1800 -1800 m 9000 5400 l 2400 -2400 m 9600 4800 l 3000 -3000 m 
10200 4200 l 3600 -3600 m 10800 3600 l f
100 w
0 J
0 j
[] 0.0 d
4 M q 1 0 0 -1 0 7200 cm
-3600 3600 m 3600 -3600 l -3000 4200 m 4200 -3000 l -2400 4800 m 4800 
-2400 l -1800 5400 m 5400 -1800 l -1200 6000 m 6000 -1200 l -600 6600 m 
6600 -600 l 0 7200 m 7200 0 l 600 7800 m 7800 600 l 1200 8400 m 8400 
1200 l 1800 9000 m 9000 1800 l 2400 9600 m 9600 2400 l 3000 10200 m 
10200 3000 l 3600 10800 m 10800 3600 l S Q
  Q
} bind def
<< /PatternType 1
   /PaintType 1
   /TilingType 1
   /XStep 7200 /YStep 7200
   /BBox [0 0 7200 7200]
   /PaintProc { CairoPattern }
>>
[ 0.01 0 0 0.01 0 360 ]
makepattern setpattern
382.539 43.199 m 421.355 43.199 l h
382.539 43.199 m f
Q q
0 g
1 w
0 J
1 j
[] 0.0 d
4 M 382.539 43.199 m 421.355 43.199 l h
382.539 43.199 m S
  Q
Q
Q q
72 388.801 446.398 -345.602 re W n
q
72 389 447 -346 re W n
  q
Q q
/CairoPattern {
  q
Q q
1 g
0 0 7200 7200 rectfill
0 g
-3600 3600 m 3600 10800 l -3000 3000 m 4200 10200 l -2400 2400 m 4800 
9600 l -1800 1800 m 5400 9000 l -1200 1200 m 6000 8400 l -600 600 m 
6600 7800 l 0 0 m 7200 7200 l 600 -600 m 7800 6600 l 1200 -1200 m 8400 
6000 l 1800 -1800 m 9000 5400 l 2400 -2400 m 9600 4800 l 3000 -3000 m 
10200 4200 l 3600 -3600 m 10800 3600 l f
100 w
0 J
0 j
[] 0.0 d
4 M q 1 0 0 -1 0 7200 cm
-3600 3600 m 3600 -3600 l -3000 4200 m 4200 -3000 l -2400 4800 m 4800 
-2400 l -1800 5400 m 5400 -1800 l -1200 6000 m 6000 -1200 l -600 6600 m 
6600 -600 l 0 7200 m 7200 0 l 600 7800 m 7800 600 l 1200 8400 m 8400 
1200 l 1800 9000 m 9000 1800 l 2400 9600 m 9600 2400 l 3000 10200 m 
10200 3000 l 3600 10800 m 10800 3600 l S Q
  Q
} bind def
<< /PatternType 1
   /PaintType 1
   /TilingType 1
   /XStep 7200 /YStep 7200
   /BBox [0 0 7200 7200]
   /PaintProc { CairoPattern }
>>
[ 0.01 0 0 0.01 0 360 ]
makepattern setpattern
421.355 43.199 m 460.176 43.199 l h
421.355 43.199 m f
Q q
0 g
1 w
0 J
1 j
[] 0.0 d
4 M 421.355 43.199 m 460.176 43.199 l h
421.355 43.199 m S
  Q
Q
Q q
72 388.801 446.398 -345.602 re W n
q
72 389 447 -346 re W n
  q
Q q
/CairoPattern {
  q
Q q
1 g
0 0 7200 7200 rectfill
0 g
-3600 3600 m 3600 10800 l -3000 3000 m 4200 10200 l -2400 2400 m 4800 
9600 l -1800 1800 m 5400 9000 l -1200 1200 m 6000 8400 l -600 600 m 
6600 7800 l 0 0 m 7200 7200 l 600 -600 m 7800 6600 l 1200 -1200 m 8400 
6000 l 1800 -1800 m 9000 5400 l 2400 -2400 m 9600 4800 l 3000 -3000 m 
10200 4200 l 3600 -3600 m 10800 3600 l f
100 w
0 J
0 j
[] 0.0 d
4 M q 1 0 0 -1 0 7200 cm
-3600 3600 m 3600 -3600 l -3000 4200 m 4200 -3000 l -2400 4800 m 4800 
-2400 l -1800 5400 m 5400 -1800 l -1200 6000 m 6000 -1200 l -600 6600 m 
6600 -600 l 0 7200 m 7200 0 l 600 7800 m 7800 600 l 1200 8400 m 8400 
1200 l 1800 9000 m 9000 1800 l 2400 9600 m 9600 2400 l 3000 10200 m 
10200 3000 l 3600 10800 m 10800 3600 l S Q
  Q
} bind def
<< /PatternType 1
   /PaintType 1
   /TilingType 1
   /XStep 7200 /YStep 7200
   /BBox [0 0 7200 7200]
   /PaintProc { CairoPattern }
>>
[ 0.01 0 0 0.01 0 360 ]
makepattern setpattern
460.176 43.199 m 498.992 43.199 l h
460.176 43.199 m f
Q q
0 g
1 w
0 J
1 j
[] 0.0 d
4 M 460.176 43.199 m 498.992 43.199 l h
460.176 43.199 m S
  Q
Q
0 g
0.5 w
0 J
1 j
[] 0.0 d
4 M 91.41 43.199 m 91.41 47.199 l S
91.41 388.801 m 91.41 384.801 l S
87.062 37.664 m 85.457 33.312 l 88.672 33.312 l h
86.395 38.832 m 87.734 38.832 l 91.07 30.082 l 89.84 30.082 l 89.043 
32.328 l 85.098 32.328 l 84.301 30.082 l 83.055 30.082 l h
86.395 38.832 m f
96.688 37.605 m 96.688 34.344 l 99.953 34.344 l 99.953 33.348 l 96.688 
33.348 l 96.688 30.082 l 95.703 30.082 l 95.703 33.348 l 92.441 33.348 
l 92.441 34.344 l 95.703 34.344 l 95.703 37.605 l h
96.688 37.605 m f
130.227 43.199 m 130.227 47.199 l S
130.227 388.801 m 130.227 384.801 l S
128.535 37.664 m 126.926 33.312 l 130.145 33.312 l h
127.863 38.832 m 129.207 38.832 l 132.539 30.082 l 131.312 30.082 l 
130.516 32.328 l 126.57 32.328 l 125.773 30.082 l 124.523 30.082 l h
127.863 38.832 m f
132.957 33.848 3.156 -0.957 re f
169.043 43.199 m 169.043 47.199 l S
169.043 388.801 m 169.043 384.801 l S
163.484 34.258 m 163.484 31.055 l 165.383 31.055 l 166.02 31.055 
166.492 31.188 166.797 31.449 c 167.105 31.715 167.258 32.117 167.258 
32.66 c 167.258 33.207 167.105 33.609 166.797 33.871 c 166.492 34.129 
166.02 34.258 165.383 34.258 c h
163.484 37.859 m 163.484 35.223 l 165.238 35.223 l 165.816 35.223 
166.246 35.328 166.527 35.547 c 166.812 35.762 166.953 36.094 166.953 
36.539 c 166.953 36.98 166.812 37.312 166.527 37.531 c 166.246 37.75 
165.816 37.859 165.238 37.859 c h
162.301 38.832 m 165.328 38.832 l 166.23 38.832 166.922 38.645 167.41 
38.27 c 167.898 37.895 168.145 37.359 168.145 36.668 c 168.145 36.133 
168.02 35.707 167.77 35.391 c 167.52 35.074 167.152 34.875 166.668 
34.801 c 167.25 34.676 167.703 34.414 168.023 34.016 c 168.348 33.621 
168.508 33.125 168.508 32.531 c 168.508 31.75 168.242 31.145 167.711 
30.719 c 167.18 30.293 166.422 30.082 165.441 30.082 c 162.301 30.082 l 
h
162.301 38.832 m f
174.875 37.605 m 174.875 34.344 l 178.141 34.344 l 178.141 33.348 l 
174.875 33.348 l 174.875 30.082 l 173.891 30.082 l 173.891 33.348 l 
170.629 33.348 l 170.629 34.344 l 173.891 34.344 l 173.891 37.605 l h
174.875 37.605 m f
207.859 43.199 m 207.859 47.199 l S
207.859 388.801 m 207.859 384.801 l S
204.82 34.258 m 204.82 31.055 l 206.723 31.055 l 207.355 31.055 207.828 
31.188 208.133 31.449 c 208.441 31.715 208.598 32.117 208.598 32.66 c 
208.598 33.207 208.441 33.609 208.133 33.871 c 207.828 34.129 207.355 
34.258 206.723 34.258 c h
204.82 37.859 m 204.82 35.223 l 206.574 35.223 l 207.152 35.223 207.582 
35.328 207.863 35.547 c 208.148 35.762 208.289 36.094 208.289 36.539 c 
208.289 36.98 208.148 37.312 207.863 37.531 c 207.582 37.75 207.152 
37.859 206.574 37.859 c h
203.637 38.832 m 206.664 38.832 l 207.566 38.832 208.262 38.645 208.746 
38.27 c 209.238 37.895 209.48 37.359 209.48 36.668 c 209.48 36.133 
209.355 35.707 209.105 35.391 c 208.855 35.074 208.488 34.875 208.004 
34.801 c 208.586 34.676 209.039 34.414 209.359 34.016 c 209.684 33.621 
209.844 33.125 209.844 32.531 c 209.844 31.75 209.578 31.145 209.047 
30.719 c 208.516 30.293 207.762 30.082 206.777 30.082 c 203.637 30.082 
l h
203.637 38.832 m f
211.281 33.848 3.156 -0.957 re f
246.68 43.199 m 246.68 47.199 l S
246.68 388.801 m 246.68 384.801 l S
246.164 38.156 m 246.164 36.91 l 245.766 37.281 245.34 37.559 244.887 
37.738 c 244.438 37.922 243.957 38.016 243.449 38.016 c 242.449 38.016 
241.684 37.711 241.152 37.098 c 240.621 36.488 240.355 35.602 240.355 
34.445 c 240.355 33.293 240.621 32.414 241.152 31.801 c 241.684 31.191 
242.449 30.883 243.449 30.883 c 243.957 30.883 244.438 30.977 244.887 
31.16 c 245.34 31.344 245.766 31.621 246.164 31.992 c 246.164 30.754 l 
245.75 30.473 245.309 30.262 244.848 30.121 c 244.383 29.98 243.895 
29.91 243.379 29.91 c 242.055 29.91 241.012 30.316 240.25 31.125 c 
239.488 31.938 239.105 33.043 239.105 34.445 c 239.105 35.852 239.488 
36.961 240.25 37.77 c 241.012 38.582 242.055 38.988 243.379 38.988 c 
243.902 38.988 244.395 38.918 244.859 38.781 c 245.32 38.641 245.758 
38.434 246.164 38.156 c f
252.332 37.605 m 252.332 34.344 l 255.594 34.344 l 255.594 33.348 l 
252.332 33.348 l 252.332 30.082 l 251.348 30.082 l 251.348 33.348 l 
248.086 33.348 l 248.086 34.344 l 251.348 34.344 l 251.348 37.605 l h
252.332 37.605 m f
285.496 43.199 m 285.496 47.199 l S
285.496 388.801 m 285.496 384.801 l S
287.5 38.156 m 287.5 36.91 l 287.102 37.281 286.676 37.559 286.223 
37.738 c 285.773 37.922 285.293 38.016 284.785 38.016 c 283.785 38.016 
283.02 37.711 282.488 37.098 c 281.957 36.488 281.691 35.602 281.691 
34.445 c 281.691 33.293 281.957 32.414 282.488 31.801 c 283.02 31.191 
283.785 30.883 284.785 30.883 c 285.293 30.883 285.773 30.977 286.223 
31.16 c 286.676 31.344 287.102 31.621 287.5 31.992 c 287.5 30.754 l 
287.086 30.473 286.648 30.262 286.184 30.121 c 285.719 29.98 285.23 
29.91 284.715 29.91 c 283.391 29.91 282.348 30.316 281.586 31.125 c 
280.824 31.938 280.445 33.043 280.445 34.445 c 280.445 35.852 280.824 
36.961 281.586 37.77 c 282.348 38.582 283.391 38.988 284.715 38.988 c 
285.238 38.988 285.73 38.918 286.195 38.781 c 286.656 38.641 287.094 
38.434 287.5 38.156 c f
288.734 33.848 3.16 -0.957 re f
324.312 43.199 m 324.312 47.199 l S
324.312 388.801 m 324.312 384.801 l S
318.25 37.859 m 318.25 31.055 l 319.684 31.055 l 320.891 31.055 321.773 
31.328 322.332 31.875 c 322.895 32.422 323.172 33.285 323.172 34.465 c 
323.172 35.637 322.895 36.496 322.332 37.039 c 321.773 37.586 320.891 
37.859 319.684 37.859 c h
317.066 38.832 m 319.5 38.832 l 321.195 38.832 322.438 38.477 323.23 
37.773 c 324.023 37.066 324.422 35.965 324.422 34.465 c 324.422 32.957 
324.023 31.848 323.227 31.141 c 322.43 30.434 321.188 30.082 319.5 
30.082 c 317.066 30.082 l h
317.066 38.832 m f
330.652 37.605 m 330.652 34.344 l 333.914 34.344 l 333.914 33.348 l 
330.652 33.348 l 330.652 30.082 l 329.668 30.082 l 329.668 33.348 l 
326.402 33.348 l 326.402 34.344 l 329.668 34.344 l 329.668 37.605 l h
330.652 37.605 m f
363.129 43.199 m 363.129 47.199 l S
363.129 388.801 m 363.129 384.801 l S
359.586 37.859 m 359.586 31.055 l 361.02 31.055 l 362.227 31.055 
363.109 31.328 363.668 31.875 c 364.23 32.422 364.508 33.285 364.508 
34.465 c 364.508 35.637 364.23 36.496 363.668 37.039 c 363.109 37.586 
362.227 37.859 361.02 37.859 c h
358.406 38.832 m 360.836 38.832 l 362.531 38.832 363.773 38.477 364.566 
37.773 c 365.363 37.066 365.758 35.965 365.758 34.465 c 365.758 32.957 
365.359 31.848 364.562 31.141 c 363.766 30.434 362.523 30.082 360.836 
30.082 c 358.406 30.082 l h
358.406 38.832 m f
367.055 33.848 3.156 -0.957 re f
401.949 43.199 m 401.949 47.199 l S
401.949 388.801 m 401.949 384.801 l S
395.531 38.832 m 401.062 38.832 l 401.062 37.832 l 396.715 37.832 l 
396.715 35.242 l 400.883 35.242 l 400.883 34.25 l 396.715 34.25 l 
396.715 31.078 l 401.168 31.078 l 401.168 30.082 l 395.531 30.082 l h
395.531 38.832 m f
407.457 37.605 m 407.457 34.344 l 410.719 34.344 l 410.719 33.348 l 
407.457 33.348 l 407.457 30.082 l 406.473 30.082 l 406.473 33.348 l 
403.207 33.348 l 403.207 34.344 l 406.473 34.344 l 406.473 37.605 l h
407.457 37.605 m f
440.766 43.199 m 440.766 47.199 l S
440.766 388.801 m 440.766 384.801 l S
436.867 38.832 m 442.398 38.832 l 442.398 37.832 l 438.051 37.832 l 
438.051 35.242 l 442.219 35.242 l 442.219 34.25 l 438.051 34.25 l 
438.051 31.078 l 442.504 31.078 l 442.504 30.082 l 436.867 30.082 l h
436.867 38.832 m f
443.859 33.848 3.156 -0.957 re f
479.582 43.199 m 479.582 47.199 l S
479.582 388.801 m 479.582 384.801 l S
458.535 33.359 m 458.535 34.148 458.371 34.773 458.047 35.223 c 457.719 
35.676 457.273 35.898 456.703 35.898 c 456.129 35.898 455.684 35.676 
455.355 35.223 c 455.031 34.773 454.867 34.148 454.867 33.359 c 454.867 
32.566 455.031 31.941 455.355 31.492 c 455.684 31.039 456.129 30.816 
456.703 30.816 c 457.273 30.816 457.719 31.039 458.047 31.492 c 458.371 
31.941 458.535 32.566 458.535 33.359 c 454.867 35.648 m 455.094 36.039 
455.379 36.328 455.727 36.516 c 456.07 36.707 456.484 36.801 456.965 
36.801 c 457.762 36.801 458.41 36.484 458.906 35.852 c 459.406 35.219 
459.656 34.391 459.656 33.359 c 459.656 32.328 459.406 31.492 458.906 
30.859 c 458.41 30.227 457.762 29.91 456.965 29.91 c 456.484 29.91 
456.07 30.008 455.727 30.195 c 455.379 30.387 455.094 30.676 454.867 
31.066 c 454.867 30.082 l 453.781 30.082 l 453.781 39.199 l 454.867 
39.199 l h
454.867 35.648 m f
467.055 33.633 m 467.055 33.105 l 462.098 33.105 l 462.145 32.363 
462.367 31.797 462.77 31.41 c 463.168 31.02 463.727 30.828 464.441 
30.828 c 464.855 30.828 465.258 30.875 465.645 30.977 c 466.035 31.078 
466.418 31.23 466.805 31.438 c 466.805 30.414 l 466.418 30.25 466.02 
30.125 465.613 30.039 c 465.207 29.953 464.793 29.91 464.379 29.91 c 
463.328 29.91 462.5 30.215 461.891 30.824 c 461.277 31.434 460.973 
32.258 460.973 33.301 c 460.973 34.375 461.262 35.227 461.844 35.855 c 
462.422 36.484 463.203 36.801 464.191 36.801 c 465.074 36.801 465.77 
36.516 466.285 35.949 c 466.797 35.383 467.055 34.609 467.055 33.633 c 
465.977 33.949 m 465.969 34.539 465.805 35.008 465.48 35.359 c 465.16 
35.711 464.73 35.891 464.199 35.891 c 463.602 35.891 463.117 35.719 
462.758 35.379 c 462.395 35.039 462.188 34.559 462.133 33.941 c h
465.977 33.949 m f
468.824 39.199 1.078 -9.117 re f
474.699 35.891 m 474.121 35.891 473.664 35.664 473.328 35.211 c 472.992 
34.762 472.824 34.141 472.824 33.359 c 472.824 32.574 472.992 31.953 
473.324 31.504 c 473.66 31.051 474.117 30.828 474.699 30.828 c 475.273 
30.828 475.73 31.051 476.066 31.504 c 476.402 31.957 476.57 32.578 
476.57 33.359 c 476.57 34.137 476.402 34.75 476.066 35.207 c 475.73 
35.66 475.273 35.891 474.699 35.891 c 474.699 36.801 m 475.637 36.801 
476.375 36.496 476.91 35.887 c 477.445 35.277 477.715 34.434 477.715 
33.359 c 477.715 32.285 477.445 31.441 476.91 30.828 c 476.375 30.219 
475.637 29.91 474.699 29.91 c 473.758 29.91 473.023 30.219 472.488 
30.828 c 471.957 31.441 471.688 32.285 471.688 33.359 c 471.688 34.434 
471.957 35.277 472.488 35.887 c 473.023 36.496 473.758 36.801 474.699 
36.801 c f
478.875 36.645 m 479.953 36.645 l 481.301 31.523 l 482.641 36.645 l 
483.91 36.645 l 485.258 31.523 l 486.602 36.645 l 487.68 36.645 l 
485.961 30.082 l 484.691 30.082 l 483.281 35.461 l 481.863 30.082 l 
480.59 30.082 l h
478.875 36.645 m f
493.293 38.832 m 497.941 38.832 l 497.941 37.832 l 494.379 37.832 l 
494.379 35.691 l 494.547 35.75 494.719 35.793 494.891 35.82 c 495.062 
35.852 495.234 35.863 495.41 35.863 c 496.387 35.863 497.156 35.598 
497.727 35.062 c 498.301 34.527 498.586 33.801 498.586 32.891 c 498.586 
31.949 498.293 31.215 497.707 30.691 c 497.121 30.172 496.293 29.91 
495.227 29.91 c 494.859 29.91 494.484 29.941 494.105 30.004 c 493.723 
30.066 493.332 30.16 492.926 30.285 c 492.926 31.477 l 493.277 31.285 
493.637 31.145 494.012 31.051 c 494.387 30.957 494.785 30.91 495.203 
30.91 c 495.879 30.91 496.414 31.086 496.809 31.441 c 497.203 31.797 
497.398 32.277 497.398 32.891 c 497.398 33.496 497.203 33.98 496.809 
34.336 c 496.414 34.691 495.879 34.867 495.203 34.867 c 494.887 34.867 
494.57 34.832 494.254 34.766 c 493.941 34.695 493.621 34.586 493.293 
34.438 c h
493.293 38.832 m f
503.445 38.051 m 502.836 38.051 502.379 37.75 502.07 37.152 c 501.766 
36.551 501.613 35.652 501.613 34.445 c 501.613 33.25 501.766 32.348 
502.07 31.75 c 502.379 31.148 502.836 30.848 503.445 30.848 c 504.059 
30.848 504.52 31.148 504.828 31.75 c 505.133 32.348 505.289 33.25 
505.289 34.445 c 505.289 35.652 505.133 36.551 504.828 37.152 c 504.52 
37.75 504.059 38.051 503.445 38.051 c 503.445 38.988 m 504.426 38.988 
505.176 38.602 505.695 37.824 c 506.211 37.047 506.473 35.922 506.473 
34.445 c 506.473 32.973 506.211 31.852 505.695 31.074 c 505.176 30.297 
504.426 29.91 503.445 29.91 c 502.465 29.91 501.719 30.297 501.199 
31.074 c 500.684 31.852 500.426 32.973 500.426 34.445 c 500.426 35.922 
500.684 37.047 501.199 37.824 c 501.719 38.602 502.465 38.988 503.445 
38.988 c f
518.398 43.199 m 518.398 47.199 l S
518.398 388.801 m 518.398 384.801 l S
219.355 16.828 m 219.355 17.609 219.195 18.211 218.871 18.641 c 218.551 
19.07 218.098 19.285 217.516 19.285 c 216.938 19.285 216.488 19.07 
216.168 18.641 c 215.844 18.211 215.684 17.609 215.684 16.828 c 215.684 
16.047 215.844 15.445 216.168 15.016 c 216.488 14.586 216.938 14.371 
217.516 14.371 c 218.098 14.371 218.551 14.586 218.871 15.016 c 219.195 
15.445 219.355 16.047 219.355 16.828 c 220.434 14.281 m 220.434 13.164 
220.188 12.336 219.691 11.789 c 219.195 11.246 218.438 10.973 217.41 
10.973 c 217.031 10.973 216.676 11 216.34 11.059 c 216.004 11.113 
215.676 11.199 215.359 11.316 c 215.359 12.367 l 215.676 12.195 215.988 
12.066 216.297 11.988 c 216.605 11.906 216.922 11.863 217.242 11.863 c 
217.949 11.863 218.477 12.047 218.828 12.418 c 219.18 12.785 219.355 
13.344 219.355 14.09 c 219.355 14.625 l 219.133 14.234 218.848 13.945 
218.5 13.754 c 218.152 13.562 217.738 13.469 217.254 13.469 c 216.449 
13.469 215.801 13.773 215.309 14.387 c 214.816 15 214.57 15.812 214.57 
16.828 c 214.57 17.84 214.816 18.656 215.309 19.266 c 215.801 19.883 
216.449 20.188 217.254 20.188 c 217.738 20.188 218.152 20.094 218.5 
19.902 c 218.848 19.711 219.133 19.422 219.355 19.035 c 219.355 20.031 
l 220.434 20.031 l h
220.434 14.281 m f
226.457 19.023 m 226.336 19.094 226.203 19.145 226.062 19.176 c 225.918 
19.211 225.762 19.227 225.59 19.227 c 224.98 19.227 224.512 19.031 
224.188 18.633 c 223.859 18.238 223.699 17.668 223.699 16.926 c 223.699 
13.469 l 222.613 13.469 l 222.613 20.031 l 223.699 20.031 l 223.699 
19.012 l 223.926 19.41 224.219 19.703 224.582 19.898 c 224.945 20.09 
225.387 20.188 225.91 20.188 c 225.98 20.188 226.062 20.184 226.152 
20.172 c 226.242 20.164 226.344 20.148 226.453 20.129 c h
226.457 19.023 m f
230.57 16.766 m 229.699 16.766 229.098 16.668 228.762 16.469 c 228.426 
16.27 228.258 15.93 228.258 15.449 c 228.258 15.066 228.383 14.762 
228.637 14.535 c 228.887 14.312 229.23 14.203 229.664 14.203 c 230.262 
14.203 230.742 14.414 231.102 14.836 c 231.465 15.262 231.645 15.824 
231.645 16.527 c 231.645 16.766 l h
232.723 17.211 m 232.723 13.469 l 231.645 13.469 l 231.645 14.465 l 
231.398 14.066 231.09 13.773 230.723 13.582 c 230.355 13.391 229.906 
13.297 229.375 13.297 c 228.703 13.297 228.172 13.484 227.773 13.863 c 
227.375 14.242 227.18 14.746 227.18 15.379 c 227.18 16.117 227.426 
16.672 227.918 17.047 c 228.414 17.422 229.152 17.609 230.133 17.609 c 
231.645 17.609 l 231.645 17.719 l 231.645 18.215 231.48 18.598 231.156 
18.867 c 230.828 19.141 230.371 19.273 229.781 19.273 c 229.406 19.273 
229.039 19.23 228.684 19.141 c 228.328 19.051 227.988 18.914 227.66 
18.734 c 227.66 19.734 l 228.055 19.887 228.438 20 228.809 20.074 c 
229.18 20.148 229.539 20.188 229.891 20.188 c 230.84 20.188 231.551 
19.941 232.02 19.449 c 232.488 18.957 232.723 18.211 232.723 17.211 c f
239.262 19.035 m 239.262 22.586 l 240.34 22.586 l 240.34 13.469 l 
239.262 13.469 l 239.262 14.453 l 239.035 14.062 238.746 13.773 238.402 
13.582 c 238.059 13.391 237.641 13.297 237.156 13.297 c 236.363 13.297 
235.719 13.613 235.219 14.246 c 234.723 14.879 234.473 15.711 234.473 
16.742 c 234.473 17.773 234.723 18.605 235.219 19.238 c 235.719 19.871 
236.363 20.188 237.156 20.188 c 237.641 20.188 238.059 20.094 238.402 
19.902 c 238.746 19.715 239.035 19.426 239.262 19.035 c 235.586 16.742 
m 235.586 15.953 235.75 15.328 236.078 14.879 c 236.402 14.426 236.852 
14.203 237.422 14.203 c 237.992 14.203 238.441 14.426 238.766 14.879 c 
239.098 15.328 239.262 15.953 239.262 16.742 c 239.262 17.535 239.098 
18.156 238.766 18.609 c 238.441 19.062 237.992 19.285 237.422 19.285 c 
236.852 19.285 236.402 19.062 236.078 18.609 c 235.75 18.156 235.586 
17.535 235.586 16.742 c f
242.559 20.031 m 243.637 20.031 l 243.637 13.469 l 242.559 13.469 l h
242.559 22.586 m 243.637 22.586 l 243.637 21.219 l 242.559 21.219 l h
242.559 22.586 m f
251.352 17.43 m 251.352 13.469 l 250.273 13.469 l 250.273 17.395 l 
250.273 18.016 250.152 18.48 249.906 18.789 c 249.664 19.098 249.301 
19.25 248.82 19.25 c 248.234 19.25 247.777 19.066 247.441 18.695 c 
247.105 18.324 246.938 17.816 246.938 17.176 c 246.938 13.469 l 245.852 
13.469 l 245.852 20.031 l 246.938 20.031 l 246.938 19.012 l 247.195 
19.406 247.5 19.699 247.848 19.895 c 248.199 20.09 248.602 20.188 
249.059 20.188 c 249.812 20.188 250.383 19.953 250.77 19.488 c 251.156 
19.023 251.352 18.336 251.352 17.43 c f
257.816 16.828 m 257.816 17.609 257.656 18.211 257.332 18.641 c 257.012 
19.07 256.559 19.285 255.977 19.285 c 255.398 19.285 254.949 19.07 
254.629 18.641 c 254.305 18.211 254.145 17.609 254.145 16.828 c 254.145 
16.047 254.305 15.445 254.629 15.016 c 254.949 14.586 255.398 14.371 
255.977 14.371 c 256.559 14.371 257.012 14.586 257.332 15.016 c 257.656 
15.445 257.816 16.047 257.816 16.828 c 258.895 14.281 m 258.895 13.164 
258.648 12.336 258.152 11.789 c 257.656 11.246 256.898 10.973 255.871 
10.973 c 255.492 10.973 255.137 11 254.801 11.059 c 254.465 11.113 
254.137 11.199 253.82 11.316 c 253.82 12.367 l 254.137 12.195 254.449 
12.066 254.758 11.988 c 255.066 11.906 255.383 11.863 255.703 11.863 c 
256.41 11.863 256.938 12.047 257.289 12.418 c 257.641 12.785 257.816 
13.344 257.816 14.09 c 257.816 14.625 l 257.594 14.234 257.309 13.945 
256.961 13.754 c 256.613 13.562 256.199 13.469 255.715 13.469 c 254.91 
13.469 254.262 13.773 253.77 14.387 c 253.277 15 253.031 15.812 253.031 
16.828 c 253.031 17.84 253.277 18.656 253.77 19.266 c 254.262 19.883 
254.91 20.188 255.715 20.188 c 256.199 20.188 256.613 20.094 256.961 
19.902 c 257.309 19.711 257.594 19.422 257.816 19.035 c 257.816 20.031 
l 258.895 20.031 l h
258.895 14.281 m f
268.254 22.586 m 268.254 21.688 l 267.223 21.688 l 266.836 21.688 
266.566 21.609 266.414 21.453 c 266.266 21.297 266.191 21.016 266.191 
20.609 c 266.191 20.031 l 267.965 20.031 l 267.965 19.191 l 266.191 
19.191 l 266.191 13.469 l 265.105 13.469 l 265.105 19.191 l 264.074 
19.191 l 264.074 20.031 l 265.105 20.031 l 265.105 20.488 l 265.105 
21.219 265.277 21.75 265.617 22.082 c 265.957 22.418 266.496 22.586 
267.234 22.586 c h
268.254 22.586 m f
271.699 19.273 m 271.121 19.273 270.664 19.051 270.328 18.598 c 269.992 
18.148 269.824 17.527 269.824 16.742 c 269.824 15.957 269.988 15.34 
270.324 14.891 c 270.66 14.438 271.117 14.211 271.699 14.211 c 272.273 
14.211 272.727 14.438 273.062 14.891 c 273.398 15.344 273.566 15.961 
273.566 16.742 c 273.566 17.52 273.398 18.137 273.062 18.594 c 272.727 
19.047 272.273 19.273 271.699 19.273 c 271.699 20.188 m 272.637 20.188 
273.371 19.883 273.906 19.273 c 274.441 18.664 274.711 17.82 274.711 
16.742 c 274.711 15.672 274.441 14.828 273.906 14.215 c 273.371 13.602 
272.637 13.297 271.699 13.297 c 270.758 13.297 270.02 13.602 269.484 
14.215 c 268.953 14.828 268.688 15.672 268.688 16.742 c 268.688 17.82 
268.953 18.664 269.484 19.273 c 270.02 19.883 270.758 20.188 271.699 
20.188 c f
280.301 19.023 m 280.18 19.094 280.047 19.145 279.902 19.176 c 279.762 
19.211 279.605 19.227 279.434 19.227 c 278.824 19.227 278.355 19.031 
278.027 18.633 c 277.703 18.238 277.539 17.668 277.539 16.926 c 277.539 
13.469 l 276.457 13.469 l 276.457 20.031 l 277.539 20.031 l 277.539 
19.012 l 277.766 19.41 278.062 19.703 278.426 19.898 c 278.789 20.09 
279.23 20.188 279.75 20.188 c 279.824 20.188 279.906 20.184 279.996 
20.172 c 280.086 20.164 280.184 20.148 280.293 20.129 c h
280.301 19.023 m f
286.266 22.219 m 286.266 18.965 l 285.27 18.965 l 285.27 22.219 l h
288.48 22.219 m 288.48 18.965 l 287.484 18.965 l 287.484 22.219 l h
288.48 22.219 m f
294.363 21.414 m 293.504 21.414 292.82 21.094 292.312 20.453 c 291.809 
19.812 291.555 18.938 291.555 17.832 c 291.555 16.73 291.809 15.859 
292.312 15.219 c 292.82 14.578 293.504 14.258 294.363 14.258 c 295.223 
14.258 295.902 14.578 296.406 15.219 c 296.906 15.859 297.16 16.73 
297.16 17.832 c 297.16 18.938 296.906 19.812 296.406 20.453 c 295.902 
21.094 295.223 21.414 294.363 21.414 c 294.363 22.375 m 295.59 22.375 
296.57 21.965 297.305 21.141 c 298.039 20.316 298.406 19.215 298.406 
17.832 c 298.406 16.453 298.039 15.355 297.305 14.531 c 296.57 13.707 
295.59 13.297 294.363 13.297 c 293.133 13.297 292.148 13.707 291.41 
14.527 c 290.676 15.348 290.309 16.449 290.309 17.832 c 290.309 19.215 
290.676 20.316 291.41 21.141 c 292.148 21.965 293.133 22.375 294.363 
22.375 c f
299.438 20.031 m 300.578 20.031 l 302.629 14.523 l 304.684 20.031 l 
305.824 20.031 l 303.363 13.469 l 301.898 13.469 l h
299.438 20.031 m f
312.926 17.02 m 312.926 16.492 l 307.969 16.492 l 308.016 15.75 308.238 
15.184 308.641 14.797 c 309.039 14.406 309.598 14.211 310.312 14.211 c 
310.727 14.211 311.125 14.262 311.516 14.363 c 311.902 14.465 312.289 
14.617 312.676 14.82 c 312.676 13.801 l 312.285 13.637 311.891 13.512 
311.484 13.426 c 311.078 13.34 310.664 13.297 310.246 13.297 c 309.199 
13.297 308.371 13.602 307.758 14.211 c 307.148 14.82 306.844 15.645 
306.844 16.688 c 306.844 17.758 307.133 18.609 307.711 19.242 c 308.293 
19.871 309.074 20.188 310.059 20.188 c 310.941 20.188 311.641 19.902 
312.156 19.336 c 312.668 18.766 312.926 17.996 312.926 17.02 c 311.848 
17.336 m 311.84 17.926 311.676 18.395 311.352 18.746 c 311.031 19.098 
310.602 19.273 310.07 19.273 c 309.469 19.273 308.988 19.105 308.629 
18.766 c 308.266 18.426 308.059 17.945 308.004 17.328 c h
311.848 17.336 m f
318.496 19.023 m 318.375 19.094 318.242 19.145 318.102 19.176 c 317.957 
19.211 317.801 19.227 317.629 19.227 c 317.02 19.227 316.551 19.031 
316.227 18.633 c 315.898 18.238 315.738 17.668 315.738 16.926 c 315.738 
13.469 l 314.652 13.469 l 314.652 20.031 l 315.738 20.031 l 315.738 
19.012 l 315.965 19.41 316.258 19.703 316.621 19.898 c 316.984 20.09 
317.426 20.188 317.949 20.188 c 318.02 20.188 318.102 20.184 318.191 
20.172 c 318.281 20.164 318.383 20.148 318.492 20.129 c h
318.496 19.023 m f
322.609 16.766 m 321.738 16.766 321.137 16.668 320.801 16.469 c 320.465 
16.27 320.297 15.93 320.297 15.449 c 320.297 15.066 320.422 14.762 
320.676 14.535 c 320.926 14.312 321.27 14.203 321.703 14.203 c 322.301 
14.203 322.781 14.414 323.141 14.836 c 323.504 15.262 323.684 15.824 
323.684 16.527 c 323.684 16.766 l h
324.762 17.211 m 324.762 13.469 l 323.684 13.469 l 323.684 14.465 l 
323.438 14.066 323.129 13.773 322.762 13.582 c 322.395 13.391 321.945 
13.297 321.414 13.297 c 320.742 13.297 320.211 13.484 319.812 13.863 c 
319.414 14.242 319.219 14.746 319.219 15.379 c 319.219 16.117 319.465 
16.672 319.957 17.047 c 320.453 17.422 321.191 17.609 322.172 17.609 c 
323.684 17.609 l 323.684 17.719 l 323.684 18.215 323.52 18.598 323.195 
18.867 c 322.867 19.141 322.41 19.273 321.82 19.273 c 321.445 19.273 
321.078 19.23 320.723 19.141 c 320.367 19.051 320.027 18.914 319.699 
18.734 c 319.699 19.734 l 320.094 19.887 320.477 20 320.848 20.074 c 
321.219 20.148 321.578 20.188 321.93 20.188 c 322.879 20.188 323.59 
19.941 324.059 19.449 c 324.527 18.957 324.762 18.211 324.762 17.211 c f
326.98 22.586 1.078 -9.117 re f
330.316 22.586 1.078 -9.117 re f
338.637 11.477 m 338.637 10.641 l 332.402 10.641 l 332.402 11.477 l h
338.637 11.477 m f
344.941 21.93 m 344.941 20.773 l 344.492 20.988 344.066 21.148 343.668 
21.254 c 343.27 21.359 342.887 21.414 342.516 21.414 c 341.871 21.414 
341.375 21.289 341.023 21.039 c 340.672 20.789 340.5 20.434 340.5 
19.973 c 340.5 19.586 340.613 19.293 340.848 19.094 c 341.078 18.898 
341.52 18.738 342.168 18.617 c 342.883 18.473 l 343.766 18.305 344.418 
18.008 344.836 17.582 c 345.258 17.16 345.469 16.594 345.469 15.883 c 
345.469 15.035 345.184 14.391 344.613 13.953 c 344.047 13.516 343.215 
13.297 342.117 13.297 c 341.703 13.297 341.262 13.344 340.797 13.438 c 
340.328 13.531 339.844 13.672 339.344 13.855 c 339.344 15.074 l 339.824 
14.805 340.297 14.602 340.758 14.465 c 341.219 14.328 341.672 14.258 
342.117 14.258 c 342.793 14.258 343.312 14.391 343.68 14.656 c 344.047 
14.922 344.23 15.301 344.23 15.797 c 344.23 16.223 344.102 16.559 
343.836 16.801 c 343.574 17.043 343.141 17.227 342.539 17.348 c 341.816 
17.488 l 340.934 17.664 340.297 17.938 339.902 18.312 c 339.508 18.688 
339.309 19.211 339.309 19.879 c 339.309 20.652 339.582 21.262 340.129 
21.707 c 340.672 22.152 341.422 22.375 342.379 22.375 c 342.789 22.375 
343.207 22.336 343.633 22.262 c 344.059 22.188 344.496 22.078 344.941 
21.93 c f
351.988 19.781 m 351.988 18.77 l 351.684 18.938 351.379 19.066 351.074 
19.148 c 350.766 19.234 350.457 19.273 350.145 19.273 c 349.445 19.273 
348.902 19.055 348.512 18.609 c 348.129 18.168 347.934 17.547 347.934 
16.742 c 347.934 15.941 348.129 15.32 348.512 14.875 c 348.902 14.434 
349.445 14.211 350.145 14.211 c 350.457 14.211 350.766 14.254 351.074 
14.34 c 351.379 14.422 351.684 14.547 351.988 14.719 c 351.988 13.719 l 
351.688 13.578 351.375 13.473 351.055 13.406 c 350.734 13.332 350.391 
13.297 350.027 13.297 c 349.039 13.297 348.254 13.609 347.668 14.23 c 
347.09 14.852 346.797 15.688 346.797 16.742 c 346.797 17.812 347.09 
18.656 347.68 19.266 c 348.27 19.883 349.074 20.188 350.098 20.188 c 
350.43 20.188 350.754 20.152 351.07 20.086 c 351.387 20.016 351.691 
19.914 351.988 19.781 c f
356.406 19.273 m 355.828 19.273 355.371 19.051 355.035 18.598 c 354.699 
18.148 354.531 17.527 354.531 16.742 c 354.531 15.957 354.699 15.34 
355.031 14.891 c 355.367 14.438 355.824 14.211 356.406 14.211 c 356.98 
14.211 357.438 14.438 357.773 14.891 c 358.109 15.344 358.277 15.961 
358.277 16.742 c 358.277 17.52 358.109 18.137 357.773 18.594 c 357.438 
19.047 356.98 19.273 356.406 19.273 c 356.406 20.188 m 357.344 20.188 
358.082 19.883 358.617 19.273 c 359.152 18.664 359.422 17.82 359.422 
16.742 c 359.422 15.672 359.152 14.828 358.617 14.215 c 358.082 13.602 
357.344 13.297 356.406 13.297 c 355.465 13.297 354.727 13.602 354.195 
14.215 c 353.66 14.828 353.395 15.672 353.395 16.742 c 353.395 17.82 
353.66 18.664 354.195 19.273 c 354.727 19.883 355.465 20.188 356.406 
20.188 c f
365.008 19.023 m 364.887 19.094 364.754 19.145 364.613 19.176 c 364.469 
19.211 364.312 19.227 364.141 19.227 c 363.531 19.227 363.062 19.031 
362.738 18.633 c 362.41 18.238 362.25 17.668 362.25 16.926 c 362.25 
13.469 l 361.164 13.469 l 361.164 20.031 l 362.25 20.031 l 362.25 
19.012 l 362.477 19.41 362.77 19.703 363.133 19.898 c 363.496 20.09 
363.938 20.188 364.461 20.188 c 364.531 20.188 364.613 20.184 364.703 
20.172 c 364.793 20.164 364.895 20.148 365.004 20.129 c h
365.008 19.023 m f
371.484 17.02 m 371.484 16.492 l 366.527 16.492 l 366.574 15.75 366.797 
15.184 367.195 14.797 c 367.598 14.406 368.156 14.211 368.871 14.211 c 
369.285 14.211 369.684 14.262 370.074 14.363 c 370.461 14.465 370.848 
14.617 371.23 14.82 c 371.23 13.801 l 370.844 13.637 370.449 13.512 
370.043 13.426 c 369.637 13.34 369.223 13.297 368.805 13.297 c 367.758 
13.297 366.93 13.602 366.316 14.211 c 365.707 14.82 365.402 15.645 
365.402 16.688 c 365.402 17.758 365.691 18.609 366.27 19.242 c 366.852 
19.871 367.633 20.188 368.617 20.188 c 369.5 20.188 370.199 19.902 
370.711 19.336 c 371.227 18.766 371.484 17.996 371.484 17.02 c 370.406 
17.336 m 370.398 17.926 370.234 18.395 369.91 18.746 c 369.586 19.098 
369.16 19.273 368.629 19.273 c 368.027 19.273 367.547 19.105 367.188 
18.766 c 366.824 18.426 366.617 17.945 366.562 17.328 c h
370.406 17.336 m f
374.273 22.219 m 374.273 18.965 l 373.277 18.965 l 373.277 22.219 l h
376.488 22.219 m 376.488 18.965 l 375.492 18.965 l 375.492 22.219 l h
376.488 22.219 m f
72 43.199 m 76 43.199 l f
72 43.199 m 76 43.199 l S
518.398 43.199 m 514.398 43.199 l f
518.398 43.199 m 514.398 43.199 l S
65.766 47.859 m 65.156 47.859 64.699 47.559 64.391 46.957 c 64.086 
46.359 63.934 45.457 63.934 44.254 c 63.934 43.055 64.086 42.156 64.391 
41.555 c 64.699 40.957 65.156 40.656 65.766 40.656 c 66.379 40.656 
66.84 40.957 67.148 41.555 c 67.453 42.156 67.609 43.055 67.609 44.254 
c 67.609 45.457 67.453 46.359 67.148 46.957 c 66.84 47.559 66.379 
47.859 65.766 47.859 c 65.766 48.797 m 66.75 48.797 67.496 48.406 
68.016 47.629 c 68.531 46.855 68.793 45.73 68.793 44.254 c 68.793 
42.781 68.531 41.656 68.016 40.879 c 67.496 40.105 66.75 39.719 65.766 
39.719 c 64.785 39.719 64.039 40.105 63.52 40.879 c 63.004 41.656 
62.746 42.781 62.746 44.254 c 62.746 45.73 63.004 46.855 63.52 47.629 c 
64.039 48.406 64.785 48.797 65.766 48.797 c f
72 92.57 m 76 92.57 l f
72 92.57 m 76 92.57 l S
518.398 92.57 m 514.398 92.57 l f
518.398 92.57 m 514.398 92.57 l S
48.113 98.008 m 52.762 98.008 l 52.762 97.012 l 49.199 97.012 l 49.199 
94.867 l 49.367 94.926 49.539 94.973 49.711 95 c 49.883 95.027 50.055 
95.043 50.23 95.043 c 51.203 95.043 51.977 94.773 52.547 94.238 c 
53.121 93.707 53.406 92.98 53.406 92.066 c 53.406 91.125 53.113 90.395 
52.527 89.871 c 51.938 89.352 51.113 89.09 50.047 89.09 c 49.68 89.09 
49.305 89.121 48.922 89.184 c 48.543 89.246 48.152 89.34 47.746 89.465 
c 47.746 90.656 l 48.094 90.465 48.457 90.32 48.832 90.227 c 49.207 
90.133 49.605 90.086 50.023 90.086 c 50.699 90.086 51.234 90.266 51.629 
90.621 c 52.023 90.973 52.219 91.457 52.219 92.066 c 52.219 92.676 
52.023 93.156 51.629 93.512 c 51.234 93.867 50.699 94.047 50.023 94.047 
c 49.707 94.047 49.391 94.012 49.074 93.941 c 48.762 93.871 48.441 
93.762 48.113 93.613 c h
48.113 98.008 m f
58.266 97.23 m 57.656 97.23 57.199 96.93 56.891 96.328 c 56.586 95.73 
56.434 94.828 56.434 93.625 c 56.434 92.426 56.586 91.527 56.891 90.926 
c 57.199 90.328 57.656 90.027 58.266 90.027 c 58.879 90.027 59.34 
90.328 59.648 90.926 c 59.953 91.527 60.109 92.426 60.109 93.625 c 
60.109 94.828 59.953 95.73 59.648 96.328 c 59.34 96.93 58.879 97.23 
58.266 97.23 c 58.266 98.168 m 59.246 98.168 59.996 97.777 60.516 
97.004 c 61.031 96.227 61.293 95.102 61.293 93.625 c 61.293 92.152 
61.031 91.027 60.516 90.254 c 59.996 89.477 59.246 89.09 58.266 89.09 c 
57.285 89.09 56.539 89.477 56.02 90.254 c 55.504 91.027 55.242 92.152 
55.242 93.625 c 55.242 95.102 55.504 96.227 56.02 97.004 c 56.539 
97.777 57.285 98.168 58.266 98.168 c f
65.902 97.23 m 65.293 97.23 64.836 96.93 64.527 96.328 c 64.223 95.73 
64.066 94.828 64.066 93.625 c 64.066 92.426 64.223 91.527 64.527 90.926 
c 64.836 90.328 65.293 90.027 65.902 90.027 c 66.516 90.027 66.977 
90.328 67.281 90.926 c 67.59 91.527 67.742 92.426 67.742 93.625 c 
67.742 94.828 67.59 95.73 67.281 96.328 c 66.977 96.93 66.516 97.23 
65.902 97.23 c 65.902 98.168 m 66.883 98.168 67.633 97.777 68.148 
97.004 c 68.668 96.227 68.926 95.102 68.926 93.625 c 68.926 92.152 
68.668 91.027 68.148 90.254 c 67.633 89.477 66.883 89.09 65.902 89.09 c 
64.922 89.09 64.172 89.477 63.656 90.254 c 63.137 91.027 62.879 92.152 
62.879 93.625 c 62.879 95.102 63.137 96.227 63.656 97.004 c 64.172 
97.777 64.922 98.168 65.902 98.168 c f
72 141.941 m 76 141.941 l f
72 141.941 m 76 141.941 l S
518.398 141.941 m 514.398 141.941 l f
518.398 141.941 m 514.398 141.941 l S
41.062 139.629 m 42.996 139.629 l 42.996 146.301 l 40.895 145.879 l 
40.895 146.957 l 42.984 147.379 l 44.168 147.379 l 44.168 139.629 l 
46.102 139.629 l 46.102 138.633 l 41.062 138.633 l h
41.062 139.629 m f
51.023 146.602 m 50.414 146.602 49.957 146.301 49.648 145.699 c 49.344 
145.102 49.191 144.199 49.191 142.996 c 49.191 141.797 49.344 140.898 
49.648 140.297 c 49.957 139.699 50.414 139.398 51.023 139.398 c 51.637 
139.398 52.098 139.699 52.402 140.297 c 52.711 140.898 52.863 141.797 
52.863 142.996 c 52.863 144.199 52.711 145.102 52.402 145.699 c 52.098 
146.301 51.637 146.602 51.023 146.602 c 51.023 147.539 m 52.004 147.539 
52.754 147.148 53.273 146.375 c 53.789 145.598 54.047 144.473 54.047 
142.996 c 54.047 141.523 53.789 140.398 53.273 139.625 c 52.754 138.848 
52.004 138.461 51.023 138.461 c 50.043 138.461 49.293 138.848 48.777 
139.625 c 48.258 140.398 48 141.523 48 142.996 c 48 144.473 48.258 
145.598 48.777 146.375 c 49.293 147.148 50.043 147.539 51.023 147.539 c f
58.66 146.602 m 58.051 146.602 57.59 146.301 57.285 145.699 c 56.977 
145.102 56.824 144.199 56.824 142.996 c 56.824 141.797 56.977 140.898 
57.285 140.297 c 57.59 139.699 58.051 139.398 58.66 139.398 c 59.273 
139.398 59.73 139.699 60.039 140.297 c 60.348 140.898 60.5 141.797 60.5 
142.996 c 60.5 144.199 60.348 145.102 60.039 145.699 c 59.73 146.301 
59.273 146.602 58.66 146.602 c 58.66 147.539 m 59.641 147.539 60.391 
147.148 60.906 146.375 c 61.426 145.598 61.684 144.473 61.684 142.996 c 
61.684 141.523 61.426 140.398 60.906 139.625 c 60.391 138.848 59.641 
138.461 58.66 138.461 c 57.68 138.461 56.93 138.848 56.41 139.625 c 
55.895 140.398 55.637 141.523 55.637 142.996 c 55.637 144.473 55.895 
145.598 56.41 146.375 c 56.93 147.148 57.68 147.539 58.66 147.539 c f
66.293 146.602 m 65.684 146.602 65.227 146.301 64.918 145.699 c 64.613 
145.102 64.461 144.199 64.461 142.996 c 64.461 141.797 64.613 140.898 
64.918 140.297 c 65.227 139.699 65.684 139.398 66.293 139.398 c 66.906 
139.398 67.367 139.699 67.672 140.297 c 67.98 140.898 68.133 141.797 
68.133 142.996 c 68.133 144.199 67.98 145.102 67.672 145.699 c 67.367 
146.301 66.906 146.602 66.293 146.602 c 66.293 147.539 m 67.273 147.539 
68.023 147.148 68.543 146.375 c 69.059 145.598 69.316 144.473 69.316 
142.996 c 69.316 141.523 69.059 140.398 68.543 139.625 c 68.023 138.848 
67.273 138.461 66.293 138.461 c 65.312 138.461 64.562 138.848 64.047 
139.625 c 63.531 140.398 63.27 141.523 63.27 142.996 c 63.27 144.473 
63.531 145.598 64.047 146.375 c 64.562 147.148 65.312 147.539 66.293 
147.539 c f
72 191.312 m 76 191.312 l f
72 191.312 m 76 191.312 l S
518.398 191.312 m 514.398 191.312 l f
518.398 191.312 m 514.398 191.312 l S
41.062 189 m 42.996 189 l 42.996 195.672 l 40.895 195.25 l 40.895 
196.328 l 42.984 196.75 l 44.168 196.75 l 44.168 189 l 46.102 189 l 
46.102 188.004 l 41.062 188.004 l h
41.062 189 m f
48.504 196.75 m 53.152 196.75 l 53.152 195.754 l 49.59 195.754 l 49.59 
193.609 l 49.762 193.668 49.934 193.715 50.102 193.742 c 50.273 193.77 
50.449 193.785 50.621 193.785 c 51.598 193.785 52.371 193.52 52.941 
192.984 c 53.512 192.449 53.797 191.723 53.797 190.809 c 53.797 189.867 
53.504 189.137 52.918 188.613 c 52.332 188.094 51.504 187.832 50.438 
187.832 c 50.07 187.832 49.695 187.863 49.316 187.926 c 48.934 187.988 
48.543 188.082 48.137 188.207 c 48.137 189.398 l 48.488 189.207 48.852 
189.062 49.227 188.969 c 49.602 188.875 49.996 188.828 50.414 188.828 c 
51.09 188.828 51.625 189.008 52.02 189.363 c 52.414 189.719 52.613 
190.199 52.613 190.809 c 52.613 191.418 52.414 191.902 52.02 192.254 c 
51.625 192.613 51.09 192.789 50.414 192.789 c 50.098 192.789 49.781 
192.754 49.469 192.684 c 49.152 192.613 48.832 192.504 48.504 192.355 c 
h
48.504 196.75 m f
58.66 195.973 m 58.051 195.973 57.59 195.672 57.285 195.07 c 56.977 
194.473 56.824 193.57 56.824 192.367 c 56.824 191.168 56.977 190.27 
57.285 189.668 c 57.59 189.07 58.051 188.77 58.66 188.77 c 59.273 
188.77 59.73 189.07 60.039 189.668 c 60.348 190.27 60.5 191.168 60.5 
192.367 c 60.5 193.57 60.348 194.473 60.039 195.07 c 59.73 195.672 
59.273 195.973 58.66 195.973 c 58.66 196.91 m 59.641 196.91 60.391 
196.52 60.906 195.746 c 61.426 194.969 61.684 193.844 61.684 192.367 c 
61.684 190.895 61.426 189.77 60.906 188.996 c 60.391 188.219 59.641 
187.832 58.66 187.832 c 57.68 187.832 56.93 188.219 56.41 188.996 c 
55.895 189.77 55.637 190.895 55.637 192.367 c 55.637 193.844 55.895 
194.969 56.41 195.746 c 56.93 196.52 57.68 196.91 58.66 196.91 c f
66.293 195.973 m 65.684 195.973 65.227 195.672 64.918 195.07 c 64.613 
194.473 64.461 193.57 64.461 192.367 c 64.461 191.168 64.613 190.27 
64.918 189.668 c 65.227 189.07 65.684 188.77 66.293 188.77 c 66.906 
188.77 67.367 189.07 67.672 189.668 c 67.98 190.27 68.133 191.168 
68.133 192.367 c 68.133 193.57 67.98 194.473 67.672 195.07 c 67.367 
195.672 66.906 195.973 66.293 195.973 c 66.293 196.91 m 67.273 196.91 
68.023 196.52 68.543 195.746 c 69.059 194.969 69.316 193.844 69.316 
192.367 c 69.316 190.895 69.059 189.77 68.543 188.996 c 68.023 188.219 
67.273 187.832 66.293 187.832 c 65.312 187.832 64.562 188.219 64.047 
188.996 c 63.531 189.77 63.27 190.895 63.27 192.367 c 63.27 193.844 
63.531 194.969 64.047 195.746 c 64.562 196.52 65.312 196.91 66.293 
196.91 c f
72 240.688 m 76 240.688 l f
72 240.688 m 76 240.688 l S
518.398 240.688 m 514.398 240.688 l f
518.398 240.688 m 514.398 240.688 l S
41.438 238.371 m 45.57 238.371 l 45.57 237.375 l 40.016 237.375 l 
40.016 238.371 l 40.465 238.836 41.078 239.457 41.852 240.242 c 42.629 
241.023 43.113 241.531 43.312 241.758 c 43.691 242.184 43.957 242.543 
44.105 242.84 c 44.258 243.133 44.332 243.422 44.332 243.707 c 44.332 
244.172 44.172 244.551 43.844 244.844 c 43.52 245.137 43.094 245.285 
42.57 245.285 c 42.199 245.285 41.805 245.223 41.395 245.094 c 40.984 
244.965 40.543 244.77 40.074 244.504 c 40.074 245.703 l 40.551 245.895 
40.996 246.035 41.41 246.133 c 41.824 246.23 42.203 246.281 42.547 
246.281 c 43.453 246.281 44.176 246.055 44.715 245.602 c 45.254 245.148 
45.523 244.543 45.523 243.785 c 45.523 243.426 45.453 243.082 45.32 
242.762 c 45.188 242.441 44.941 242.062 44.586 241.625 c 44.488 241.508 
44.176 241.184 43.652 240.641 c 43.129 240.098 42.391 239.344 41.438 
238.371 c f
50.586 245.344 m 49.977 245.344 49.52 245.043 49.211 244.441 c 48.902 
243.844 48.75 242.941 48.75 241.738 c 48.75 240.539 48.902 239.641 
49.211 239.043 c 49.52 238.441 49.977 238.141 50.586 238.141 c 51.199 
238.141 51.66 238.441 51.965 239.043 c 52.273 239.641 52.426 240.539 
52.426 241.738 c 52.426 242.941 52.273 243.844 51.965 244.441 c 51.66 
245.043 51.199 245.344 50.586 245.344 c 50.586 246.281 m 51.566 246.281 
52.316 245.895 52.832 245.117 c 53.352 244.34 53.609 243.215 53.609 
241.738 c 53.609 240.266 53.352 239.145 52.832 238.367 c 52.316 237.59 
51.566 237.203 50.586 237.203 c 49.605 237.203 48.855 237.59 48.34 
238.367 c 47.82 239.145 47.562 240.266 47.562 241.738 c 47.562 243.215 
47.82 244.34 48.34 245.117 c 48.855 245.895 49.605 246.281 50.586 
246.281 c f
58.219 245.344 m 57.609 245.344 57.152 245.043 56.844 244.441 c 56.539 
243.844 56.387 242.941 56.387 241.738 c 56.387 240.539 56.539 239.641 
56.844 239.043 c 57.152 238.441 57.609 238.141 58.219 238.141 c 58.832 
238.141 59.293 238.441 59.598 239.043 c 59.906 239.641 60.062 240.539 
60.062 241.738 c 60.062 242.941 59.906 243.844 59.598 244.441 c 59.293 
245.043 58.832 245.344 58.219 245.344 c 58.219 246.281 m 59.199 246.281 
59.949 245.895 60.469 245.117 c 60.984 244.34 61.242 243.215 61.242 
241.738 c 61.242 240.266 60.984 239.145 60.469 238.367 c 59.949 237.59 
59.199 237.203 58.219 237.203 c 57.238 237.203 56.492 237.59 55.973 
238.367 c 55.457 239.145 55.195 240.266 55.195 241.738 c 55.195 243.215 
55.457 244.34 55.973 245.117 c 56.492 245.895 57.238 246.281 58.219 
246.281 c f
65.855 245.344 m 65.246 245.344 64.789 245.043 64.48 244.441 c 64.172 
243.844 64.02 242.941 64.02 241.738 c 64.02 240.539 64.172 239.641 
64.48 239.043 c 64.789 238.441 65.246 238.141 65.855 238.141 c 66.469 
238.141 66.93 238.441 67.234 239.043 c 67.543 239.641 67.695 240.539 
67.695 241.738 c 67.695 242.941 67.543 243.844 67.234 244.441 c 66.93 
245.043 66.469 245.344 65.855 245.344 c 65.855 246.281 m 66.836 246.281 
67.586 245.895 68.102 245.117 c 68.621 244.34 68.879 243.215 68.879 
241.738 c 68.879 240.266 68.621 239.145 68.102 238.367 c 67.586 237.59 
66.836 237.203 65.855 237.203 c 64.875 237.203 64.125 237.59 63.609 
238.367 c 63.09 239.145 62.832 240.266 62.832 241.738 c 62.832 243.215 
63.09 244.34 63.609 245.117 c 64.125 245.895 64.875 246.281 65.855 
246.281 c f
72 290.059 m 76 290.059 l f
72 290.059 m 76 290.059 l S
518.398 290.059 m 514.398 290.059 l f
518.398 290.059 m 514.398 290.059 l S
41.438 287.742 m 45.57 287.742 l 45.57 286.746 l 40.016 286.746 l 
40.016 287.742 l 40.465 288.207 41.078 288.832 41.852 289.613 c 42.629 
290.398 43.113 290.902 43.312 291.129 c 43.691 291.555 43.957 291.914 
44.105 292.211 c 44.258 292.504 44.332 292.793 44.332 293.078 c 44.332 
293.543 44.172 293.922 43.844 294.215 c 43.52 294.508 43.094 294.656 
42.57 294.656 c 42.199 294.656 41.805 294.594 41.395 294.465 c 40.984 
294.336 40.543 294.141 40.074 293.875 c 40.074 295.074 l 40.551 295.266 
40.996 295.41 41.41 295.508 c 41.824 295.602 42.203 295.652 42.547 
295.652 c 43.453 295.652 44.176 295.426 44.715 294.973 c 45.254 294.52 
45.523 293.914 45.523 293.156 c 45.523 292.797 45.453 292.457 45.32 
292.133 c 45.188 291.812 44.941 291.434 44.586 290.996 c 44.488 290.883 
44.176 290.555 43.652 290.012 c 43.129 289.473 42.391 288.715 41.438 
287.742 c f
48.066 295.496 m 52.711 295.496 l 52.711 294.496 l 49.148 294.496 l 
49.148 292.355 l 49.32 292.414 49.492 292.457 49.664 292.484 c 49.836 
292.516 50.008 292.527 50.184 292.527 c 51.156 292.527 51.93 292.262 
52.5 291.727 c 53.07 291.191 53.359 290.465 53.359 289.555 c 53.359 
288.613 53.066 287.879 52.477 287.355 c 51.891 286.836 51.066 286.574 
50 286.574 c 49.633 286.574 49.258 286.605 48.875 286.668 c 48.496 
286.73 48.105 286.824 47.695 286.949 c 47.695 288.141 l 48.047 287.949 
48.41 287.809 48.785 287.715 c 49.16 287.621 49.559 287.574 49.977 
287.574 c 50.652 287.574 51.188 287.75 51.582 288.105 c 51.977 288.461 
52.172 288.941 52.172 289.555 c 52.172 290.16 51.977 290.645 51.582 291 
c 51.188 291.355 50.652 291.531 49.977 291.531 c 49.66 291.531 49.344 
291.496 49.027 291.43 c 48.715 291.359 48.395 291.25 48.066 291.102 c h
48.066 295.496 m f
58.219 294.715 m 57.609 294.715 57.152 294.414 56.844 293.816 c 56.539 
293.215 56.387 292.316 56.387 291.109 c 56.387 289.914 56.539 289.012 
56.844 288.414 c 57.152 287.812 57.609 287.512 58.219 287.512 c 58.832 
287.512 59.293 287.812 59.598 288.414 c 59.906 289.012 60.062 289.914 
60.062 291.109 c 60.062 292.316 59.906 293.215 59.598 293.816 c 59.293 
294.414 58.832 294.715 58.219 294.715 c 58.219 295.652 m 59.199 295.652 
59.949 295.266 60.469 294.488 c 60.984 293.711 61.242 292.586 61.242 
291.109 c 61.242 289.637 60.984 288.516 60.469 287.738 c 59.949 286.961 
59.199 286.574 58.219 286.574 c 57.238 286.574 56.492 286.961 55.973 
287.738 c 55.457 288.516 55.195 289.637 55.195 291.109 c 55.195 292.586 
55.457 293.711 55.973 294.488 c 56.492 295.266 57.238 295.652 58.219 
295.652 c f
65.855 294.715 m 65.246 294.715 64.789 294.414 64.48 293.816 c 64.172 
293.215 64.02 292.316 64.02 291.109 c 64.02 289.914 64.172 289.012 
64.48 288.414 c 64.789 287.812 65.246 287.512 65.855 287.512 c 66.469 
287.512 66.93 287.812 67.234 288.414 c 67.543 289.012 67.695 289.914 
67.695 291.109 c 67.695 292.316 67.543 293.215 67.234 293.816 c 66.93 
294.414 66.469 294.715 65.855 294.715 c 65.855 295.652 m 66.836 295.652 
67.586 295.266 68.102 294.488 c 68.621 293.711 68.879 292.586 68.879 
291.109 c 68.879 289.637 68.621 288.516 68.102 287.738 c 67.586 286.961 
66.836 286.574 65.855 286.574 c 64.875 286.574 64.125 286.961 63.609 
287.738 c 63.09 288.516 62.832 289.637 62.832 291.109 c 62.832 292.586 
63.09 293.711 63.609 294.488 c 64.125 295.266 64.875 295.652 65.855 
295.652 c f
72 339.43 m 76 339.43 l f
72 339.43 m 76 339.43 l S
518.398 339.43 m 514.398 339.43 l f
518.398 339.43 m 514.398 339.43 l S
44.043 340.836 m 44.609 340.715 45.051 340.461 45.367 340.078 c 45.688 
339.695 45.844 339.223 45.844 338.66 c 45.844 337.797 45.547 337.129 
44.953 336.656 c 44.359 336.184 43.516 335.945 42.422 335.945 c 42.059 
335.945 41.68 335.984 41.289 336.055 c 40.902 336.129 40.5 336.238 
40.086 336.383 c 40.086 337.523 l 40.414 337.332 40.773 337.188 41.164 
337.09 c 41.555 336.992 41.965 336.945 42.391 336.945 c 43.129 336.945 
43.695 337.09 44.086 337.383 c 44.473 337.676 44.668 338.102 44.668 
338.66 c 44.668 339.176 44.488 339.578 44.125 339.871 c 43.766 340.16 
43.262 340.305 42.617 340.305 c 41.598 340.305 l 41.598 341.277 l 
42.664 341.277 l 43.246 341.277 43.691 341.395 44 341.629 c 44.309 
341.859 44.465 342.195 44.465 342.633 c 44.465 343.082 44.305 343.426 
43.984 343.668 c 43.668 343.906 43.211 344.027 42.617 344.027 c 42.293 
344.027 41.945 343.992 41.574 343.922 c 41.203 343.852 40.793 343.742 
40.348 343.594 c 40.348 344.648 l 40.801 344.773 41.219 344.867 41.613 
344.93 c 42.004 344.992 42.375 345.023 42.723 345.023 c 43.621 345.023 
44.332 344.82 44.855 344.41 c 45.379 344.004 45.641 343.453 45.641 
342.758 c 45.641 342.273 45.5 341.863 45.223 341.527 c 44.945 341.195 
44.551 340.965 44.043 340.836 c f
50.621 344.086 m 50.012 344.086 49.555 343.785 49.246 343.188 c 48.941 
342.586 48.785 341.688 48.785 340.48 c 48.785 339.285 48.941 338.383 
49.246 337.785 c 49.555 337.184 50.012 336.883 50.621 336.883 c 51.234 
336.883 51.695 337.184 52 337.785 c 52.309 338.383 52.461 339.285 
52.461 340.48 c 52.461 341.688 52.309 342.586 52 343.188 c 51.695 
343.785 51.234 344.086 50.621 344.086 c 50.621 345.023 m 51.602 345.023 
52.352 344.637 52.867 343.859 c 53.387 343.086 53.645 341.957 53.645 
340.48 c 53.645 339.012 53.387 337.887 52.867 337.109 c 52.352 336.336 
51.602 335.945 50.621 335.945 c 49.641 335.945 48.891 336.336 48.375 
337.109 c 47.855 337.887 47.598 339.012 47.598 340.48 c 47.598 341.957 
47.855 343.086 48.375 343.859 c 48.891 344.637 49.641 345.023 50.621 
345.023 c f
58.254 344.086 m 57.645 344.086 57.188 343.785 56.879 343.188 c 56.574 
342.586 56.422 341.688 56.422 340.48 c 56.422 339.285 56.574 338.383 
56.879 337.785 c 57.188 337.184 57.645 336.883 58.254 336.883 c 58.867 
336.883 59.328 337.184 59.637 337.785 c 59.941 338.383 60.098 339.285 
60.098 340.48 c 60.098 341.688 59.941 342.586 59.637 343.188 c 59.328 
343.785 58.867 344.086 58.254 344.086 c 58.254 345.023 m 59.238 345.023 
59.984 344.637 60.504 343.859 c 61.02 343.086 61.281 341.957 61.281 
340.48 c 61.281 339.012 61.02 337.887 60.504 337.109 c 59.984 336.336 
59.238 335.945 58.254 335.945 c 57.273 335.945 56.527 336.336 56.008 
337.109 c 55.492 337.887 55.234 339.012 55.234 340.48 c 55.234 341.957 
55.492 343.086 56.008 343.859 c 56.527 344.637 57.273 345.023 58.254 
345.023 c f
65.891 344.086 m 65.281 344.086 64.824 343.785 64.516 343.188 c 64.211 
342.586 64.055 341.688 64.055 340.48 c 64.055 339.285 64.211 338.383 
64.516 337.785 c 64.824 337.184 65.281 336.883 65.891 336.883 c 66.504 
336.883 66.965 337.184 67.27 337.785 c 67.578 338.383 67.73 339.285 
67.73 340.48 c 67.73 341.688 67.578 342.586 67.27 343.188 c 66.965 
343.785 66.504 344.086 65.891 344.086 c 65.891 345.023 m 66.871 345.023 
67.621 344.637 68.137 343.859 c 68.656 343.086 68.914 341.957 68.914 
340.48 c 68.914 339.012 68.656 337.887 68.137 337.109 c 67.621 336.336 
66.871 335.945 65.891 335.945 c 64.91 335.945 64.16 336.336 63.645 
337.109 c 63.125 337.887 62.867 339.012 62.867 340.48 c 62.867 341.957 
63.125 343.086 63.645 343.859 c 64.16 344.637 64.91 345.023 65.891 
345.023 c f
72 388.801 m 76 388.801 l f
72 388.801 m 76 388.801 l S
518.398 388.801 m 514.398 388.801 l f
518.398 388.801 m 514.398 388.801 l S
44.043 390.207 m 44.609 390.086 45.051 389.832 45.367 389.449 c 45.688 
389.066 45.844 388.594 45.844 388.031 c 45.844 387.168 45.547 386.5 
44.953 386.027 c 44.359 385.555 43.516 385.316 42.422 385.316 c 42.059 
385.316 41.68 385.355 41.289 385.426 c 40.902 385.5 40.5 385.609 40.086 
385.754 c 40.086 386.895 l 40.414 386.703 40.773 386.559 41.164 386.461 
c 41.555 386.363 41.965 386.316 42.391 386.316 c 43.129 386.316 43.695 
386.461 44.086 386.754 c 44.473 387.047 44.668 387.473 44.668 388.031 c 
44.668 388.547 44.488 388.949 44.125 389.242 c 43.766 389.531 43.262 
389.676 42.617 389.676 c 41.598 389.676 l 41.598 390.652 l 42.664 
390.652 l 43.246 390.652 43.691 390.766 44 391 c 44.309 391.23 44.465 
391.566 44.465 392.004 c 44.465 392.453 44.305 392.797 43.984 393.039 c 
43.668 393.277 43.211 393.398 42.617 393.398 c 42.293 393.398 41.945 
393.363 41.574 393.293 c 41.203 393.223 40.793 393.113 40.348 392.965 c 
40.348 394.02 l 40.801 394.145 41.219 394.238 41.613 394.301 c 42.004 
394.363 42.375 394.395 42.723 394.395 c 43.621 394.395 44.332 394.191 
44.855 393.781 c 45.379 393.375 45.641 392.824 45.641 392.129 c 45.641 
391.645 45.5 391.234 45.223 390.898 c 44.945 390.566 44.551 390.336 
44.043 390.207 c f
48.102 394.238 m 52.75 394.238 l 52.75 393.238 l 49.188 393.238 l 
49.188 391.098 l 49.355 391.156 49.527 391.199 49.699 391.227 c 49.871 
391.258 50.043 391.27 50.219 391.27 c 51.195 391.27 51.965 391.004 
52.535 390.469 c 53.109 389.934 53.395 389.211 53.395 388.297 c 53.395 
387.355 53.102 386.621 52.516 386.102 c 51.93 385.578 51.102 385.316 
50.035 385.316 c 49.668 385.316 49.293 385.348 48.914 385.41 c 48.531 
385.473 48.141 385.566 47.734 385.691 c 47.734 386.883 l 48.086 386.691 
48.449 386.551 48.824 386.457 c 49.199 386.363 49.594 386.316 50.012 
386.316 c 50.688 386.316 51.223 386.492 51.617 386.848 c 52.012 387.203 
52.207 387.688 52.207 388.297 c 52.207 388.906 52.012 389.387 51.617 
389.742 c 51.223 390.098 50.688 390.277 50.012 390.277 c 49.695 390.277 
49.379 390.242 49.062 390.172 c 48.75 390.102 48.43 389.992 48.102 
389.844 c h
48.102 394.238 m f
58.254 393.457 m 57.645 393.457 57.188 393.156 56.879 392.559 c 56.574 
391.957 56.422 391.059 56.422 389.855 c 56.422 388.656 56.574 387.754 
56.879 387.156 c 57.188 386.555 57.645 386.254 58.254 386.254 c 58.867 
386.254 59.328 386.555 59.637 387.156 c 59.941 387.754 60.098 388.656 
60.098 389.855 c 60.098 391.059 59.941 391.957 59.637 392.559 c 59.328 
393.156 58.867 393.457 58.254 393.457 c 58.254 394.395 m 59.238 394.395 
59.984 394.008 60.504 393.23 c 61.02 392.457 61.281 391.328 61.281 
389.855 c 61.281 388.383 61.02 387.258 60.504 386.48 c 59.984 385.707 
59.238 385.316 58.254 385.316 c 57.273 385.316 56.527 385.707 56.008 
386.48 c 55.492 387.258 55.234 388.383 55.234 389.855 c 55.234 391.328 
55.492 392.457 56.008 393.23 c 56.527 394.008 57.273 394.395 58.254 
394.395 c f
65.891 393.457 m 65.281 393.457 64.824 393.156 64.516 392.559 c 64.211 
391.957 64.055 391.059 64.055 389.855 c 64.055 388.656 64.211 387.754 
64.516 387.156 c 64.824 386.555 65.281 386.254 65.891 386.254 c 66.504 
386.254 66.965 386.555 67.27 387.156 c 67.578 387.754 67.73 388.656 
67.73 389.855 c 67.73 391.059 67.578 391.957 67.27 392.559 c 66.965 
393.156 66.504 393.457 65.891 393.457 c 65.891 394.395 m 66.871 394.395 
67.621 394.008 68.137 393.23 c 68.656 392.457 68.914 391.328 68.914 
389.855 c 68.914 388.383 68.656 387.258 68.137 386.48 c 67.621 385.707 
66.871 385.316 65.891 385.316 c 64.91 385.316 64.16 385.707 63.645 
386.48 c 63.125 387.258 62.867 388.383 62.867 389.855 c 62.867 391.328 
63.125 392.457 63.645 393.23 c 64.16 394.008 64.91 394.395 65.891 
394.395 c f
26.359 158.469 m 26.359 156.766 l 28.316 156.273 l 28.316 157.988 l h
23.027 157.59 m 25.457 156.98 l 25.457 158.691 l 23.027 159.309 l 
23.027 160.246 l 25.457 159.641 l 25.457 161.469 l 26.359 161.469 l 
26.359 159.414 l 28.316 158.934 l 28.316 160.797 l 29.215 160.797 l 
29.215 158.703 l 31.641 158.094 l 31.641 157.156 l 29.215 157.762 l 
29.215 156.043 l 31.641 155.438 l 31.641 154.496 l 29.215 155.105 l 
29.215 153.262 l 28.316 153.262 l 28.316 155.324 l 26.359 155.812 l 
26.359 153.93 l 25.457 153.93 l 25.457 156.043 l 23.027 156.641 l h
23.027 157.59 m f
29.051 167.223 m 25.078 167.223 l 25.078 168.301 l 29.012 168.301 l 
29.633 168.301 30.098 168.422 30.41 168.664 c 30.719 168.906 30.875 
169.27 30.875 169.754 c 30.875 170.336 30.688 170.797 30.316 171.133 c 
29.945 171.473 29.438 171.641 28.797 171.641 c 25.078 171.641 l 25.078 
172.719 l 31.641 172.719 l 31.641 171.641 l 30.633 171.641 l 31.031 
171.379 31.328 171.074 31.52 170.73 c 31.715 170.383 31.812 169.984 
31.812 169.527 c 31.812 168.773 31.578 168.199 31.109 167.809 c 30.641 
167.418 29.953 167.223 29.051 167.223 c f
26.086 178.742 m 26.016 178.621 25.965 178.488 25.93 178.348 c 25.898 
178.203 25.879 178.047 25.879 177.875 c 25.879 177.266 26.078 176.797 
26.477 176.473 c 26.871 176.145 27.441 175.98 28.184 175.98 c 31.641 
175.98 l 31.641 174.898 l 25.078 174.898 l 25.078 175.98 l 26.098 
175.98 l 25.699 176.211 25.402 176.504 25.211 176.867 c 25.016 177.23 
24.922 177.672 24.922 178.191 c 24.922 178.266 24.926 178.348 24.938 
178.438 c 24.945 178.527 24.957 178.629 24.98 178.738 c h
26.086 178.742 m f
22.523 179.875 m 22.523 180.953 l 31.641 180.953 l 31.641 179.875 l h
22.523 179.875 m f
25.27 187.391 m 26.293 187.391 l 26.137 187.086 26.02 186.77 25.941 
186.441 c 25.863 186.113 25.824 185.773 25.824 185.422 c 25.824 184.887 
25.906 184.484 26.066 184.219 c 26.23 183.949 26.477 183.816 26.809 
183.816 c 27.059 183.816 27.254 183.914 27.395 184.102 c 27.539 184.293 
27.672 184.68 27.801 185.258 c 27.887 185.629 l 28.047 186.395 28.281 
186.938 28.578 187.258 c 28.879 187.582 29.293 187.742 29.828 187.742 c 
30.438 187.742 30.922 187.5 31.277 187.02 c 31.633 186.535 31.812 
185.875 31.812 185.031 c 31.812 184.68 31.777 184.312 31.707 183.93 c 
31.641 183.551 31.535 183.148 31.402 182.727 c 30.285 182.727 l 30.496 
183.125 30.648 183.52 30.754 183.906 c 30.855 184.289 30.906 184.676 
30.906 185.055 c 30.906 185.562 30.82 185.953 30.648 186.223 c 30.473 
186.496 30.227 186.633 29.91 186.633 c 29.621 186.633 29.395 186.535 
29.238 186.34 c 29.082 186.141 28.934 185.711 28.785 185.039 c 28.699 
184.664 l 28.559 184 28.344 183.516 28.051 183.219 c 27.762 182.922 
27.359 182.773 26.855 182.773 c 26.234 182.773 25.762 182.992 25.426 
183.43 c 25.09 183.867 24.922 184.488 24.922 185.293 c 24.922 185.691 
24.949 186.066 25.008 186.418 c 25.066 186.77 25.152 187.094 25.27 
187.391 c f
22.523 196.598 m 23.422 196.598 l 23.422 195.566 l 23.422 195.18 23.5 
194.91 23.656 194.758 c 23.812 194.609 24.094 194.535 24.5 194.535 c 
25.078 194.535 l 25.078 196.309 l 25.918 196.309 l 25.918 194.535 l 
31.641 194.535 l 31.641 193.449 l 25.918 193.449 l 25.918 192.418 l 
25.078 192.418 l 25.078 193.449 l 24.621 193.449 l 23.891 193.449 
23.359 193.621 23.023 193.961 c 22.691 194.301 22.523 194.84 22.523 
195.574 c h
22.523 196.598 m f
25.832 200.039 m 25.832 199.465 26.059 199.008 26.512 198.672 c 26.961 
198.332 27.578 198.164 28.363 198.164 c 29.148 198.164 29.77 198.332 
30.219 198.668 c 30.672 199 30.895 199.461 30.895 200.039 c 30.895 
200.617 30.672 201.07 30.219 201.406 c 29.766 201.742 29.145 201.91 
28.363 201.91 c 27.586 201.91 26.973 201.742 26.516 201.406 c 26.062 
201.07 25.832 200.617 25.832 200.039 c 24.922 200.039 m 24.922 200.977 
25.227 201.715 25.836 202.25 c 26.445 202.785 27.289 203.055 28.363 
203.055 c 29.438 203.055 30.281 202.785 30.895 202.25 c 31.504 201.715 
31.812 200.977 31.812 200.039 c 31.812 199.098 31.504 198.363 30.895 
197.828 c 30.281 197.297 29.438 197.031 28.363 197.031 c 27.289 197.031 
26.445 197.297 25.836 197.828 c 25.227 198.363 24.922 199.098 24.922 
200.039 c f
26.086 208.641 m 26.016 208.52 25.965 208.391 25.93 208.246 c 25.898 
208.105 25.879 207.949 25.879 207.777 c 25.879 207.168 26.078 206.699 
26.477 206.371 c 26.871 206.047 27.441 205.883 28.184 205.883 c 31.641 
205.883 l 31.641 204.797 l 25.078 204.797 l 25.078 205.883 l 26.098 
205.883 l 25.699 206.109 25.402 206.406 25.211 206.766 c 25.016 207.133 
24.922 207.574 24.922 208.094 c 24.922 208.168 24.926 208.25 24.938 
208.34 c 24.945 208.43 24.957 208.527 24.98 208.637 c h
26.086 208.641 m f
28.09 219.203 m 28.617 219.203 l 28.617 214.246 l 29.359 214.293 29.926 
214.516 30.312 214.914 c 30.703 215.316 30.895 215.875 30.895 216.59 c 
30.895 217 30.844 217.402 30.746 217.793 c 30.645 218.18 30.492 218.566 
30.285 218.949 c 31.309 218.949 l 31.469 218.562 31.594 218.168 31.684 
217.762 c 31.77 217.355 31.812 216.941 31.812 216.523 c 31.812 215.477 
31.508 214.648 30.898 214.035 c 30.289 213.426 29.465 213.121 28.422 
213.121 c 27.348 213.121 26.496 213.41 25.867 213.988 c 25.234 214.57 
24.922 215.352 24.922 216.336 c 24.922 217.219 25.203 217.918 25.773 
218.43 c 26.34 218.945 27.113 219.203 28.09 219.203 c 27.773 218.125 m 
27.184 218.117 26.715 217.953 26.363 217.629 c 26.012 217.305 25.832 
216.879 25.832 216.348 c 25.832 215.746 26.004 215.266 26.344 214.902 c 
26.684 214.543 27.164 214.336 27.781 214.281 c h
27.773 218.125 m f
28.344 223.953 m 28.344 223.082 28.441 222.48 28.641 222.145 c 28.84 
221.805 29.18 221.637 29.66 221.637 c 30.043 221.637 30.348 221.766 
30.57 222.016 c 30.797 222.27 30.906 222.613 30.906 223.043 c 30.906 
223.645 30.695 224.125 30.273 224.484 c 29.848 224.848 29.285 225.027 
28.582 225.027 c 28.344 225.027 l h
27.895 226.105 m 31.641 226.105 l 31.641 225.027 l 30.645 225.027 l 
31.043 224.781 31.336 224.473 31.527 224.105 c 31.715 223.738 31.812 
223.289 31.812 222.758 c 31.812 222.086 31.621 221.551 31.246 221.156 c 
30.867 220.758 30.363 220.559 29.73 220.559 c 28.992 220.559 28.438 
220.809 28.062 221.301 c 27.688 221.797 27.5 222.535 27.5 223.512 c 
27.5 225.027 l 27.391 225.027 l 26.895 225.027 26.512 224.863 26.242 
224.535 c 25.969 224.211 25.832 223.754 25.832 223.164 c 25.832 222.789 
25.879 222.422 25.969 222.066 c 26.059 221.711 26.195 221.371 26.375 
221.043 c 25.375 221.043 l 25.223 221.438 25.109 221.816 25.035 222.191 
c 24.957 222.562 24.922 222.922 24.922 223.273 c 24.922 224.223 25.168 
224.934 25.66 225.402 c 26.152 225.871 26.895 226.105 27.895 226.105 c f
25.328 233.047 m 26.34 233.047 l 26.168 232.742 26.043 232.438 25.961 
232.129 c 25.875 231.824 25.832 231.516 25.832 231.203 c 25.832 230.504 
26.055 229.957 26.5 229.57 c 26.941 229.184 27.562 228.992 28.363 
228.992 c 29.168 228.992 29.789 229.184 30.234 229.57 c 30.676 229.957 
30.895 230.504 30.895 231.203 c 30.895 231.516 30.855 231.824 30.77 
232.129 c 30.688 232.438 30.562 232.742 30.391 233.047 c 31.391 233.047 
l 31.531 232.746 31.633 232.434 31.703 232.113 c 31.777 231.789 31.812 
231.449 31.812 231.086 c 31.812 230.094 31.5 229.309 30.879 228.727 c 
30.258 228.145 29.422 227.855 28.363 227.855 c 27.297 227.855 26.453 
228.148 25.84 228.738 c 25.227 229.324 24.922 230.133 24.922 231.156 c 
24.922 231.488 24.953 231.812 25.023 232.125 c 25.09 232.441 25.191 
232.75 25.328 233.047 c f
27.68 240.379 m 31.641 240.379 l 31.641 239.301 l 27.715 239.301 l 
27.094 239.301 26.629 239.18 26.32 238.938 c 26.012 238.695 25.859 
238.332 25.859 237.848 c 25.859 237.266 26.043 236.805 26.414 236.469 c 
26.785 236.133 27.289 235.965 27.934 235.965 c 31.641 235.965 l 31.641 
234.879 l 22.523 234.879 l 22.523 235.965 l 26.098 235.965 l 25.703 
236.223 25.406 236.527 25.215 236.875 c 25.02 237.227 24.922 237.629 
24.922 238.086 c 24.922 238.84 25.152 239.41 25.621 239.797 c 26.086 
240.184 26.773 240.379 27.68 240.379 c f
26.086 250.145 m 26.016 250.023 25.965 249.891 25.93 249.75 c 25.898 
249.605 25.879 249.449 25.879 249.277 c 25.879 248.668 26.078 248.199 
26.477 247.875 c 26.871 247.547 27.441 247.383 28.184 247.383 c 31.641 
247.383 l 31.641 246.301 l 25.078 246.301 l 25.078 247.383 l 26.098 
247.383 l 25.699 247.613 25.402 247.906 25.211 248.27 c 25.016 248.633 
24.922 249.074 24.922 249.594 c 24.922 249.668 24.926 249.75 24.938 
249.84 c 24.945 249.93 24.957 250.031 24.98 250.141 c h
26.086 250.145 m f
28.344 254.258 m 28.344 253.387 28.441 252.785 28.641 252.449 c 28.84 
252.109 29.18 251.941 29.66 251.941 c 30.043 251.941 30.348 252.07 
30.57 252.32 c 30.797 252.574 30.906 252.918 30.906 253.348 c 30.906 
253.949 30.695 254.43 30.273 254.789 c 29.848 255.152 29.285 255.332 
28.582 255.332 c 28.344 255.332 l h
27.895 256.41 m 31.641 256.41 l 31.641 255.332 l 30.645 255.332 l 
31.043 255.086 31.336 254.777 31.527 254.41 c 31.715 254.043 31.812 
253.594 31.812 253.062 c 31.812 252.391 31.621 251.855 31.246 251.461 c 
30.867 251.062 30.363 250.863 29.73 250.863 c 28.992 250.863 28.438 
251.113 28.062 251.605 c 27.688 252.102 27.5 252.84 27.5 253.816 c 27.5 
255.332 l 27.391 255.332 l 26.895 255.332 26.512 255.168 26.242 254.84 
c 25.969 254.516 25.832 254.059 25.832 253.469 c 25.832 253.094 25.879 
252.727 25.969 252.371 c 26.059 252.016 26.195 251.676 26.375 251.348 c 
25.375 251.348 l 25.223 251.742 25.109 252.121 25.035 252.496 c 24.957 
252.867 24.922 253.227 24.922 253.578 c 24.922 254.527 25.168 255.238 
25.66 255.707 c 26.152 256.176 26.895 256.41 27.895 256.41 c f
23.215 259.695 m 25.078 259.695 l 25.078 261.914 l 25.918 261.914 l 
25.918 259.695 l 29.48 259.695 l 30.016 259.695 30.359 259.77 30.512 
259.914 c 30.664 260.062 30.738 260.359 30.738 260.809 c 30.738 261.914 
l 31.641 261.914 l 31.641 260.809 l 31.641 259.977 31.484 259.402 
31.176 259.086 c 30.863 258.77 30.297 258.613 29.48 258.613 c 25.918 
258.613 l 25.918 257.82 l 25.078 257.82 l 25.078 258.613 l 23.215 
258.613 l h
23.215 259.695 m f
25.078 263.336 m 25.078 264.414 l 31.641 264.414 l 31.641 263.336 l h
22.523 263.336 m 22.523 264.414 l 23.891 264.414 l 23.891 263.336 l h
22.523 263.336 m f
27.68 272.125 m 31.641 272.125 l 31.641 271.047 l 27.715 271.047 l 
27.094 271.047 26.629 270.926 26.32 270.684 c 26.012 270.441 25.859 
270.078 25.859 269.594 c 25.859 269.012 26.043 268.551 26.414 268.215 c 
26.785 267.879 27.289 267.711 27.934 267.711 c 31.641 267.711 l 31.641 
266.625 l 25.078 266.625 l 25.078 267.711 l 26.098 267.711 l 25.703 
267.969 25.406 268.273 25.215 268.621 c 25.02 268.973 24.922 269.375 
24.922 269.832 c 24.922 270.586 25.152 271.156 25.621 271.543 c 26.086 
271.93 26.773 272.125 27.68 272.125 c f
28.281 278.59 m 27.5 278.59 26.895 278.43 26.469 278.109 c 26.039 
277.785 25.824 277.336 25.824 276.754 c 25.824 276.176 26.039 275.727 
26.469 275.402 c 26.895 275.078 27.5 274.918 28.281 274.918 c 29.059 
274.918 29.664 275.078 30.094 275.402 c 30.523 275.727 30.738 276.176 
30.738 276.754 c 30.738 277.336 30.523 277.785 30.094 278.109 c 29.664 
278.43 29.059 278.59 28.281 278.59 c 30.828 279.668 m 31.941 279.668 
32.773 279.422 33.32 278.926 c 33.863 278.43 34.137 277.672 34.137 
276.648 c 34.137 276.27 34.109 275.91 34.051 275.574 c 33.996 275.238 
33.91 274.914 33.793 274.598 c 32.742 274.598 l 32.914 274.914 33.039 
275.227 33.121 275.535 c 33.203 275.844 33.246 276.156 33.246 276.477 c 
33.246 277.184 33.062 277.715 32.691 278.066 c 32.324 278.418 31.766 
278.59 31.02 278.59 c 30.484 278.59 l 30.875 278.371 31.164 278.086 
31.355 277.738 c 31.547 277.391 31.641 276.973 31.641 276.488 c 31.641 
275.684 31.336 275.035 30.723 274.543 c 30.109 274.051 29.297 273.805 
28.281 273.805 c 27.266 273.805 26.453 274.051 25.84 274.543 c 25.227 
275.035 24.922 275.684 24.922 276.488 c 24.922 276.973 25.016 277.391 
25.207 277.738 c 25.398 278.086 25.688 278.371 26.074 278.59 c 25.078 
278.59 l 25.078 279.668 l h
30.828 279.668 m f
1 w
72 388.801 m 518.398 388.801 l S
518.398 43.199 m 518.398 388.801 l S
72 43.199 m 518.398 43.199 l S
72 43.199 m 72 388.801 l S
90.293 46.789 m 92.227 46.789 l 92.227 53.465 l 90.121 53.043 l 90.121 
54.121 l 92.215 54.543 l 93.398 54.543 l 93.398 46.789 l 95.332 46.789 
l 95.332 45.793 l 90.293 45.793 l h
90.293 46.789 m f
131.016 53.664 m 130.406 53.664 129.949 53.363 129.641 52.766 c 129.336 
52.164 129.184 51.266 129.184 50.062 c 129.184 48.863 129.336 47.961 
129.641 47.363 c 129.949 46.762 130.406 46.461 131.016 46.461 c 131.629 
46.461 132.09 46.762 132.395 47.363 c 132.703 47.961 132.859 48.863 
132.859 50.062 c 132.859 51.266 132.703 52.164 132.395 52.766 c 132.09 
53.363 131.629 53.664 131.016 53.664 c 131.016 54.602 m 131.996 54.602 
132.746 54.215 133.266 53.438 c 133.781 52.664 134.039 51.535 134.039 
50.062 c 134.039 48.59 133.781 47.465 133.266 46.688 c 132.746 45.914 
131.996 45.523 131.016 45.523 c 130.035 45.523 129.289 45.914 128.77 
46.688 c 128.254 47.465 127.992 48.59 127.992 50.062 c 127.992 51.535 
128.254 52.664 128.77 53.438 c 129.289 54.215 130.035 54.602 131.016 
54.602 c f
169.832 53.664 m 169.227 53.664 168.766 53.363 168.461 52.766 c 168.152 
52.164 168 51.266 168 50.062 c 168 48.863 168.152 47.961 168.461 47.363 
c 168.766 46.762 169.227 46.461 169.832 46.461 c 170.449 46.461 170.906 
46.762 171.215 47.363 c 171.52 47.961 171.676 48.863 171.676 50.062 c 
171.676 51.266 171.52 52.164 171.215 52.766 c 170.906 53.363 170.449 
53.664 169.832 53.664 c 169.832 54.602 m 170.816 54.602 171.562 54.215 
172.082 53.438 c 172.598 52.664 172.859 51.535 172.859 50.062 c 172.859 
48.59 172.598 47.465 172.082 46.688 c 171.562 45.914 170.816 45.523 
169.832 45.523 c 168.855 45.523 168.105 45.914 167.586 46.688 c 167.07 
47.465 166.812 48.59 166.812 50.062 c 166.812 51.535 167.07 52.664 
167.586 53.438 c 168.105 54.215 168.855 54.602 169.832 54.602 c f
201.301 118.379 m 200.77 118.379 200.352 118.195 200.039 117.832 c 
199.727 117.469 199.574 116.973 199.574 116.34 c 199.574 115.711 
199.727 115.211 200.039 114.848 c 200.352 114.48 200.77 114.301 201.301 
114.301 c 201.832 114.301 202.254 114.48 202.562 114.848 c 202.875 
115.211 203.027 115.711 203.027 116.34 c 203.027 116.973 202.875 
117.469 202.562 117.832 c 202.254 118.195 201.832 118.379 201.301 
118.379 c 203.652 122.086 m 203.652 121.008 l 203.355 121.148 203.055 
121.258 202.75 121.332 c 202.449 121.406 202.148 121.441 201.852 
121.441 c 201.07 121.441 200.473 121.18 200.062 120.652 c 199.648 
120.125 199.414 119.328 199.355 118.262 c 199.586 118.602 199.875 
118.863 200.223 119.043 c 200.57 119.223 200.953 119.316 201.371 
119.316 c 202.25 119.316 202.945 119.047 203.453 118.516 c 203.965 
117.98 204.219 117.258 204.219 116.34 c 204.219 115.441 203.953 114.719 
203.422 114.176 c 202.891 113.633 202.184 113.363 201.301 113.363 c 
200.289 113.363 199.516 113.75 198.98 114.523 c 198.445 115.301 198.18 
116.426 198.18 117.898 c 198.18 119.281 198.508 120.383 199.164 121.203 
c 199.82 122.027 200.699 122.438 201.805 122.438 c 202.102 122.438 
202.402 122.41 202.703 122.352 c 203.008 122.293 203.324 122.203 
203.652 122.086 c f
208.789 117.688 m 208.227 117.688 207.785 117.535 207.461 117.234 c 
207.141 116.934 206.98 116.52 206.98 115.992 c 206.98 115.465 207.141 
115.051 207.461 114.75 c 207.785 114.449 208.227 114.301 208.789 
114.301 c 209.352 114.301 209.793 114.449 210.117 114.754 c 210.441 
115.055 210.605 115.469 210.605 115.992 c 210.605 116.52 210.445 
116.934 210.121 117.234 c 209.801 117.535 209.355 117.688 208.789 
117.688 c 207.605 118.191 m 207.098 118.316 206.703 118.551 206.418 
118.898 c 206.137 119.246 205.996 119.672 205.996 120.172 c 205.996 
120.871 206.242 121.422 206.742 121.828 c 207.238 122.234 207.922 
122.438 208.789 122.438 c 209.66 122.438 210.344 122.234 210.84 121.828 
c 211.336 121.422 211.586 120.871 211.586 120.172 c 211.586 119.672 
211.441 119.246 211.16 118.898 c 210.875 118.551 210.484 118.316 209.98 
118.191 c 210.551 118.059 210.992 117.797 211.312 117.41 c 211.629 
117.023 211.789 116.551 211.789 115.992 c 211.789 115.145 211.531 
114.492 211.012 114.039 c 210.496 113.586 209.754 113.363 208.789 
113.363 c 207.824 113.363 207.082 113.586 206.566 114.039 c 206.047 
114.492 205.789 115.145 205.789 115.992 c 205.789 116.551 205.949 
117.023 206.27 117.41 c 206.59 117.797 207.035 118.059 207.605 118.191 
c 207.172 120.059 m 207.172 119.605 207.312 119.254 207.598 119 c 
207.879 118.746 208.277 118.617 208.789 118.617 c 209.297 118.617 
209.695 118.746 209.98 119 c 210.27 119.254 210.414 119.605 210.414 
120.059 c 210.414 120.512 210.27 120.867 209.98 121.121 c 209.695 
121.375 209.297 121.5 208.789 121.5 c 208.277 121.5 207.879 121.375 
207.598 121.121 c 207.312 120.867 207.172 120.512 207.172 120.059 c f
213.594 122.281 m 219.219 122.281 l 219.219 121.777 l 216.043 113.531 l 
214.809 113.531 l 217.797 121.285 l 213.594 121.285 l h
213.594 122.281 m f
233.965 149.188 m 235.898 149.188 l 235.898 155.863 l 233.797 155.441 l 
233.797 156.52 l 235.887 156.941 l 237.07 156.941 l 237.07 149.188 l 
239.004 149.188 l 239.004 148.191 l 233.965 148.191 l h
233.965 149.188 m f
243.926 156.16 m 243.316 156.16 242.859 155.859 242.551 155.258 c 
242.246 154.66 242.094 153.758 242.094 152.555 c 242.094 151.355 
242.246 150.457 242.551 149.859 c 242.859 149.258 243.316 148.957 
243.926 148.957 c 244.539 148.957 245 149.258 245.305 149.859 c 245.613 
150.457 245.77 151.355 245.77 152.555 c 245.77 153.758 245.613 154.66 
245.305 155.258 c 245 155.859 244.539 156.16 243.926 156.16 c 243.926 
157.098 m 244.906 157.098 245.656 156.707 246.176 155.934 c 246.691 
155.156 246.949 154.031 246.949 152.555 c 246.949 151.082 246.691 
149.957 246.176 149.184 c 245.656 148.406 244.906 148.02 243.926 148.02 
c 242.945 148.02 242.199 148.406 241.68 149.184 c 241.164 149.957 
240.902 151.082 240.902 152.555 c 240.902 154.031 241.164 155.156 
241.68 155.934 c 242.199 156.707 242.945 157.098 243.926 157.098 c f
252.617 152.91 m 253.184 152.785 253.625 152.535 253.941 152.152 c 
254.262 151.77 254.422 151.297 254.422 150.734 c 254.422 149.871 
254.125 149.203 253.531 148.73 c 252.938 148.258 252.094 148.02 251 
148.02 c 250.633 148.02 250.254 148.055 249.867 148.129 c 249.477 
148.203 249.078 148.309 248.664 148.457 c 248.664 149.598 l 248.988 
149.406 249.348 149.262 249.738 149.164 c 250.129 149.066 250.539 
149.02 250.965 149.02 c 251.707 149.02 252.27 149.164 252.66 149.457 c 
253.047 149.75 253.242 150.176 253.242 150.734 c 253.242 151.25 253.062 
151.652 252.703 151.941 c 252.34 152.234 251.836 152.379 251.195 
152.379 c 250.172 152.379 l 250.172 153.352 l 251.242 153.352 l 251.82 
153.352 252.266 153.469 252.574 153.703 c 252.883 153.934 253.039 
154.27 253.039 154.707 c 253.039 155.156 252.879 155.5 252.562 155.738 
c 252.242 155.98 251.789 156.102 251.195 156.102 c 250.867 156.102 
250.52 156.066 250.148 155.996 c 249.777 155.926 249.371 155.816 
248.926 155.668 c 248.926 156.723 l 249.375 156.848 249.797 156.941 
250.188 157.004 c 250.582 157.066 250.953 157.098 251.297 157.098 c 
252.199 157.098 252.906 156.895 253.43 156.484 c 253.953 156.078 
254.215 155.523 254.215 154.832 c 254.215 154.344 254.078 153.938 
253.801 153.602 c 253.523 153.27 253.129 153.035 252.617 152.91 c f
259.195 152.348 m 258.633 152.348 258.191 152.195 257.867 151.895 c 
257.547 151.594 257.387 151.18 257.387 150.652 c 257.387 150.125 
257.547 149.711 257.867 149.41 c 258.191 149.109 258.633 148.957 
259.195 148.957 c 259.758 148.957 260.203 149.109 260.523 149.41 c 
260.852 149.715 261.012 150.129 261.012 150.652 c 261.012 151.18 
260.852 151.594 260.527 151.895 c 260.207 152.195 259.762 152.348 
259.195 152.348 c 258.012 152.848 m 257.504 152.973 257.109 153.211 
256.824 153.559 c 256.543 153.906 256.402 154.332 256.402 154.832 c 
256.402 155.527 256.652 156.082 257.148 156.488 c 257.648 156.895 
258.328 157.098 259.195 157.098 c 260.066 157.098 260.75 156.895 
261.246 156.488 c 261.742 156.082 261.992 155.527 261.992 154.832 c 
261.992 154.332 261.852 153.906 261.566 153.559 c 261.285 153.211 
260.891 152.973 260.387 152.848 c 260.957 152.715 261.398 152.457 
261.719 152.066 c 262.035 151.684 262.195 151.211 262.195 150.652 c 
262.195 149.805 261.938 149.152 261.418 148.699 c 260.902 148.246 
260.16 148.02 259.195 148.02 c 258.23 148.02 257.492 148.246 256.973 
148.699 c 256.453 149.152 256.195 149.805 256.195 150.652 c 256.195 
151.211 256.355 151.684 256.676 152.066 c 256.996 152.457 257.441 
152.715 258.012 152.848 c 257.578 154.719 m 257.578 154.266 257.723 
153.91 258.004 153.66 c 258.289 153.406 258.684 153.277 259.195 153.277 
c 259.703 153.277 260.102 153.406 260.387 153.66 c 260.676 153.91 
260.82 154.266 260.82 154.719 c 260.82 155.172 260.676 155.523 260.387 
155.777 c 260.102 156.031 259.703 156.16 259.195 156.16 c 258.684 
156.16 258.289 156.031 258.004 155.777 c 257.723 155.523 257.578 
155.172 257.578 154.719 c f
276.152 367.574 m 276.719 367.453 277.16 367.203 277.48 366.816 c 
277.797 366.434 277.957 365.961 277.957 365.398 c 277.957 364.539 
277.66 363.871 277.066 363.395 c 276.473 362.922 275.629 362.688 
274.535 362.688 c 274.168 362.688 273.793 362.723 273.402 362.797 c 
273.016 362.867 272.613 362.977 272.199 363.121 c 272.199 364.266 l 
272.527 364.074 272.887 363.93 273.273 363.832 c 273.668 363.734 
274.074 363.684 274.5 363.684 c 275.242 363.684 275.809 363.832 276.195 
364.125 c 276.586 364.414 276.781 364.84 276.781 365.398 c 276.781 
365.918 276.598 366.32 276.238 366.609 c 275.875 366.902 275.375 
367.047 274.73 367.047 c 273.711 367.047 l 273.711 368.02 l 274.777 
368.02 l 275.359 368.02 275.805 368.137 276.113 368.367 c 276.422 
368.602 276.574 368.938 276.574 369.375 c 276.574 369.82 276.414 
370.168 276.098 370.406 c 275.781 370.648 275.324 370.77 274.73 370.77 
c 274.406 370.77 274.059 370.734 273.688 370.66 c 273.316 370.59 
272.906 370.484 272.461 370.336 c 272.461 371.391 l 272.91 371.516 
273.332 371.609 273.727 371.672 c 274.117 371.734 274.488 371.766 
274.836 371.766 c 275.734 371.766 276.445 371.559 276.969 371.152 c 
277.492 370.742 277.754 370.191 277.754 369.496 c 277.754 369.012 
277.613 368.602 277.336 368.27 c 277.059 367.934 276.664 367.703 
276.152 367.574 c f
281.223 363.852 m 285.352 363.852 l 285.352 362.859 l 279.797 362.859 l 
279.797 363.852 l 280.246 364.316 280.859 364.941 281.633 365.723 c 
282.41 366.508 282.898 367.016 283.098 367.242 c 283.477 367.668 
283.738 368.027 283.891 368.32 c 284.039 368.617 284.117 368.906 
284.117 369.191 c 284.117 369.656 283.953 370.035 283.629 370.328 c 
283.301 370.621 282.875 370.77 282.352 370.77 c 281.98 370.77 281.59 
370.703 281.176 370.574 c 280.766 370.445 280.324 370.25 279.855 
369.988 c 279.855 371.184 l 280.332 371.375 280.777 371.52 281.191 
371.617 c 281.605 371.715 281.984 371.766 282.328 371.766 c 283.234 
371.766 283.957 371.535 284.496 371.082 c 285.035 370.629 285.305 
370.027 285.305 369.27 c 285.305 368.91 285.238 368.566 285.102 368.246 
c 284.969 367.922 284.723 367.543 284.367 367.105 c 284.27 366.992 
283.961 366.664 283.438 366.125 c 282.914 365.582 282.176 364.824 
281.223 363.852 c f
288.043 363.852 m 289.977 363.852 l 289.977 370.527 l 287.871 370.105 l 
287.871 371.184 l 289.965 371.605 l 291.148 371.605 l 291.148 363.852 l 
293.082 363.852 l 293.082 362.859 l 288.043 362.859 l h
288.043 363.852 m f
296.492 363.852 m 300.621 363.852 l 300.621 362.859 l 295.066 362.859 l 
295.066 363.852 l 295.516 364.316 296.129 364.941 296.902 365.723 c 
297.68 366.508 298.168 367.016 298.367 367.242 c 298.746 367.668 
299.008 368.027 299.16 368.32 c 299.309 368.617 299.387 368.906 299.387 
369.191 c 299.387 369.656 299.223 370.035 298.898 370.328 c 298.57 
370.621 298.145 370.77 297.621 370.77 c 297.25 370.77 296.859 370.703 
296.445 370.574 c 296.035 370.445 295.594 370.25 295.125 369.988 c 
295.125 371.184 l 295.602 371.375 296.047 371.52 296.461 371.617 c 
296.875 371.715 297.254 371.766 297.598 371.766 c 298.504 371.766 
299.227 371.535 299.766 371.082 c 300.305 370.629 300.574 370.027 
300.574 369.27 c 300.574 368.91 300.508 368.566 300.371 368.246 c 
300.238 367.922 299.992 367.543 299.637 367.105 c 299.539 366.992 
299.23 366.664 298.707 366.125 c 298.184 365.582 297.445 364.824 
296.492 363.852 c f
322.484 55.137 m 328.109 55.137 l 328.109 54.633 l 324.934 46.387 l 
323.699 46.387 l 326.688 54.137 l 322.484 54.137 l h
322.484 55.137 m f
363.922 53.664 m 363.312 53.664 362.855 53.363 362.547 52.766 c 362.238 
52.164 362.086 51.266 362.086 50.062 c 362.086 48.863 362.238 47.961 
362.547 47.363 c 362.855 46.762 363.312 46.461 363.922 46.461 c 364.535 
46.461 364.996 46.762 365.301 47.363 c 365.609 47.961 365.762 48.863 
365.762 50.062 c 365.762 51.266 365.609 52.164 365.301 52.766 c 364.996 
53.363 364.535 53.664 363.922 53.664 c 363.922 54.602 m 364.902 54.602 
365.652 54.215 366.168 53.438 c 366.688 52.664 366.945 51.535 366.945 
50.062 c 366.945 48.59 366.688 47.465 366.168 46.688 c 365.652 45.914 
364.902 45.523 363.922 45.523 c 362.941 45.523 362.191 45.914 361.676 
46.688 c 361.156 47.465 360.898 48.59 360.898 50.062 c 360.898 51.535 
361.156 52.664 361.676 53.438 c 362.191 54.215 362.941 54.602 363.922 
54.602 c f
402.738 53.664 m 402.129 53.664 401.672 53.363 401.363 52.766 c 401.059 
52.164 400.906 51.266 400.906 50.062 c 400.906 48.863 401.059 47.961 
401.363 47.363 c 401.672 46.762 402.129 46.461 402.738 46.461 c 403.352 
46.461 403.812 46.762 404.117 47.363 c 404.426 47.961 404.578 48.863 
404.578 50.062 c 404.578 51.266 404.426 52.164 404.117 52.766 c 403.812 
53.363 403.352 53.664 402.738 53.664 c 402.738 54.602 m 403.719 54.602 
404.469 54.215 404.984 53.438 c 405.504 52.664 405.762 51.535 405.762 
50.062 c 405.762 48.59 405.504 47.465 404.984 46.688 c 404.469 45.914 
403.719 45.523 402.738 45.523 c 401.758 45.523 401.008 45.914 400.492 
46.688 c 399.973 47.465 399.715 48.59 399.715 50.062 c 399.715 51.535 
399.973 52.664 400.492 53.438 c 401.008 54.215 401.758 54.602 402.738 
54.602 c f
441.555 53.664 m 440.945 53.664 440.488 53.363 440.18 52.766 c 439.875 
52.164 439.723 51.266 439.723 50.062 c 439.723 48.863 439.875 47.961 
440.18 47.363 c 440.488 46.762 440.945 46.461 441.555 46.461 c 442.168 
46.461 442.629 46.762 442.934 47.363 c 443.242 47.961 443.398 48.863 
443.398 50.062 c 443.398 51.266 443.242 52.164 442.934 52.766 c 442.629 
53.363 442.168 53.664 441.555 53.664 c 441.555 54.602 m 442.535 54.602 
443.285 54.215 443.805 53.438 c 444.32 52.664 444.578 51.535 444.578 
50.062 c 444.578 48.59 444.32 47.465 443.805 46.688 c 443.285 45.914 
442.535 45.523 441.555 45.523 c 440.574 45.523 439.828 45.914 439.309 
46.688 c 438.793 47.465 438.531 48.59 438.531 50.062 c 438.531 51.535 
438.793 52.664 439.309 53.438 c 439.828 54.215 440.574 54.602 441.555 
54.602 c f
480.371 53.664 m 479.766 53.664 479.305 53.363 479 52.766 c 478.691 
52.164 478.539 51.266 478.539 50.062 c 478.539 48.863 478.691 47.961 
479 47.363 c 479.305 46.762 479.766 46.461 480.371 46.461 c 480.988 
46.461 481.445 46.762 481.754 47.363 c 482.059 47.961 482.215 48.863 
482.215 50.062 c 482.215 51.266 482.059 52.164 481.754 52.766 c 481.445 
53.363 480.988 53.664 480.371 53.664 c 480.371 54.602 m 481.355 54.602 
482.105 54.215 482.621 53.438 c 483.137 52.664 483.398 51.535 483.398 
50.062 c 483.398 48.59 483.137 47.465 482.621 46.688 c 482.105 45.914 
481.355 45.523 480.371 45.523 c 479.395 45.523 478.645 45.914 478.125 
46.688 c 477.609 47.465 477.352 48.59 477.352 50.062 c 477.352 51.535 
477.609 52.664 478.125 53.438 c 478.645 54.215 479.395 54.602 480.371 
54.602 c f
Q Q
showpage
%%Trailer
count op_count sub {pop} repeat
countdictstack dict_count sub {end} repeat
cairo_eps_state restore
%%EOF
